ARM GAS  /tmp/ccPryv9I.s 			page 1


   1              		.syntax unified
   2              		.cpu cortex-m3
   3              		.fpu softvfp
   4              		.eabi_attribute 20, 1
   5              		.eabi_attribute 21, 1
   6              		.eabi_attribute 23, 3
   7              		.eabi_attribute 24, 1
   8              		.eabi_attribute 25, 1
   9              		.eabi_attribute 26, 1
  10              		.eabi_attribute 30, 2
  11              		.eabi_attribute 34, 1
  12              		.eabi_attribute 18, 4
  13              		.thumb
  14              		.file	"chheap.c"
  15              		.text
  16              	.Ltext0:
  17              		.cfi_sections	.debug_frame
  18              		.section	.text._heap_init,"ax",%progbits
  19              		.align	2
  20              		.p2align 4,,15
  21              		.global	_heap_init
  22              		.thumb
  23              		.thumb_func
  24              		.type	_heap_init, %function
  25              	_heap_init:
  26              	.LFB7:
  27              		.file 1 "../../../os/kernel/src/chheap.c"
  28              		.loc 1 75 0
  29              		.cfi_startproc
  30              		@ args = 0, pretend = 0, frame = 0
  31              		@ frame_needed = 0, uses_anonymous_args = 0
  32              		@ link register save eliminated.
  33              		.loc 1 76 0
  34 0000 044B     		ldr	r3, .L2
  35 0002 0549     		ldr	r1, .L2+4
  36              		.loc 1 77 0
  37 0004 0022     		movs	r2, #0
  38              		.loc 1 80 0
  39 0006 03F11000 		add	r0, r3, #16
  40              		.loc 1 76 0
  41 000a 1960     		str	r1, [r3]
  42              		.loc 1 77 0
  43 000c 9A60     		str	r2, [r3, #8]
  44              		.loc 1 78 0
  45 000e DA60     		str	r2, [r3, #12]
  46              		.loc 1 80 0
  47 0010 FFF7FEBF 		b	chMtxInit
  48              	.LVL0:
  49              	.L3:
  50              		.align	2
  51              	.L2:
  52 0014 00000000 		.word	.LANCHOR0
  53 0018 00000000 		.word	chCoreAlloc
  54              		.cfi_endproc
  55              	.LFE7:
  56              		.size	_heap_init, .-_heap_init
  57 001c AFF30080 		.section	.text.chHeapInit,"ax",%progbits
ARM GAS  /tmp/ccPryv9I.s 			page 2


  58              		.align	2
  59              		.p2align 4,,15
  60              		.global	chHeapInit
  61              		.thumb
  62              		.thumb_func
  63              		.type	chHeapInit, %function
  64              	chHeapInit:
  65              	.LFB8:
  66              		.loc 1 99 0
  67              		.cfi_startproc
  68              		@ args = 0, pretend = 0, frame = 0
  69              		@ frame_needed = 0, uses_anonymous_args = 0
  70              	.LVL1:
  71 0000 70B5     		push	{r4, r5, r6, lr}
  72              		.cfi_def_cfa_offset 16
  73              		.cfi_offset 4, -16
  74              		.cfi_offset 5, -12
  75              		.cfi_offset 6, -8
  76              		.cfi_offset 14, -4
  77              		.loc 1 99 0
  78 0002 1646     		mov	r6, r2
  79              		.loc 1 102 0
  80 0004 4A07     		lsls	r2, r1, #29
  81              	.LVL2:
  82              		.loc 1 99 0
  83 0006 0C46     		mov	r4, r1
  84 0008 0546     		mov	r5, r0
  85              		.loc 1 102 0
  86 000a 01D1     		bne	.L5
  87              		.loc 1 102 0 is_stmt 0 discriminator 2
  88 000c 7307     		lsls	r3, r6, #29
  89 000e 02D0     		beq	.L6
  90              	.L5:
  91              		.loc 1 102 0 discriminator 1
  92 0010 0748     		ldr	r0, .L11
  93              	.LVL3:
  94 0012 FFF7FEFF 		bl	chDbgPanic
  95              	.LVL4:
  96              	.L6:
  97              		.loc 1 104 0 is_stmt 1
  98 0016 0023     		movs	r3, #0
  99              		.loc 1 108 0
 100 0018 083E     		subs	r6, r6, #8
 101              	.LVL5:
 102              		.loc 1 105 0
 103 001a AC60     		str	r4, [r5, #8]
 104              		.loc 1 104 0
 105 001c 2B60     		str	r3, [r5]
 106              	.LVL6:
 107              		.loc 1 106 0
 108 001e EB60     		str	r3, [r5, #12]
 109              		.loc 1 107 0
 110 0020 84E84800 		stmia	r4, {r3, r6}
 111              	.LVL7:
 112              		.loc 1 110 0
 113 0024 05F11000 		add	r0, r5, #16
 114              		.loc 1 114 0
ARM GAS  /tmp/ccPryv9I.s 			page 3


 115 0028 BDE87040 		pop	{r4, r5, r6, lr}
 116              	.LVL8:
 117              		.loc 1 110 0
 118 002c FFF7FEBF 		b	chMtxInit
 119              	.LVL9:
 120              	.L12:
 121              		.align	2
 122              	.L11:
 123 0030 00000000 		.word	.LC0
 124              		.cfi_endproc
 125              	.LFE8:
 126              		.size	chHeapInit, .-chHeapInit
 127 0034 AFF30080 		.section	.text.chHeapAlloc,"ax",%progbits
 127      AFF30080 
 127      AFF30080 
 128              		.align	2
 129              		.p2align 4,,15
 130              		.global	chHeapAlloc
 131              		.thumb
 132              		.thumb_func
 133              		.type	chHeapAlloc, %function
 134              	chHeapAlloc:
 135              	.LFB9:
 136              		.loc 1 132 0
 137              		.cfi_startproc
 138              		@ args = 0, pretend = 0, frame = 0
 139              		@ frame_needed = 0, uses_anonymous_args = 0
 140              	.LVL10:
 141 0000 F8B5     		push	{r3, r4, r5, r6, r7, lr}
 142              		.cfi_def_cfa_offset 24
 143              		.cfi_offset 3, -24
 144              		.cfi_offset 4, -20
 145              		.cfi_offset 5, -16
 146              		.cfi_offset 6, -12
 147              		.cfi_offset 7, -8
 148              		.cfi_offset 14, -4
 149              		.loc 1 136 0
 150 0002 1E4E     		ldr	r6, .L28
 151              		.loc 1 138 0
 152 0004 0731     		adds	r1, r1, #7
 153              	.LVL11:
 154              		.loc 1 136 0
 155 0006 0028     		cmp	r0, #0
 156 0008 18BF     		it	ne
 157 000a 0646     		movne	r6, r0
 158              	.LVL12:
 159              		.loc 1 140 0
 160 000c 06F11000 		add	r0, r6, #16
 161              		.loc 1 138 0
 162 0010 21F00705 		bic	r5, r1, #7
 163              	.LVL13:
 164              		.loc 1 139 0
 165 0014 06F10804 		add	r4, r6, #8
 166              	.LVL14:
 167              		.loc 1 140 0
 168 0018 FFF7FEFF 		bl	chMtxLock
 169              	.LVL15:
ARM GAS  /tmp/ccPryv9I.s 			page 4


 170              		.loc 1 142 0
 171 001c 03E0     		b	.L15
 172              	.LVL16:
 173              	.L20:
 174              		.loc 1 144 0
 175 001e 5A68     		ldr	r2, [r3, #4]
 176 0020 9542     		cmp	r5, r2
 177 0022 11D9     		bls	.L27
 178 0024 1C46     		mov	r4, r3
 179              	.LVL17:
 180              	.L15:
 181              		.loc 1 142 0 discriminator 1
 182 0026 2368     		ldr	r3, [r4]
 183              	.LVL18:
 184 0028 002B     		cmp	r3, #0
 185 002a F8D1     		bne	.L20
 186              		.loc 1 167 0
 187 002c FFF7FEFF 		bl	chMtxUnlock
 188              	.LVL19:
 189              		.loc 1 171 0
 190 0030 3368     		ldr	r3, [r6]
 191 0032 0BB3     		cbz	r3, .L22
 192              		.loc 1 172 0
 193 0034 05F10800 		add	r0, r5, #8
 194 0038 9847     		blx	r3
 195              	.LVL20:
 196              		.loc 1 173 0
 197 003a E8B1     		cbz	r0, .L22
 198              		.loc 1 174 0
 199 003c 0660     		str	r6, [r0]
 200              		.loc 1 175 0
 201 003e 4560     		str	r5, [r0, #4]
 202              	.LVL21:
 203              		.loc 1 177 0
 204 0040 00F10804 		add	r4, r0, #8
 205              	.LVL22:
 206              	.L19:
 207              		.loc 1 181 0
 208 0044 2046     		mov	r0, r4
 209 0046 F8BD     		pop	{r3, r4, r5, r6, r7, pc}
 210              	.LVL23:
 211              	.L27:
 212              		.loc 1 145 0
 213 0048 05F10801 		add	r1, r5, #8
 214 004c 9142     		cmp	r1, r2
 215 004e 08D9     		bls	.L17
 216              		.loc 1 149 0
 217 0050 1A68     		ldr	r2, [r3]
 218 0052 2260     		str	r2, [r4]
 219              	.L18:
 220              		.loc 1 159 0
 221 0054 1C46     		mov	r4, r3
 222              	.LVL24:
 223 0056 44F8086B 		str	r6, [r4], #8
 224              		.loc 1 161 0
 225 005a FFF7FEFF 		bl	chMtxUnlock
 226              	.LVL25:
ARM GAS  /tmp/ccPryv9I.s 			page 5


 227              		.loc 1 181 0
 228 005e 2046     		mov	r0, r4
 229 0060 F8BD     		pop	{r3, r4, r5, r6, r7, pc}
 230              	.LVL26:
 231              	.L17:
 232              		.loc 1 155 0
 233 0062 6FF00700 		mvn	r0, #7
 234              		.loc 1 154 0
 235 0066 1F68     		ldr	r7, [r3]
 236              		.loc 1 155 0
 237 0068 401B     		subs	r0, r0, r5
 238 006a 1044     		add	r0, r0, r2
 239              		.loc 1 153 0
 240 006c 5A18     		adds	r2, r3, r1
 241              	.LVL27:
 242              		.loc 1 154 0
 243 006e 5F50     		str	r7, [r3, r1]
 244              		.loc 1 155 0
 245 0070 5060     		str	r0, [r2, #4]
 246              		.loc 1 156 0
 247 0072 2260     		str	r2, [r4]
 248              		.loc 1 157 0
 249 0074 5D60     		str	r5, [r3, #4]
 250 0076 EDE7     		b	.L18
 251              	.LVL28:
 252              	.L22:
 253              		.loc 1 180 0
 254 0078 0024     		movs	r4, #0
 255              	.LVL29:
 256 007a E3E7     		b	.L19
 257              	.L29:
 258              		.align	2
 259              	.L28:
 260 007c 00000000 		.word	.LANCHOR0
 261              		.cfi_endproc
 262              	.LFE9:
 263              		.size	chHeapAlloc, .-chHeapAlloc
 264              		.section	.text.chHeapFree,"ax",%progbits
 265              		.align	2
 266              		.p2align 4,,15
 267              		.global	chHeapFree
 268              		.thumb
 269              		.thumb_func
 270              		.type	chHeapFree, %function
 271              	chHeapFree:
 272              	.LFB10:
 273              		.loc 1 194 0
 274              		.cfi_startproc
 275              		@ args = 0, pretend = 0, frame = 0
 276              		@ frame_needed = 0, uses_anonymous_args = 0
 277              	.LVL30:
 278 0000 F8B5     		push	{r3, r4, r5, r6, r7, lr}
 279              		.cfi_def_cfa_offset 24
 280              		.cfi_offset 3, -24
 281              		.cfi_offset 4, -20
 282              		.cfi_offset 5, -16
 283              		.cfi_offset 6, -12
ARM GAS  /tmp/ccPryv9I.s 			page 6


 284              		.cfi_offset 7, -8
 285              		.cfi_offset 14, -4
 286              		.loc 1 198 0
 287 0002 0746     		mov	r7, r0
 288 0004 0028     		cmp	r0, #0
 289 0006 57D0     		beq	.L44
 290              	.LVL31:
 291              	.L31:
 292              		.loc 1 201 0
 293 0008 57F8086C 		ldr	r6, [r7, #-8]
 294              		.loc 1 200 0
 295 000c A7F10805 		sub	r5, r7, #8
 296              	.LVL32:
 297              		.loc 1 203 0
 298 0010 06F11000 		add	r0, r6, #16
 299 0014 FFF7FEFF 		bl	chMtxLock
 300              	.LVL33:
 301              		.loc 1 202 0
 302 0018 0836     		adds	r6, r6, #8
 303              	.LVL34:
 304 001a 3446     		mov	r4, r6
 305              	.LVL35:
 306              	.L39:
 307              		.loc 1 206 0
 308 001c AC42     		cmp	r4, r5
 309 001e 04D8     		bhi	.L32
 310              		.loc 1 206 0 is_stmt 0 discriminator 1
 311 0020 6368     		ldr	r3, [r4, #4]
 312 0022 0833     		adds	r3, r3, #8
 313 0024 2344     		add	r3, r3, r4
 314 0026 9D42     		cmp	r5, r3
 315 0028 0BD3     		bcc	.L45
 316              	.L32:
 317              		.loc 1 210 0 is_stmt 1
 318 002a B442     		cmp	r4, r6
 319 002c 0ED0     		beq	.L33
 320              	.L46:
 321              		.loc 1 210 0 is_stmt 0 discriminator 2
 322 002e AC42     		cmp	r4, r5
 323 0030 0CD3     		bcc	.L33
 324 0032 2468     		ldr	r4, [r4]
 325              	.LVL36:
 326              		.loc 1 206 0 is_stmt 1
 327 0034 AC42     		cmp	r4, r5
 328 0036 F8D8     		bhi	.L32
 329 0038 6368     		ldr	r3, [r4, #4]
 330 003a 0833     		adds	r3, r3, #8
 331 003c 2344     		add	r3, r3, r4
 332 003e 9D42     		cmp	r5, r3
 333 0040 F3D2     		bcs	.L32
 334              	.L45:
 335              		.loc 1 206 0 is_stmt 0 discriminator 1
 336 0042 1F48     		ldr	r0, .L49
 337 0044 FFF7FEFF 		bl	chDbgPanic
 338              	.LVL37:
 339              		.loc 1 210 0 is_stmt 1 discriminator 1
 340 0048 B442     		cmp	r4, r6
ARM GAS  /tmp/ccPryv9I.s 			page 7


 341 004a F0D1     		bne	.L46
 342              	.L33:
 343              		.loc 1 211 0 discriminator 1
 344 004c 2368     		ldr	r3, [r4]
 345              		.loc 1 210 0 discriminator 1
 346 004e 1BB1     		cbz	r3, .L35
 347              		.loc 1 211 0
 348 0050 9D42     		cmp	r5, r3
 349 0052 01D3     		bcc	.L35
 350 0054 1C46     		mov	r4, r3
 351              	.LVL38:
 352              		.loc 1 229 0
 353 0056 E1E7     		b	.L39
 354              	.LVL39:
 355              	.L35:
 356              		.loc 1 216 0
 357 0058 57F8042C 		ldr	r2, [r7, #-4]
 358              		.loc 1 213 0
 359 005c 47F8083C 		str	r3, [r7, #-8]
 360              		.loc 1 214 0
 361 0060 2560     		str	r5, [r4]
 362              		.loc 1 216 0
 363 0062 02F10803 		add	r3, r2, #8
 364 0066 57F8080C 		ldr	r0, [r7, #-8]
 365 006a E918     		adds	r1, r5, r3
 366 006c 8142     		cmp	r1, r0
 367 006e 09D0     		beq	.L47
 368              		.loc 1 221 0
 369 0070 6368     		ldr	r3, [r4, #4]
 370 0072 03F10802 		add	r2, r3, #8
 371 0076 2244     		add	r2, r2, r4
 372 0078 9542     		cmp	r5, r2
 373 007a 11D0     		beq	.L48
 374              	.L38:
 375              		.loc 1 233 0
 376 007c BDE8F840 		pop	{r3, r4, r5, r6, r7, lr}
 377              	.LVL40:
 378              		.loc 1 231 0
 379 0080 FFF7FEBF 		b	chMtxUnlock
 380              	.LVL41:
 381              	.L47:
 382              		.loc 1 218 0
 383 0084 4968     		ldr	r1, [r1, #4]
 384              		.loc 1 219 0
 385 0086 EB58     		ldr	r3, [r5, r3]
 386              		.loc 1 218 0
 387 0088 0A44     		add	r2, r2, r1
 388 008a 0832     		adds	r2, r2, #8
 389 008c 47F8042C 		str	r2, [r7, #-4]
 390              		.loc 1 219 0
 391 0090 47F8083C 		str	r3, [r7, #-8]
 392              		.loc 1 221 0
 393 0094 6368     		ldr	r3, [r4, #4]
 394 0096 03F10802 		add	r2, r3, #8
 395 009a 2244     		add	r2, r2, r4
 396 009c 9542     		cmp	r5, r2
 397 009e EDD1     		bne	.L38
ARM GAS  /tmp/ccPryv9I.s 			page 8


 398              	.L48:
 399              		.loc 1 223 0
 400 00a0 57F8041C 		ldr	r1, [r7, #-4]
 401              		.loc 1 224 0
 402 00a4 57F8082C 		ldr	r2, [r7, #-8]
 403              		.loc 1 223 0
 404 00a8 0B44     		add	r3, r3, r1
 405 00aa 0833     		adds	r3, r3, #8
 406              		.loc 1 224 0
 407 00ac 84E80C00 		stmia	r4, {r2, r3}
 408              		.loc 1 233 0
 409 00b0 BDE8F840 		pop	{r3, r4, r5, r6, r7, lr}
 410              	.LVL42:
 411              		.loc 1 231 0
 412 00b4 FFF7FEBF 		b	chMtxUnlock
 413              	.LVL43:
 414              	.L44:
 415              		.loc 1 198 0 discriminator 1
 416 00b8 0248     		ldr	r0, .L49+4
 417              	.LVL44:
 418 00ba FFF7FEFF 		bl	chDbgPanic
 419              	.LVL45:
 420 00be A3E7     		b	.L31
 421              	.L50:
 422              		.align	2
 423              	.L49:
 424 00c0 20000000 		.word	.LC2
 425 00c4 10000000 		.word	.LC1
 426              		.cfi_endproc
 427              	.LFE10:
 428              		.size	chHeapFree, .-chHeapFree
 429 00c8 AFF30080 		.section	.text.chHeapStatus,"ax",%progbits
 429      AFF30080 
 430              		.align	2
 431              		.p2align 4,,15
 432              		.global	chHeapStatus
 433              		.thumb
 434              		.thumb_func
 435              		.type	chHeapStatus, %function
 436              	chHeapStatus:
 437              	.LFB11:
 438              		.loc 1 250 0
 439              		.cfi_startproc
 440              		@ args = 0, pretend = 0, frame = 0
 441              		@ frame_needed = 0, uses_anonymous_args = 0
 442              	.LVL46:
 443 0000 38B5     		push	{r3, r4, r5, lr}
 444              		.cfi_def_cfa_offset 16
 445              		.cfi_offset 3, -16
 446              		.cfi_offset 4, -12
 447              		.cfi_offset 5, -8
 448              		.cfi_offset 14, -4
 449              		.loc 1 255 0
 450 0002 0E4C     		ldr	r4, .L64
 451              		.loc 1 250 0
 452 0004 0D46     		mov	r5, r1
 453              		.loc 1 255 0
ARM GAS  /tmp/ccPryv9I.s 			page 9


 454 0006 0028     		cmp	r0, #0
 455 0008 18BF     		it	ne
 456 000a 0446     		movne	r4, r0
 457              	.LVL47:
 458              		.loc 1 257 0
 459 000c 04F11000 		add	r0, r4, #16
 460 0010 FFF7FEFF 		bl	chMtxLock
 461              	.LVL48:
 462              		.loc 1 260 0
 463 0014 A368     		ldr	r3, [r4, #8]
 464 0016 6BB1     		cbz	r3, .L57
 465              		.loc 1 259 0
 466 0018 0022     		movs	r2, #0
 467              		.loc 1 260 0
 468 001a 1446     		mov	r4, r2
 469              	.LVL49:
 470              	.L54:
 471              		.loc 1 261 0 discriminator 2
 472 001c 5868     		ldr	r0, [r3, #4]
 473              		.loc 1 260 0 discriminator 2
 474 001e 1B68     		ldr	r3, [r3]
 475 0020 0134     		adds	r4, r4, #1
 476              	.LVL50:
 477              		.loc 1 261 0 discriminator 2
 478 0022 0244     		add	r2, r2, r0
 479              	.LVL51:
 480              		.loc 1 260 0 discriminator 2
 481 0024 002B     		cmp	r3, #0
 482 0026 F9D1     		bne	.L54
 483              	.LVL52:
 484              	.L53:
 485              		.loc 1 262 0
 486 0028 05B1     		cbz	r5, .L55
 487              		.loc 1 263 0
 488 002a 2A60     		str	r2, [r5]
 489              	.L55:
 490              		.loc 1 265 0
 491 002c FFF7FEFF 		bl	chMtxUnlock
 492              	.LVL53:
 493              		.loc 1 267 0
 494 0030 2046     		mov	r0, r4
 495 0032 38BD     		pop	{r3, r4, r5, pc}
 496              	.LVL54:
 497              	.L57:
 498              		.loc 1 259 0
 499 0034 1A46     		mov	r2, r3
 500              		.loc 1 260 0
 501 0036 1C46     		mov	r4, r3
 502              	.LVL55:
 503 0038 F6E7     		b	.L53
 504              	.L65:
 505 003a 00BF     		.align	2
 506              	.L64:
 507 003c 00000000 		.word	.LANCHOR0
 508              		.cfi_endproc
 509              	.LFE11:
 510              		.size	chHeapStatus, .-chHeapStatus
ARM GAS  /tmp/ccPryv9I.s 			page 10


 511              		.section	.rodata.str1.4,"aMS",%progbits,1
 512              		.align	2
 513              	.LC0:
 514 0000 22636848 		.ascii	"\"chHeapInit\"()\000"
 514      65617049 
 514      6E697422 
 514      282900
 515 000f 00       		.space	1
 516              	.LC1:
 517 0010 22636848 		.ascii	"\"chHeapFree\"()\000"
 517      65617046 
 517      72656522 
 517      282900
 518 001f 00       		.space	1
 519              	.LC2:
 520 0020 63684865 		.ascii	"chHeapFree(), #1\000"
 520      61704672 
 520      65652829 
 520      2C202331 
 520      00
 521 0031 000000   		.section	.bss.default_heap,"aw",%nobits
 522              		.align	3
 523              		.set	.LANCHOR0,. + 0
 524              		.type	default_heap, %object
 525              		.size	default_heap, 32
 526              	default_heap:
 527 0000 00000000 		.space	32
 527      00000000 
 527      00000000 
 527      00000000 
 527      00000000 
 528              		.text
 529              	.Letext0:
 530              		.file 2 "/homes/msunkara/ASE-praticle-folder/gcc-arm-embedded/gcc-arm-none-eabi-4_8-2014q/lib/gcc/
 531              		.file 3 "/homes/msunkara/ASE-praticle-folder/gcc-arm-embedded/gcc-arm-none-eabi-4_8-2014q/arm-none
 532              		.file 4 "/homes/msunkara/ASE-praticle-folder/gcc-arm-embedded/gcc-arm-none-eabi-4_8-2014q/arm-none
 533              		.file 5 "../../../os/ports/GCC/ARMCMx/chtypes.h"
 534              		.file 6 "../../../os/kernel/include/chlists.h"
 535              		.file 7 "../../../os/kernel/include/chthreads.h"
 536              		.file 8 "../../../os/ports/GCC/ARMCMx/chcore_v7m.h"
 537              		.file 9 "../../../os/kernel/include/chmtx.h"
 538              		.file 10 "../../../os/kernel/include/chmemcore.h"
 539              		.file 11 "../../../os/kernel/include/chheap.h"
 540              		.file 12 "../../../os/kernel/include/chdebug.h"
 541              		.section	.debug_info,"",%progbits
 542              	.Ldebug_info0:
 543 0000 27070000 		.4byte	0x727
 544 0004 0400     		.2byte	0x4
 545 0006 00000000 		.4byte	.Ldebug_abbrev0
 546 000a 04       		.byte	0x4
 547 000b 01       		.uleb128 0x1
 548 000c 41030000 		.4byte	.LASF81
 549 0010 01       		.byte	0x1
 550 0011 B9010000 		.4byte	.LASF82
 551 0015 F8000000 		.4byte	.LASF83
 552 0019 00000000 		.4byte	.Ldebug_ranges0+0
 553 001d 00000000 		.4byte	0
ARM GAS  /tmp/ccPryv9I.s 			page 11


 554 0021 00000000 		.4byte	.Ldebug_line0
 555 0025 02       		.uleb128 0x2
 556 0026 04       		.byte	0x4
 557 0027 05       		.byte	0x5
 558 0028 696E7400 		.ascii	"int\000"
 559 002c 03       		.uleb128 0x3
 560 002d 06000000 		.4byte	.LASF2
 561 0031 02       		.byte	0x2
 562 0032 D4       		.byte	0xd4
 563 0033 37000000 		.4byte	0x37
 564 0037 04       		.uleb128 0x4
 565 0038 04       		.byte	0x4
 566 0039 07       		.byte	0x7
 567 003a 4B010000 		.4byte	.LASF0
 568 003e 04       		.uleb128 0x4
 569 003f 01       		.byte	0x1
 570 0040 06       		.byte	0x6
 571 0041 9D000000 		.4byte	.LASF1
 572 0045 03       		.uleb128 0x3
 573 0046 1D000000 		.4byte	.LASF3
 574 004a 03       		.byte	0x3
 575 004b 1C       		.byte	0x1c
 576 004c 50000000 		.4byte	0x50
 577 0050 04       		.uleb128 0x4
 578 0051 01       		.byte	0x1
 579 0052 08       		.byte	0x8
 580 0053 3C020000 		.4byte	.LASF4
 581 0057 04       		.uleb128 0x4
 582 0058 02       		.byte	0x2
 583 0059 05       		.byte	0x5
 584 005a 5F020000 		.4byte	.LASF5
 585 005e 04       		.uleb128 0x4
 586 005f 02       		.byte	0x2
 587 0060 07       		.byte	0x7
 588 0061 6F010000 		.4byte	.LASF6
 589 0065 03       		.uleb128 0x3
 590 0066 F0020000 		.4byte	.LASF7
 591 006a 03       		.byte	0x3
 592 006b 37       		.byte	0x37
 593 006c 70000000 		.4byte	0x70
 594 0070 04       		.uleb128 0x4
 595 0071 04       		.byte	0x4
 596 0072 05       		.byte	0x5
 597 0073 CA000000 		.4byte	.LASF8
 598 0077 03       		.uleb128 0x3
 599 0078 E4000000 		.4byte	.LASF9
 600 007c 03       		.byte	0x3
 601 007d 38       		.byte	0x38
 602 007e 82000000 		.4byte	0x82
 603 0082 04       		.uleb128 0x4
 604 0083 04       		.byte	0x4
 605 0084 07       		.byte	0x7
 606 0085 58010000 		.4byte	.LASF10
 607 0089 04       		.uleb128 0x4
 608 008a 08       		.byte	0x8
 609 008b 05       		.byte	0x5
 610 008c 8F000000 		.4byte	.LASF11
ARM GAS  /tmp/ccPryv9I.s 			page 12


 611 0090 03       		.uleb128 0x3
 612 0091 0C020000 		.4byte	.LASF12
 613 0095 03       		.byte	0x3
 614 0096 4E       		.byte	0x4e
 615 0097 9B000000 		.4byte	0x9b
 616 009b 04       		.uleb128 0x4
 617 009c 08       		.byte	0x8
 618 009d 07       		.byte	0x7
 619 009e 34000000 		.4byte	.LASF13
 620 00a2 03       		.uleb128 0x3
 621 00a3 25030000 		.4byte	.LASF14
 622 00a7 04       		.byte	0x4
 623 00a8 2A       		.byte	0x2a
 624 00a9 45000000 		.4byte	0x45
 625 00ad 03       		.uleb128 0x3
 626 00ae 34020000 		.4byte	.LASF15
 627 00b2 04       		.byte	0x4
 628 00b3 41       		.byte	0x41
 629 00b4 65000000 		.4byte	0x65
 630 00b8 03       		.uleb128 0x3
 631 00b9 B1020000 		.4byte	.LASF16
 632 00bd 04       		.byte	0x4
 633 00be 42       		.byte	0x42
 634 00bf 77000000 		.4byte	0x77
 635 00c3 03       		.uleb128 0x3
 636 00c4 14000000 		.4byte	.LASF17
 637 00c8 04       		.byte	0x4
 638 00c9 4E       		.byte	0x4e
 639 00ca 90000000 		.4byte	0x90
 640 00ce 04       		.uleb128 0x4
 641 00cf 01       		.byte	0x1
 642 00d0 02       		.byte	0x2
 643 00d1 2E020000 		.4byte	.LASF18
 644 00d5 03       		.uleb128 0x3
 645 00d6 88010000 		.4byte	.LASF19
 646 00da 05       		.byte	0x5
 647 00db 2C       		.byte	0x2c
 648 00dc A2000000 		.4byte	0xa2
 649 00e0 03       		.uleb128 0x3
 650 00e1 D3000000 		.4byte	.LASF20
 651 00e5 05       		.byte	0x5
 652 00e6 2D       		.byte	0x2d
 653 00e7 A2000000 		.4byte	0xa2
 654 00eb 03       		.uleb128 0x3
 655 00ec 17020000 		.4byte	.LASF21
 656 00f0 05       		.byte	0x5
 657 00f1 2E       		.byte	0x2e
 658 00f2 A2000000 		.4byte	0xa2
 659 00f6 03       		.uleb128 0x3
 660 00f7 26020000 		.4byte	.LASF22
 661 00fb 05       		.byte	0x5
 662 00fc 30       		.byte	0x30
 663 00fd B8000000 		.4byte	0xb8
 664 0101 03       		.uleb128 0x3
 665 0102 82010000 		.4byte	.LASF23
 666 0106 05       		.byte	0x5
 667 0107 31       		.byte	0x31
ARM GAS  /tmp/ccPryv9I.s 			page 13


 668 0108 AD000000 		.4byte	0xad
 669 010c 03       		.uleb128 0x3
 670 010d 9C010000 		.4byte	.LASF24
 671 0111 05       		.byte	0x5
 672 0112 33       		.byte	0x33
 673 0113 B8000000 		.4byte	0xb8
 674 0117 03       		.uleb128 0x3
 675 0118 93020000 		.4byte	.LASF25
 676 011c 06       		.byte	0x6
 677 011d 2A       		.byte	0x2a
 678 011e 22010000 		.4byte	0x122
 679 0122 05       		.uleb128 0x5
 680 0123 93020000 		.4byte	.LASF25
 681 0127 48       		.byte	0x48
 682 0128 07       		.byte	0x7
 683 0129 5E       		.byte	0x5e
 684 012a 13020000 		.4byte	0x213
 685 012e 06       		.uleb128 0x6
 686 012f 84020000 		.4byte	.LASF26
 687 0133 07       		.byte	0x7
 688 0134 5F       		.byte	0x5f
 689 0135 34020000 		.4byte	0x234
 690 0139 00       		.byte	0
 691 013a 06       		.uleb128 0x6
 692 013b 1F020000 		.4byte	.LASF27
 693 013f 07       		.byte	0x7
 694 0140 61       		.byte	0x61
 695 0141 34020000 		.4byte	0x234
 696 0145 04       		.byte	0x4
 697 0146 06       		.uleb128 0x6
 698 0147 88000000 		.4byte	.LASF28
 699 014b 07       		.byte	0x7
 700 014c 63       		.byte	0x63
 701 014d F6000000 		.4byte	0xf6
 702 0151 08       		.byte	0x8
 703 0152 06       		.uleb128 0x6
 704 0153 2E040000 		.4byte	.LASF29
 705 0157 07       		.byte	0x7
 706 0158 64       		.byte	0x64
 707 0159 F9020000 		.4byte	0x2f9
 708 015d 0C       		.byte	0xc
 709 015e 06       		.uleb128 0x6
 710 015f DC000000 		.4byte	.LASF30
 711 0163 07       		.byte	0x7
 712 0164 66       		.byte	0x66
 713 0165 34020000 		.4byte	0x234
 714 0169 10       		.byte	0x10
 715 016a 06       		.uleb128 0x6
 716 016b EC010000 		.4byte	.LASF31
 717 016f 07       		.byte	0x7
 718 0170 67       		.byte	0x67
 719 0171 34020000 		.4byte	0x234
 720 0175 14       		.byte	0x14
 721 0176 06       		.uleb128 0x6
 722 0177 3A030000 		.4byte	.LASF32
 723 017b 07       		.byte	0x7
 724 017c 6E       		.byte	0x6e
ARM GAS  /tmp/ccPryv9I.s 			page 14


 725 017d 5F040000 		.4byte	0x45f
 726 0181 18       		.byte	0x18
 727 0182 06       		.uleb128 0x6
 728 0183 40010000 		.4byte	.LASF33
 729 0187 07       		.byte	0x7
 730 0188 74       		.byte	0x74
 731 0189 71040000 		.4byte	0x471
 732 018d 1C       		.byte	0x1c
 733 018e 06       		.uleb128 0x6
 734 018f 69020000 		.4byte	.LASF34
 735 0193 07       		.byte	0x7
 736 0194 79       		.byte	0x79
 737 0195 E0000000 		.4byte	0xe0
 738 0199 20       		.byte	0x20
 739 019a 06       		.uleb128 0x6
 740 019b 8B020000 		.4byte	.LASF35
 741 019f 07       		.byte	0x7
 742 01a0 7D       		.byte	0x7d
 743 01a1 D5000000 		.4byte	0xd5
 744 01a5 21       		.byte	0x21
 745 01a6 06       		.uleb128 0x6
 746 01a7 1E030000 		.4byte	.LASF36
 747 01ab 07       		.byte	0x7
 748 01ac 82       		.byte	0x82
 749 01ad EB000000 		.4byte	0xeb
 750 01b1 22       		.byte	0x22
 751 01b2 07       		.uleb128 0x7
 752 01b3 705F7500 		.ascii	"p_u\000"
 753 01b7 07       		.byte	0x7
 754 01b8 B4       		.byte	0xb4
 755 01b9 2A040000 		.4byte	0x42a
 756 01bd 24       		.byte	0x24
 757 01be 06       		.uleb128 0x6
 758 01bf 34040000 		.4byte	.LASF37
 759 01c3 07       		.byte	0x7
 760 01c4 B9       		.byte	0xb9
 761 01c5 5A020000 		.4byte	0x25a
 762 01c9 28       		.byte	0x28
 763 01ca 06       		.uleb128 0x6
 764 01cb 09030000 		.4byte	.LASF38
 765 01cf 07       		.byte	0x7
 766 01d0 BF       		.byte	0xbf
 767 01d1 3A020000 		.4byte	0x23a
 768 01d5 2C       		.byte	0x2c
 769 01d6 06       		.uleb128 0x6
 770 01d7 00000000 		.4byte	.LASF39
 771 01db 07       		.byte	0x7
 772 01dc C3       		.byte	0xc3
 773 01dd 01010000 		.4byte	0x101
 774 01e1 34       		.byte	0x34
 775 01e2 06       		.uleb128 0x6
 776 01e3 A6020000 		.4byte	.LASF40
 777 01e7 07       		.byte	0x7
 778 01e8 C9       		.byte	0xc9
 779 01e9 0C010000 		.4byte	0x10c
 780 01ed 38       		.byte	0x38
 781 01ee 06       		.uleb128 0x6
ARM GAS  /tmp/ccPryv9I.s 			page 15


 782 01ef 55020000 		.4byte	.LASF41
 783 01f3 07       		.byte	0x7
 784 01f4 D0       		.byte	0xd0
 785 01f5 77040000 		.4byte	0x477
 786 01f9 3C       		.byte	0x3c
 787 01fa 06       		.uleb128 0x6
 788 01fb E5020000 		.4byte	.LASF42
 789 01ff 07       		.byte	0x7
 790 0200 D4       		.byte	0xd4
 791 0201 F6000000 		.4byte	0xf6
 792 0205 40       		.byte	0x40
 793 0206 06       		.uleb128 0x6
 794 0207 AF000000 		.4byte	.LASF43
 795 020b 07       		.byte	0x7
 796 020c DA       		.byte	0xda
 797 020d 70020000 		.4byte	0x270
 798 0211 44       		.byte	0x44
 799 0212 00       		.byte	0
 800 0213 08       		.uleb128 0x8
 801 0214 08       		.byte	0x8
 802 0215 06       		.byte	0x6
 803 0216 61       		.byte	0x61
 804 0217 34020000 		.4byte	0x234
 805 021b 06       		.uleb128 0x6
 806 021c 84020000 		.4byte	.LASF26
 807 0220 06       		.byte	0x6
 808 0221 62       		.byte	0x62
 809 0222 34020000 		.4byte	0x234
 810 0226 00       		.byte	0
 811 0227 06       		.uleb128 0x6
 812 0228 1F020000 		.4byte	.LASF27
 813 022c 06       		.byte	0x6
 814 022d 64       		.byte	0x64
 815 022e 34020000 		.4byte	0x234
 816 0232 04       		.byte	0x4
 817 0233 00       		.byte	0
 818 0234 09       		.uleb128 0x9
 819 0235 04       		.byte	0x4
 820 0236 17010000 		.4byte	0x117
 821 023a 03       		.uleb128 0x3
 822 023b F4010000 		.4byte	.LASF44
 823 023f 06       		.byte	0x6
 824 0240 66       		.byte	0x66
 825 0241 13020000 		.4byte	0x213
 826 0245 08       		.uleb128 0x8
 827 0246 04       		.byte	0x4
 828 0247 06       		.byte	0x6
 829 0248 6B       		.byte	0x6b
 830 0249 5A020000 		.4byte	0x25a
 831 024d 06       		.uleb128 0x6
 832 024e 84020000 		.4byte	.LASF26
 833 0252 06       		.byte	0x6
 834 0253 6D       		.byte	0x6d
 835 0254 34020000 		.4byte	0x234
 836 0258 00       		.byte	0
 837 0259 00       		.byte	0
 838 025a 03       		.uleb128 0x3
ARM GAS  /tmp/ccPryv9I.s 			page 16


 839 025b 90010000 		.4byte	.LASF45
 840 025f 06       		.byte	0x6
 841 0260 70       		.byte	0x70
 842 0261 45020000 		.4byte	0x245
 843 0265 03       		.uleb128 0x3
 844 0266 EF000000 		.4byte	.LASF46
 845 026a 08       		.byte	0x8
 846 026b E5       		.byte	0xe5
 847 026c 70020000 		.4byte	0x270
 848 0270 0A       		.uleb128 0xa
 849 0271 04       		.byte	0x4
 850 0272 03       		.uleb128 0x3
 851 0273 AE010000 		.4byte	.LASF47
 852 0277 08       		.byte	0x8
 853 0278 EB       		.byte	0xeb
 854 0279 C3000000 		.4byte	0xc3
 855 027d 0B       		.uleb128 0xb
 856 027e 02030000 		.4byte	.LASF48
 857 0282 24       		.byte	0x24
 858 0283 08       		.byte	0x8
 859 0284 0C01     		.2byte	0x10c
 860 0286 F9020000 		.4byte	0x2f9
 861 028a 0C       		.uleb128 0xc
 862 028b 723400   		.ascii	"r4\000"
 863 028e 08       		.byte	0x8
 864 028f 1F01     		.2byte	0x11f
 865 0291 65020000 		.4byte	0x265
 866 0295 00       		.byte	0
 867 0296 0C       		.uleb128 0xc
 868 0297 723500   		.ascii	"r5\000"
 869 029a 08       		.byte	0x8
 870 029b 2001     		.2byte	0x120
 871 029d 65020000 		.4byte	0x265
 872 02a1 04       		.byte	0x4
 873 02a2 0C       		.uleb128 0xc
 874 02a3 723600   		.ascii	"r6\000"
 875 02a6 08       		.byte	0x8
 876 02a7 2101     		.2byte	0x121
 877 02a9 65020000 		.4byte	0x265
 878 02ad 08       		.byte	0x8
 879 02ae 0C       		.uleb128 0xc
 880 02af 723700   		.ascii	"r7\000"
 881 02b2 08       		.byte	0x8
 882 02b3 2201     		.2byte	0x122
 883 02b5 65020000 		.4byte	0x265
 884 02b9 0C       		.byte	0xc
 885 02ba 0C       		.uleb128 0xc
 886 02bb 723800   		.ascii	"r8\000"
 887 02be 08       		.byte	0x8
 888 02bf 2301     		.2byte	0x123
 889 02c1 65020000 		.4byte	0x265
 890 02c5 10       		.byte	0x10
 891 02c6 0C       		.uleb128 0xc
 892 02c7 723900   		.ascii	"r9\000"
 893 02ca 08       		.byte	0x8
 894 02cb 2401     		.2byte	0x124
 895 02cd 65020000 		.4byte	0x265
ARM GAS  /tmp/ccPryv9I.s 			page 17


 896 02d1 14       		.byte	0x14
 897 02d2 0C       		.uleb128 0xc
 898 02d3 72313000 		.ascii	"r10\000"
 899 02d7 08       		.byte	0x8
 900 02d8 2501     		.2byte	0x125
 901 02da 65020000 		.4byte	0x265
 902 02de 18       		.byte	0x18
 903 02df 0C       		.uleb128 0xc
 904 02e0 72313100 		.ascii	"r11\000"
 905 02e4 08       		.byte	0x8
 906 02e5 2601     		.2byte	0x126
 907 02e7 65020000 		.4byte	0x265
 908 02eb 1C       		.byte	0x1c
 909 02ec 0C       		.uleb128 0xc
 910 02ed 6C7200   		.ascii	"lr\000"
 911 02f0 08       		.byte	0x8
 912 02f1 2701     		.2byte	0x127
 913 02f3 65020000 		.4byte	0x265
 914 02f7 20       		.byte	0x20
 915 02f8 00       		.byte	0
 916 02f9 0B       		.uleb128 0xb
 917 02fa FA020000 		.4byte	.LASF49
 918 02fe 04       		.byte	0x4
 919 02ff 08       		.byte	0x8
 920 0300 3101     		.2byte	0x131
 921 0302 14030000 		.4byte	0x314
 922 0306 0C       		.uleb128 0xc
 923 0307 72313300 		.ascii	"r13\000"
 924 030b 08       		.byte	0x8
 925 030c 3201     		.2byte	0x132
 926 030e 14030000 		.4byte	0x314
 927 0312 00       		.byte	0
 928 0313 00       		.byte	0
 929 0314 09       		.uleb128 0x9
 930 0315 04       		.byte	0x4
 931 0316 7D020000 		.4byte	0x27d
 932 031a 04       		.uleb128 0x4
 933 031b 04       		.byte	0x4
 934 031c 07       		.byte	0x7
 935 031d D9010000 		.4byte	.LASF50
 936 0321 05       		.uleb128 0x5
 937 0322 A8010000 		.4byte	.LASF51
 938 0326 10       		.byte	0x10
 939 0327 09       		.byte	0x9
 940 0328 2C       		.byte	0x2c
 941 0329 52030000 		.4byte	0x352
 942 032d 06       		.uleb128 0x6
 943 032e B7000000 		.4byte	.LASF52
 944 0332 09       		.byte	0x9
 945 0333 2D       		.byte	0x2d
 946 0334 3A020000 		.4byte	0x23a
 947 0338 00       		.byte	0
 948 0339 06       		.uleb128 0x6
 949 033a 26040000 		.4byte	.LASF53
 950 033e 09       		.byte	0x9
 951 033f 2F       		.byte	0x2f
 952 0340 34020000 		.4byte	0x234
ARM GAS  /tmp/ccPryv9I.s 			page 18


 953 0344 08       		.byte	0x8
 954 0345 06       		.uleb128 0x6
 955 0346 DE020000 		.4byte	.LASF54
 956 034a 09       		.byte	0x9
 957 034b 31       		.byte	0x31
 958 034c 52030000 		.4byte	0x352
 959 0350 0C       		.byte	0xc
 960 0351 00       		.byte	0
 961 0352 09       		.uleb128 0x9
 962 0353 04       		.byte	0x4
 963 0354 21030000 		.4byte	0x321
 964 0358 03       		.uleb128 0x3
 965 0359 A8010000 		.4byte	.LASF51
 966 035d 09       		.byte	0x9
 967 035e 33       		.byte	0x33
 968 035f 21030000 		.4byte	0x321
 969 0363 03       		.uleb128 0x3
 970 0364 27000000 		.4byte	.LASF55
 971 0368 0A       		.byte	0xa
 972 0369 2C       		.byte	0x2c
 973 036a 6E030000 		.4byte	0x36e
 974 036e 09       		.uleb128 0x9
 975 036f 04       		.byte	0x4
 976 0370 74030000 		.4byte	0x374
 977 0374 0D       		.uleb128 0xd
 978 0375 70020000 		.4byte	0x270
 979 0379 83030000 		.4byte	0x383
 980 037d 0E       		.uleb128 0xe
 981 037e 2C000000 		.4byte	0x2c
 982 0382 00       		.byte	0
 983 0383 03       		.uleb128 0x3
 984 0384 01020000 		.4byte	.LASF56
 985 0388 0B       		.byte	0xb
 986 0389 34       		.byte	0x34
 987 038a 8E030000 		.4byte	0x38e
 988 038e 05       		.uleb128 0x5
 989 038f 3E040000 		.4byte	.LASF57
 990 0393 20       		.byte	0x20
 991 0394 0B       		.byte	0xb
 992 0395 47       		.byte	0x47
 993 0396 BF030000 		.4byte	0x3bf
 994 039a 06       		.uleb128 0x6
 995 039b 4A020000 		.4byte	.LASF58
 996 039f 0B       		.byte	0xb
 997 03a0 48       		.byte	0x48
 998 03a1 63030000 		.4byte	0x363
 999 03a5 00       		.byte	0
 1000 03a6 06       		.uleb128 0x6
 1001 03a7 54000000 		.4byte	.LASF59
 1002 03ab 0B       		.byte	0xb
 1003 03ac 4A       		.byte	0x4a
 1004 03ad DE030000 		.4byte	0x3de
 1005 03b1 08       		.byte	0x8
 1006 03b2 06       		.uleb128 0x6
 1007 03b3 A9000000 		.4byte	.LASF60
 1008 03b7 0B       		.byte	0xb
 1009 03b8 4C       		.byte	0x4c
ARM GAS  /tmp/ccPryv9I.s 			page 19


 1010 03b9 58030000 		.4byte	0x358
 1011 03bd 10       		.byte	0x10
 1012 03be 00       		.byte	0
 1013 03bf 0F       		.uleb128 0xf
 1014 03c0 04       		.byte	0x4
 1015 03c1 0B       		.byte	0xb
 1016 03c2 3C       		.byte	0x3c
 1017 03c3 DE030000 		.4byte	0x3de
 1018 03c7 10       		.uleb128 0x10
 1019 03c8 83000000 		.4byte	.LASF61
 1020 03cc 0B       		.byte	0xb
 1021 03cd 3D       		.byte	0x3d
 1022 03ce FF030000 		.4byte	0x3ff
 1023 03d2 10       		.uleb128 0x10
 1024 03d3 BA020000 		.4byte	.LASF62
 1025 03d7 0B       		.byte	0xb
 1026 03d8 3E       		.byte	0x3e
 1027 03d9 05040000 		.4byte	0x405
 1028 03dd 00       		.byte	0
 1029 03de 11       		.uleb128 0x11
 1030 03df 71020000 		.4byte	.LASF84
 1031 03e3 08       		.byte	0x8
 1032 03e4 0B       		.byte	0xb
 1033 03e5 39       		.byte	0x39
 1034 03e6 FF030000 		.4byte	0x3ff
 1035 03ea 10       		.uleb128 0x10
 1036 03eb 3A010000 		.4byte	.LASF63
 1037 03ef 0B       		.byte	0xb
 1038 03f0 3A       		.byte	0x3a
 1039 03f1 72020000 		.4byte	0x272
 1040 03f5 12       		.uleb128 0x12
 1041 03f6 6800     		.ascii	"h\000"
 1042 03f8 0B       		.byte	0xb
 1043 03f9 41       		.byte	0x41
 1044 03fa 0B040000 		.4byte	0x40b
 1045 03fe 00       		.byte	0
 1046 03ff 09       		.uleb128 0x9
 1047 0400 04       		.byte	0x4
 1048 0401 DE030000 		.4byte	0x3de
 1049 0405 09       		.uleb128 0x9
 1050 0406 04       		.byte	0x4
 1051 0407 83030000 		.4byte	0x383
 1052 040b 08       		.uleb128 0x8
 1053 040c 08       		.byte	0x8
 1054 040d 0B       		.byte	0xb
 1055 040e 3B       		.byte	0x3b
 1056 040f 2A040000 		.4byte	0x42a
 1057 0413 07       		.uleb128 0x7
 1058 0414 7500     		.ascii	"u\000"
 1059 0416 0B       		.byte	0xb
 1060 0417 3F       		.byte	0x3f
 1061 0418 BF030000 		.4byte	0x3bf
 1062 041c 00       		.byte	0
 1063 041d 06       		.uleb128 0x6
 1064 041e 6A010000 		.4byte	.LASF64
 1065 0422 0B       		.byte	0xb
 1066 0423 40       		.byte	0x40
ARM GAS  /tmp/ccPryv9I.s 			page 20


 1067 0424 2C000000 		.4byte	0x2c
 1068 0428 04       		.byte	0x4
 1069 0429 00       		.byte	0
 1070 042a 0F       		.uleb128 0xf
 1071 042b 04       		.byte	0x4
 1072 042c 07       		.byte	0x7
 1073 042d 96       		.byte	0x96
 1074 042e 5F040000 		.4byte	0x45f
 1075 0432 10       		.uleb128 0x10
 1076 0433 0D000000 		.4byte	.LASF65
 1077 0437 07       		.byte	0x7
 1078 0438 9D       		.byte	0x9d
 1079 0439 01010000 		.4byte	0x101
 1080 043d 10       		.uleb128 0x10
 1081 043e 4B000000 		.4byte	.LASF66
 1082 0442 07       		.byte	0x7
 1083 0443 A4       		.byte	0xa4
 1084 0444 01010000 		.4byte	0x101
 1085 0448 10       		.uleb128 0x10
 1086 0449 2D030000 		.4byte	.LASF67
 1087 044d 07       		.byte	0x7
 1088 044e AB       		.byte	0xab
 1089 044f 70020000 		.4byte	0x270
 1090 0453 10       		.uleb128 0x10
 1091 0454 7D020000 		.4byte	.LASF68
 1092 0458 07       		.byte	0x7
 1093 0459 B2       		.byte	0xb2
 1094 045a 0C010000 		.4byte	0x10c
 1095 045e 00       		.byte	0
 1096 045f 09       		.uleb128 0x9
 1097 0460 04       		.byte	0x4
 1098 0461 65040000 		.4byte	0x465
 1099 0465 13       		.uleb128 0x13
 1100 0466 6A040000 		.4byte	0x46a
 1101 046a 04       		.uleb128 0x4
 1102 046b 01       		.byte	0x1
 1103 046c 08       		.byte	0x8
 1104 046d CC020000 		.4byte	.LASF69
 1105 0471 09       		.uleb128 0x9
 1106 0472 04       		.byte	0x4
 1107 0473 72020000 		.4byte	0x272
 1108 0477 09       		.uleb128 0x9
 1109 0478 04       		.byte	0x4
 1110 0479 58030000 		.4byte	0x358
 1111 047d 14       		.uleb128 0x14
 1112 047e 1B040000 		.4byte	.LASF70
 1113 0482 01       		.byte	0x1
 1114 0483 4B       		.byte	0x4b
 1115 0484 00000000 		.4byte	.LFB7
 1116 0488 1C000000 		.4byte	.LFE7-.LFB7
 1117 048c 01       		.uleb128 0x1
 1118 048d 9C       		.byte	0x9c
 1119 048e A6040000 		.4byte	0x4a6
 1120 0492 15       		.uleb128 0x15
 1121 0493 14000000 		.4byte	.LVL0
 1122 0497 EC060000 		.4byte	0x6ec
 1123 049b 16       		.uleb128 0x16
ARM GAS  /tmp/ccPryv9I.s 			page 21


 1124 049c 01       		.uleb128 0x1
 1125 049d 50       		.byte	0x50
 1126 049e 05       		.uleb128 0x5
 1127 049f 03       		.byte	0x3
 1128 04a0 10000000 		.4byte	.LANCHOR0+16
 1129 04a4 00       		.byte	0
 1130 04a5 00       		.byte	0
 1131 04a6 14       		.uleb128 0x14
 1132 04a7 78000000 		.4byte	.LASF71
 1133 04ab 01       		.byte	0x1
 1134 04ac 63       		.byte	0x63
 1135 04ad 00000000 		.4byte	.LFB8
 1136 04b1 34000000 		.4byte	.LFE8-.LFB8
 1137 04b5 01       		.uleb128 0x1
 1138 04b6 9C       		.byte	0x9c
 1139 04b7 21050000 		.4byte	0x521
 1140 04bb 17       		.uleb128 0x17
 1141 04bc 66000000 		.4byte	.LASF72
 1142 04c0 01       		.byte	0x1
 1143 04c1 63       		.byte	0x63
 1144 04c2 05040000 		.4byte	0x405
 1145 04c6 00000000 		.4byte	.LLST0
 1146 04ca 18       		.uleb128 0x18
 1147 04cb 62756600 		.ascii	"buf\000"
 1148 04cf 01       		.byte	0x1
 1149 04d0 63       		.byte	0x63
 1150 04d1 70020000 		.4byte	0x270
 1151 04d5 39000000 		.4byte	.LLST1
 1152 04d9 17       		.uleb128 0x17
 1153 04da 6A010000 		.4byte	.LASF64
 1154 04de 01       		.byte	0x1
 1155 04df 63       		.byte	0x63
 1156 04e0 2C000000 		.4byte	0x2c
 1157 04e4 65000000 		.4byte	.LLST2
 1158 04e8 19       		.uleb128 0x19
 1159 04e9 687000   		.ascii	"hp\000"
 1160 04ec 01       		.byte	0x1
 1161 04ed 64       		.byte	0x64
 1162 04ee FF030000 		.4byte	0x3ff
 1163 04f2 B1000000 		.4byte	.LLST3
 1164 04f6 1A       		.uleb128 0x1a
 1165 04f7 16000000 		.4byte	.LVL4
 1166 04fb FD060000 		.4byte	0x6fd
 1167 04ff 0D050000 		.4byte	0x50d
 1168 0503 16       		.uleb128 0x16
 1169 0504 01       		.uleb128 0x1
 1170 0505 50       		.byte	0x50
 1171 0506 05       		.uleb128 0x5
 1172 0507 03       		.byte	0x3
 1173 0508 00000000 		.4byte	.LC0
 1174 050c 00       		.byte	0
 1175 050d 15       		.uleb128 0x15
 1176 050e 30000000 		.4byte	.LVL9
 1177 0512 EC060000 		.4byte	0x6ec
 1178 0516 16       		.uleb128 0x16
 1179 0517 01       		.uleb128 0x1
 1180 0518 50       		.byte	0x50
ARM GAS  /tmp/ccPryv9I.s 			page 22


 1181 0519 05       		.uleb128 0x5
 1182 051a F3       		.byte	0xf3
 1183 051b 01       		.uleb128 0x1
 1184 051c 50       		.byte	0x50
 1185 051d 23       		.byte	0x23
 1186 051e 10       		.uleb128 0x10
 1187 051f 00       		.byte	0
 1188 0520 00       		.byte	0
 1189 0521 1B       		.uleb128 0x1b
 1190 0522 9A020000 		.4byte	.LASF74
 1191 0526 01       		.byte	0x1
 1192 0527 84       		.byte	0x84
 1193 0528 70020000 		.4byte	0x270
 1194 052c 00000000 		.4byte	.LFB9
 1195 0530 80000000 		.4byte	.LFE9-.LFB9
 1196 0534 01       		.uleb128 0x1
 1197 0535 9C       		.byte	0x9c
 1198 0536 B9050000 		.4byte	0x5b9
 1199 053a 17       		.uleb128 0x17
 1200 053b 66000000 		.4byte	.LASF72
 1201 053f 01       		.byte	0x1
 1202 0540 84       		.byte	0x84
 1203 0541 05040000 		.4byte	0x405
 1204 0545 DE000000 		.4byte	.LLST4
 1205 0549 17       		.uleb128 0x17
 1206 054a 6A010000 		.4byte	.LASF64
 1207 054e 01       		.byte	0x1
 1208 054f 84       		.byte	0x84
 1209 0550 2C000000 		.4byte	0x2c
 1210 0554 FC000000 		.4byte	.LLST5
 1211 0558 19       		.uleb128 0x19
 1212 0559 717000   		.ascii	"qp\000"
 1213 055c 01       		.byte	0x1
 1214 055d 85       		.byte	0x85
 1215 055e FF030000 		.4byte	0x3ff
 1216 0562 27010000 		.4byte	.LLST6
 1217 0566 19       		.uleb128 0x19
 1218 0567 687000   		.ascii	"hp\000"
 1219 056a 01       		.byte	0x1
 1220 056b 85       		.byte	0x85
 1221 056c FF030000 		.4byte	0x3ff
 1222 0570 50010000 		.4byte	.LLST7
 1223 0574 19       		.uleb128 0x19
 1224 0575 667000   		.ascii	"fp\000"
 1225 0578 01       		.byte	0x1
 1226 0579 85       		.byte	0x85
 1227 057a FF030000 		.4byte	0x3ff
 1228 057e A9010000 		.4byte	.LLST8
 1229 0582 1A       		.uleb128 0x1a
 1230 0583 1C000000 		.4byte	.LVL15
 1231 0587 0E070000 		.4byte	0x70e
 1232 058b 96050000 		.4byte	0x596
 1233 058f 16       		.uleb128 0x16
 1234 0590 01       		.uleb128 0x1
 1235 0591 50       		.byte	0x50
 1236 0592 02       		.uleb128 0x2
 1237 0593 76       		.byte	0x76
ARM GAS  /tmp/ccPryv9I.s 			page 23


 1238 0594 10       		.sleb128 16
 1239 0595 00       		.byte	0
 1240 0596 1C       		.uleb128 0x1c
 1241 0597 30000000 		.4byte	.LVL19
 1242 059b 1F070000 		.4byte	0x71f
 1243 059f 1D       		.uleb128 0x1d
 1244 05a0 3A000000 		.4byte	.LVL20
 1245 05a4 AF050000 		.4byte	0x5af
 1246 05a8 16       		.uleb128 0x16
 1247 05a9 01       		.uleb128 0x1
 1248 05aa 50       		.byte	0x50
 1249 05ab 02       		.uleb128 0x2
 1250 05ac 75       		.byte	0x75
 1251 05ad 08       		.sleb128 8
 1252 05ae 00       		.byte	0
 1253 05af 1C       		.uleb128 0x1c
 1254 05b0 5E000000 		.4byte	.LVL25
 1255 05b4 1F070000 		.4byte	0x71f
 1256 05b8 00       		.byte	0
 1257 05b9 14       		.uleb128 0x14
 1258 05ba BF000000 		.4byte	.LASF73
 1259 05be 01       		.byte	0x1
 1260 05bf C2       		.byte	0xc2
 1261 05c0 00000000 		.4byte	.LFB10
 1262 05c4 C8000000 		.4byte	.LFE10-.LFB10
 1263 05c8 01       		.uleb128 0x1
 1264 05c9 9C       		.byte	0x9c
 1265 05ca 57060000 		.4byte	0x657
 1266 05ce 18       		.uleb128 0x18
 1267 05cf 7000     		.ascii	"p\000"
 1268 05d1 01       		.byte	0x1
 1269 05d2 C2       		.byte	0xc2
 1270 05d3 70020000 		.4byte	0x270
 1271 05d7 BC010000 		.4byte	.LLST9
 1272 05db 19       		.uleb128 0x19
 1273 05dc 717000   		.ascii	"qp\000"
 1274 05df 01       		.byte	0x1
 1275 05e0 C3       		.byte	0xc3
 1276 05e1 FF030000 		.4byte	0x3ff
 1277 05e5 17020000 		.4byte	.LLST10
 1278 05e9 19       		.uleb128 0x19
 1279 05ea 687000   		.ascii	"hp\000"
 1280 05ed 01       		.byte	0x1
 1281 05ee C3       		.byte	0xc3
 1282 05ef FF030000 		.4byte	0x3ff
 1283 05f3 4B020000 		.4byte	.LLST11
 1284 05f7 1E       		.uleb128 0x1e
 1285 05f8 66000000 		.4byte	.LASF72
 1286 05fc 01       		.byte	0x1
 1287 05fd C4       		.byte	0xc4
 1288 05fe 05040000 		.4byte	0x405
 1289 0602 89020000 		.4byte	.LLST12
 1290 0606 1A       		.uleb128 0x1a
 1291 0607 18000000 		.4byte	.LVL33
 1292 060b 0E070000 		.4byte	0x70e
 1293 060f 1A060000 		.4byte	0x61a
 1294 0613 16       		.uleb128 0x16
ARM GAS  /tmp/ccPryv9I.s 			page 24


 1295 0614 01       		.uleb128 0x1
 1296 0615 50       		.byte	0x50
 1297 0616 02       		.uleb128 0x2
 1298 0617 76       		.byte	0x76
 1299 0618 10       		.sleb128 16
 1300 0619 00       		.byte	0
 1301 061a 1A       		.uleb128 0x1a
 1302 061b 48000000 		.4byte	.LVL37
 1303 061f FD060000 		.4byte	0x6fd
 1304 0623 31060000 		.4byte	0x631
 1305 0627 16       		.uleb128 0x16
 1306 0628 01       		.uleb128 0x1
 1307 0629 50       		.byte	0x50
 1308 062a 05       		.uleb128 0x5
 1309 062b 03       		.byte	0x3
 1310 062c 20000000 		.4byte	.LC2
 1311 0630 00       		.byte	0
 1312 0631 1F       		.uleb128 0x1f
 1313 0632 84000000 		.4byte	.LVL41
 1314 0636 1F070000 		.4byte	0x71f
 1315 063a 1F       		.uleb128 0x1f
 1316 063b B8000000 		.4byte	.LVL43
 1317 063f 1F070000 		.4byte	0x71f
 1318 0643 20       		.uleb128 0x20
 1319 0644 BE000000 		.4byte	.LVL45
 1320 0648 FD060000 		.4byte	0x6fd
 1321 064c 16       		.uleb128 0x16
 1322 064d 01       		.uleb128 0x1
 1323 064e 50       		.byte	0x50
 1324 064f 05       		.uleb128 0x5
 1325 0650 03       		.byte	0x3
 1326 0651 10000000 		.4byte	.LC1
 1327 0655 00       		.byte	0
 1328 0656 00       		.byte	0
 1329 0657 1B       		.uleb128 0x1b
 1330 0658 D1020000 		.4byte	.LASF75
 1331 065c 01       		.byte	0x1
 1332 065d FA       		.byte	0xfa
 1333 065e 2C000000 		.4byte	0x2c
 1334 0662 00000000 		.4byte	.LFB11
 1335 0666 40000000 		.4byte	.LFE11-.LFB11
 1336 066a 01       		.uleb128 0x1
 1337 066b 9C       		.byte	0x9c
 1338 066c D5060000 		.4byte	0x6d5
 1339 0670 17       		.uleb128 0x17
 1340 0671 66000000 		.4byte	.LASF72
 1341 0675 01       		.byte	0x1
 1342 0676 FA       		.byte	0xfa
 1343 0677 05040000 		.4byte	0x405
 1344 067b B6020000 		.4byte	.LLST13
 1345 067f 17       		.uleb128 0x17
 1346 0680 34030000 		.4byte	.LASF76
 1347 0684 01       		.byte	0x1
 1348 0685 FA       		.byte	0xfa
 1349 0686 D5060000 		.4byte	0x6d5
 1350 068a 19030000 		.4byte	.LLST14
 1351 068e 19       		.uleb128 0x19
ARM GAS  /tmp/ccPryv9I.s 			page 25


 1352 068f 717000   		.ascii	"qp\000"
 1353 0692 01       		.byte	0x1
 1354 0693 FB       		.byte	0xfb
 1355 0694 FF030000 		.4byte	0x3ff
 1356 0698 37030000 		.4byte	.LLST15
 1357 069c 19       		.uleb128 0x19
 1358 069d 6E00     		.ascii	"n\000"
 1359 069f 01       		.byte	0x1
 1360 06a0 FC       		.byte	0xfc
 1361 06a1 2C000000 		.4byte	0x2c
 1362 06a5 97030000 		.4byte	.LLST16
 1363 06a9 19       		.uleb128 0x19
 1364 06aa 737A00   		.ascii	"sz\000"
 1365 06ad 01       		.byte	0x1
 1366 06ae FC       		.byte	0xfc
 1367 06af 2C000000 		.4byte	0x2c
 1368 06b3 DA030000 		.4byte	.LLST17
 1369 06b7 1A       		.uleb128 0x1a
 1370 06b8 14000000 		.4byte	.LVL48
 1371 06bc 0E070000 		.4byte	0x70e
 1372 06c0 CB060000 		.4byte	0x6cb
 1373 06c4 16       		.uleb128 0x16
 1374 06c5 01       		.uleb128 0x1
 1375 06c6 50       		.byte	0x50
 1376 06c7 02       		.uleb128 0x2
 1377 06c8 74       		.byte	0x74
 1378 06c9 10       		.sleb128 16
 1379 06ca 00       		.byte	0
 1380 06cb 1C       		.uleb128 0x1c
 1381 06cc 30000000 		.4byte	.LVL53
 1382 06d0 1F070000 		.4byte	0x71f
 1383 06d4 00       		.byte	0
 1384 06d5 09       		.uleb128 0x9
 1385 06d6 04       		.byte	0x4
 1386 06d7 2C000000 		.4byte	0x2c
 1387 06db 21       		.uleb128 0x21
 1388 06dc BF020000 		.4byte	.LASF77
 1389 06e0 01       		.byte	0x1
 1390 06e1 44       		.byte	0x44
 1391 06e2 83030000 		.4byte	0x383
 1392 06e6 05       		.uleb128 0x5
 1393 06e7 03       		.byte	0x3
 1394 06e8 00000000 		.4byte	default_heap
 1395 06ec 22       		.uleb128 0x22
 1396 06ed 14030000 		.4byte	.LASF78
 1397 06f1 09       		.byte	0x9
 1398 06f2 38       		.byte	0x38
 1399 06f3 FD060000 		.4byte	0x6fd
 1400 06f7 0E       		.uleb128 0xe
 1401 06f8 77040000 		.4byte	0x477
 1402 06fc 00       		.byte	0
 1403 06fd 22       		.uleb128 0x22
 1404 06fe 5B000000 		.4byte	.LASF79
 1405 0702 0C       		.byte	0xc
 1406 0703 F6       		.byte	0xf6
 1407 0704 0E070000 		.4byte	0x70e
 1408 0708 0E       		.uleb128 0xe
ARM GAS  /tmp/ccPryv9I.s 			page 26


 1409 0709 5F040000 		.4byte	0x45f
 1410 070d 00       		.byte	0
 1411 070e 22       		.uleb128 0x22
 1412 070f E2010000 		.4byte	.LASF80
 1413 0713 09       		.byte	0x9
 1414 0714 39       		.byte	0x39
 1415 0715 1F070000 		.4byte	0x71f
 1416 0719 0E       		.uleb128 0xe
 1417 071a 77040000 		.4byte	0x477
 1418 071e 00       		.byte	0
 1419 071f 23       		.uleb128 0x23
 1420 0720 6C000000 		.4byte	.LASF85
 1421 0724 09       		.byte	0x9
 1422 0725 3D       		.byte	0x3d
 1423 0726 77040000 		.4byte	0x477
 1424 072a 00       		.byte	0
 1425              		.section	.debug_abbrev,"",%progbits
 1426              	.Ldebug_abbrev0:
 1427 0000 01       		.uleb128 0x1
 1428 0001 11       		.uleb128 0x11
 1429 0002 01       		.byte	0x1
 1430 0003 25       		.uleb128 0x25
 1431 0004 0E       		.uleb128 0xe
 1432 0005 13       		.uleb128 0x13
 1433 0006 0B       		.uleb128 0xb
 1434 0007 03       		.uleb128 0x3
 1435 0008 0E       		.uleb128 0xe
 1436 0009 1B       		.uleb128 0x1b
 1437 000a 0E       		.uleb128 0xe
 1438 000b 55       		.uleb128 0x55
 1439 000c 17       		.uleb128 0x17
 1440 000d 11       		.uleb128 0x11
 1441 000e 01       		.uleb128 0x1
 1442 000f 10       		.uleb128 0x10
 1443 0010 17       		.uleb128 0x17
 1444 0011 00       		.byte	0
 1445 0012 00       		.byte	0
 1446 0013 02       		.uleb128 0x2
 1447 0014 24       		.uleb128 0x24
 1448 0015 00       		.byte	0
 1449 0016 0B       		.uleb128 0xb
 1450 0017 0B       		.uleb128 0xb
 1451 0018 3E       		.uleb128 0x3e
 1452 0019 0B       		.uleb128 0xb
 1453 001a 03       		.uleb128 0x3
 1454 001b 08       		.uleb128 0x8
 1455 001c 00       		.byte	0
 1456 001d 00       		.byte	0
 1457 001e 03       		.uleb128 0x3
 1458 001f 16       		.uleb128 0x16
 1459 0020 00       		.byte	0
 1460 0021 03       		.uleb128 0x3
 1461 0022 0E       		.uleb128 0xe
 1462 0023 3A       		.uleb128 0x3a
 1463 0024 0B       		.uleb128 0xb
 1464 0025 3B       		.uleb128 0x3b
 1465 0026 0B       		.uleb128 0xb
ARM GAS  /tmp/ccPryv9I.s 			page 27


 1466 0027 49       		.uleb128 0x49
 1467 0028 13       		.uleb128 0x13
 1468 0029 00       		.byte	0
 1469 002a 00       		.byte	0
 1470 002b 04       		.uleb128 0x4
 1471 002c 24       		.uleb128 0x24
 1472 002d 00       		.byte	0
 1473 002e 0B       		.uleb128 0xb
 1474 002f 0B       		.uleb128 0xb
 1475 0030 3E       		.uleb128 0x3e
 1476 0031 0B       		.uleb128 0xb
 1477 0032 03       		.uleb128 0x3
 1478 0033 0E       		.uleb128 0xe
 1479 0034 00       		.byte	0
 1480 0035 00       		.byte	0
 1481 0036 05       		.uleb128 0x5
 1482 0037 13       		.uleb128 0x13
 1483 0038 01       		.byte	0x1
 1484 0039 03       		.uleb128 0x3
 1485 003a 0E       		.uleb128 0xe
 1486 003b 0B       		.uleb128 0xb
 1487 003c 0B       		.uleb128 0xb
 1488 003d 3A       		.uleb128 0x3a
 1489 003e 0B       		.uleb128 0xb
 1490 003f 3B       		.uleb128 0x3b
 1491 0040 0B       		.uleb128 0xb
 1492 0041 01       		.uleb128 0x1
 1493 0042 13       		.uleb128 0x13
 1494 0043 00       		.byte	0
 1495 0044 00       		.byte	0
 1496 0045 06       		.uleb128 0x6
 1497 0046 0D       		.uleb128 0xd
 1498 0047 00       		.byte	0
 1499 0048 03       		.uleb128 0x3
 1500 0049 0E       		.uleb128 0xe
 1501 004a 3A       		.uleb128 0x3a
 1502 004b 0B       		.uleb128 0xb
 1503 004c 3B       		.uleb128 0x3b
 1504 004d 0B       		.uleb128 0xb
 1505 004e 49       		.uleb128 0x49
 1506 004f 13       		.uleb128 0x13
 1507 0050 38       		.uleb128 0x38
 1508 0051 0B       		.uleb128 0xb
 1509 0052 00       		.byte	0
 1510 0053 00       		.byte	0
 1511 0054 07       		.uleb128 0x7
 1512 0055 0D       		.uleb128 0xd
 1513 0056 00       		.byte	0
 1514 0057 03       		.uleb128 0x3
 1515 0058 08       		.uleb128 0x8
 1516 0059 3A       		.uleb128 0x3a
 1517 005a 0B       		.uleb128 0xb
 1518 005b 3B       		.uleb128 0x3b
 1519 005c 0B       		.uleb128 0xb
 1520 005d 49       		.uleb128 0x49
 1521 005e 13       		.uleb128 0x13
 1522 005f 38       		.uleb128 0x38
ARM GAS  /tmp/ccPryv9I.s 			page 28


 1523 0060 0B       		.uleb128 0xb
 1524 0061 00       		.byte	0
 1525 0062 00       		.byte	0
 1526 0063 08       		.uleb128 0x8
 1527 0064 13       		.uleb128 0x13
 1528 0065 01       		.byte	0x1
 1529 0066 0B       		.uleb128 0xb
 1530 0067 0B       		.uleb128 0xb
 1531 0068 3A       		.uleb128 0x3a
 1532 0069 0B       		.uleb128 0xb
 1533 006a 3B       		.uleb128 0x3b
 1534 006b 0B       		.uleb128 0xb
 1535 006c 01       		.uleb128 0x1
 1536 006d 13       		.uleb128 0x13
 1537 006e 00       		.byte	0
 1538 006f 00       		.byte	0
 1539 0070 09       		.uleb128 0x9
 1540 0071 0F       		.uleb128 0xf
 1541 0072 00       		.byte	0
 1542 0073 0B       		.uleb128 0xb
 1543 0074 0B       		.uleb128 0xb
 1544 0075 49       		.uleb128 0x49
 1545 0076 13       		.uleb128 0x13
 1546 0077 00       		.byte	0
 1547 0078 00       		.byte	0
 1548 0079 0A       		.uleb128 0xa
 1549 007a 0F       		.uleb128 0xf
 1550 007b 00       		.byte	0
 1551 007c 0B       		.uleb128 0xb
 1552 007d 0B       		.uleb128 0xb
 1553 007e 00       		.byte	0
 1554 007f 00       		.byte	0
 1555 0080 0B       		.uleb128 0xb
 1556 0081 13       		.uleb128 0x13
 1557 0082 01       		.byte	0x1
 1558 0083 03       		.uleb128 0x3
 1559 0084 0E       		.uleb128 0xe
 1560 0085 0B       		.uleb128 0xb
 1561 0086 0B       		.uleb128 0xb
 1562 0087 3A       		.uleb128 0x3a
 1563 0088 0B       		.uleb128 0xb
 1564 0089 3B       		.uleb128 0x3b
 1565 008a 05       		.uleb128 0x5
 1566 008b 01       		.uleb128 0x1
 1567 008c 13       		.uleb128 0x13
 1568 008d 00       		.byte	0
 1569 008e 00       		.byte	0
 1570 008f 0C       		.uleb128 0xc
 1571 0090 0D       		.uleb128 0xd
 1572 0091 00       		.byte	0
 1573 0092 03       		.uleb128 0x3
 1574 0093 08       		.uleb128 0x8
 1575 0094 3A       		.uleb128 0x3a
 1576 0095 0B       		.uleb128 0xb
 1577 0096 3B       		.uleb128 0x3b
 1578 0097 05       		.uleb128 0x5
 1579 0098 49       		.uleb128 0x49
ARM GAS  /tmp/ccPryv9I.s 			page 29


 1580 0099 13       		.uleb128 0x13
 1581 009a 38       		.uleb128 0x38
 1582 009b 0B       		.uleb128 0xb
 1583 009c 00       		.byte	0
 1584 009d 00       		.byte	0
 1585 009e 0D       		.uleb128 0xd
 1586 009f 15       		.uleb128 0x15
 1587 00a0 01       		.byte	0x1
 1588 00a1 27       		.uleb128 0x27
 1589 00a2 19       		.uleb128 0x19
 1590 00a3 49       		.uleb128 0x49
 1591 00a4 13       		.uleb128 0x13
 1592 00a5 01       		.uleb128 0x1
 1593 00a6 13       		.uleb128 0x13
 1594 00a7 00       		.byte	0
 1595 00a8 00       		.byte	0
 1596 00a9 0E       		.uleb128 0xe
 1597 00aa 05       		.uleb128 0x5
 1598 00ab 00       		.byte	0
 1599 00ac 49       		.uleb128 0x49
 1600 00ad 13       		.uleb128 0x13
 1601 00ae 00       		.byte	0
 1602 00af 00       		.byte	0
 1603 00b0 0F       		.uleb128 0xf
 1604 00b1 17       		.uleb128 0x17
 1605 00b2 01       		.byte	0x1
 1606 00b3 0B       		.uleb128 0xb
 1607 00b4 0B       		.uleb128 0xb
 1608 00b5 3A       		.uleb128 0x3a
 1609 00b6 0B       		.uleb128 0xb
 1610 00b7 3B       		.uleb128 0x3b
 1611 00b8 0B       		.uleb128 0xb
 1612 00b9 01       		.uleb128 0x1
 1613 00ba 13       		.uleb128 0x13
 1614 00bb 00       		.byte	0
 1615 00bc 00       		.byte	0
 1616 00bd 10       		.uleb128 0x10
 1617 00be 0D       		.uleb128 0xd
 1618 00bf 00       		.byte	0
 1619 00c0 03       		.uleb128 0x3
 1620 00c1 0E       		.uleb128 0xe
 1621 00c2 3A       		.uleb128 0x3a
 1622 00c3 0B       		.uleb128 0xb
 1623 00c4 3B       		.uleb128 0x3b
 1624 00c5 0B       		.uleb128 0xb
 1625 00c6 49       		.uleb128 0x49
 1626 00c7 13       		.uleb128 0x13
 1627 00c8 00       		.byte	0
 1628 00c9 00       		.byte	0
 1629 00ca 11       		.uleb128 0x11
 1630 00cb 17       		.uleb128 0x17
 1631 00cc 01       		.byte	0x1
 1632 00cd 03       		.uleb128 0x3
 1633 00ce 0E       		.uleb128 0xe
 1634 00cf 0B       		.uleb128 0xb
 1635 00d0 0B       		.uleb128 0xb
 1636 00d1 3A       		.uleb128 0x3a
ARM GAS  /tmp/ccPryv9I.s 			page 30


 1637 00d2 0B       		.uleb128 0xb
 1638 00d3 3B       		.uleb128 0x3b
 1639 00d4 0B       		.uleb128 0xb
 1640 00d5 01       		.uleb128 0x1
 1641 00d6 13       		.uleb128 0x13
 1642 00d7 00       		.byte	0
 1643 00d8 00       		.byte	0
 1644 00d9 12       		.uleb128 0x12
 1645 00da 0D       		.uleb128 0xd
 1646 00db 00       		.byte	0
 1647 00dc 03       		.uleb128 0x3
 1648 00dd 08       		.uleb128 0x8
 1649 00de 3A       		.uleb128 0x3a
 1650 00df 0B       		.uleb128 0xb
 1651 00e0 3B       		.uleb128 0x3b
 1652 00e1 0B       		.uleb128 0xb
 1653 00e2 49       		.uleb128 0x49
 1654 00e3 13       		.uleb128 0x13
 1655 00e4 00       		.byte	0
 1656 00e5 00       		.byte	0
 1657 00e6 13       		.uleb128 0x13
 1658 00e7 26       		.uleb128 0x26
 1659 00e8 00       		.byte	0
 1660 00e9 49       		.uleb128 0x49
 1661 00ea 13       		.uleb128 0x13
 1662 00eb 00       		.byte	0
 1663 00ec 00       		.byte	0
 1664 00ed 14       		.uleb128 0x14
 1665 00ee 2E       		.uleb128 0x2e
 1666 00ef 01       		.byte	0x1
 1667 00f0 3F       		.uleb128 0x3f
 1668 00f1 19       		.uleb128 0x19
 1669 00f2 03       		.uleb128 0x3
 1670 00f3 0E       		.uleb128 0xe
 1671 00f4 3A       		.uleb128 0x3a
 1672 00f5 0B       		.uleb128 0xb
 1673 00f6 3B       		.uleb128 0x3b
 1674 00f7 0B       		.uleb128 0xb
 1675 00f8 27       		.uleb128 0x27
 1676 00f9 19       		.uleb128 0x19
 1677 00fa 11       		.uleb128 0x11
 1678 00fb 01       		.uleb128 0x1
 1679 00fc 12       		.uleb128 0x12
 1680 00fd 06       		.uleb128 0x6
 1681 00fe 40       		.uleb128 0x40
 1682 00ff 18       		.uleb128 0x18
 1683 0100 9742     		.uleb128 0x2117
 1684 0102 19       		.uleb128 0x19
 1685 0103 01       		.uleb128 0x1
 1686 0104 13       		.uleb128 0x13
 1687 0105 00       		.byte	0
 1688 0106 00       		.byte	0
 1689 0107 15       		.uleb128 0x15
 1690 0108 898201   		.uleb128 0x4109
 1691 010b 01       		.byte	0x1
 1692 010c 11       		.uleb128 0x11
 1693 010d 01       		.uleb128 0x1
ARM GAS  /tmp/ccPryv9I.s 			page 31


 1694 010e 9542     		.uleb128 0x2115
 1695 0110 19       		.uleb128 0x19
 1696 0111 31       		.uleb128 0x31
 1697 0112 13       		.uleb128 0x13
 1698 0113 00       		.byte	0
 1699 0114 00       		.byte	0
 1700 0115 16       		.uleb128 0x16
 1701 0116 8A8201   		.uleb128 0x410a
 1702 0119 00       		.byte	0
 1703 011a 02       		.uleb128 0x2
 1704 011b 18       		.uleb128 0x18
 1705 011c 9142     		.uleb128 0x2111
 1706 011e 18       		.uleb128 0x18
 1707 011f 00       		.byte	0
 1708 0120 00       		.byte	0
 1709 0121 17       		.uleb128 0x17
 1710 0122 05       		.uleb128 0x5
 1711 0123 00       		.byte	0
 1712 0124 03       		.uleb128 0x3
 1713 0125 0E       		.uleb128 0xe
 1714 0126 3A       		.uleb128 0x3a
 1715 0127 0B       		.uleb128 0xb
 1716 0128 3B       		.uleb128 0x3b
 1717 0129 0B       		.uleb128 0xb
 1718 012a 49       		.uleb128 0x49
 1719 012b 13       		.uleb128 0x13
 1720 012c 02       		.uleb128 0x2
 1721 012d 17       		.uleb128 0x17
 1722 012e 00       		.byte	0
 1723 012f 00       		.byte	0
 1724 0130 18       		.uleb128 0x18
 1725 0131 05       		.uleb128 0x5
 1726 0132 00       		.byte	0
 1727 0133 03       		.uleb128 0x3
 1728 0134 08       		.uleb128 0x8
 1729 0135 3A       		.uleb128 0x3a
 1730 0136 0B       		.uleb128 0xb
 1731 0137 3B       		.uleb128 0x3b
 1732 0138 0B       		.uleb128 0xb
 1733 0139 49       		.uleb128 0x49
 1734 013a 13       		.uleb128 0x13
 1735 013b 02       		.uleb128 0x2
 1736 013c 17       		.uleb128 0x17
 1737 013d 00       		.byte	0
 1738 013e 00       		.byte	0
 1739 013f 19       		.uleb128 0x19
 1740 0140 34       		.uleb128 0x34
 1741 0141 00       		.byte	0
 1742 0142 03       		.uleb128 0x3
 1743 0143 08       		.uleb128 0x8
 1744 0144 3A       		.uleb128 0x3a
 1745 0145 0B       		.uleb128 0xb
 1746 0146 3B       		.uleb128 0x3b
 1747 0147 0B       		.uleb128 0xb
 1748 0148 49       		.uleb128 0x49
 1749 0149 13       		.uleb128 0x13
 1750 014a 02       		.uleb128 0x2
ARM GAS  /tmp/ccPryv9I.s 			page 32


 1751 014b 17       		.uleb128 0x17
 1752 014c 00       		.byte	0
 1753 014d 00       		.byte	0
 1754 014e 1A       		.uleb128 0x1a
 1755 014f 898201   		.uleb128 0x4109
 1756 0152 01       		.byte	0x1
 1757 0153 11       		.uleb128 0x11
 1758 0154 01       		.uleb128 0x1
 1759 0155 31       		.uleb128 0x31
 1760 0156 13       		.uleb128 0x13
 1761 0157 01       		.uleb128 0x1
 1762 0158 13       		.uleb128 0x13
 1763 0159 00       		.byte	0
 1764 015a 00       		.byte	0
 1765 015b 1B       		.uleb128 0x1b
 1766 015c 2E       		.uleb128 0x2e
 1767 015d 01       		.byte	0x1
 1768 015e 3F       		.uleb128 0x3f
 1769 015f 19       		.uleb128 0x19
 1770 0160 03       		.uleb128 0x3
 1771 0161 0E       		.uleb128 0xe
 1772 0162 3A       		.uleb128 0x3a
 1773 0163 0B       		.uleb128 0xb
 1774 0164 3B       		.uleb128 0x3b
 1775 0165 0B       		.uleb128 0xb
 1776 0166 27       		.uleb128 0x27
 1777 0167 19       		.uleb128 0x19
 1778 0168 49       		.uleb128 0x49
 1779 0169 13       		.uleb128 0x13
 1780 016a 11       		.uleb128 0x11
 1781 016b 01       		.uleb128 0x1
 1782 016c 12       		.uleb128 0x12
 1783 016d 06       		.uleb128 0x6
 1784 016e 40       		.uleb128 0x40
 1785 016f 18       		.uleb128 0x18
 1786 0170 9742     		.uleb128 0x2117
 1787 0172 19       		.uleb128 0x19
 1788 0173 01       		.uleb128 0x1
 1789 0174 13       		.uleb128 0x13
 1790 0175 00       		.byte	0
 1791 0176 00       		.byte	0
 1792 0177 1C       		.uleb128 0x1c
 1793 0178 898201   		.uleb128 0x4109
 1794 017b 00       		.byte	0
 1795 017c 11       		.uleb128 0x11
 1796 017d 01       		.uleb128 0x1
 1797 017e 31       		.uleb128 0x31
 1798 017f 13       		.uleb128 0x13
 1799 0180 00       		.byte	0
 1800 0181 00       		.byte	0
 1801 0182 1D       		.uleb128 0x1d
 1802 0183 898201   		.uleb128 0x4109
 1803 0186 01       		.byte	0x1
 1804 0187 11       		.uleb128 0x11
 1805 0188 01       		.uleb128 0x1
 1806 0189 01       		.uleb128 0x1
 1807 018a 13       		.uleb128 0x13
ARM GAS  /tmp/ccPryv9I.s 			page 33


 1808 018b 00       		.byte	0
 1809 018c 00       		.byte	0
 1810 018d 1E       		.uleb128 0x1e
 1811 018e 34       		.uleb128 0x34
 1812 018f 00       		.byte	0
 1813 0190 03       		.uleb128 0x3
 1814 0191 0E       		.uleb128 0xe
 1815 0192 3A       		.uleb128 0x3a
 1816 0193 0B       		.uleb128 0xb
 1817 0194 3B       		.uleb128 0x3b
 1818 0195 0B       		.uleb128 0xb
 1819 0196 49       		.uleb128 0x49
 1820 0197 13       		.uleb128 0x13
 1821 0198 02       		.uleb128 0x2
 1822 0199 17       		.uleb128 0x17
 1823 019a 00       		.byte	0
 1824 019b 00       		.byte	0
 1825 019c 1F       		.uleb128 0x1f
 1826 019d 898201   		.uleb128 0x4109
 1827 01a0 00       		.byte	0
 1828 01a1 11       		.uleb128 0x11
 1829 01a2 01       		.uleb128 0x1
 1830 01a3 9542     		.uleb128 0x2115
 1831 01a5 19       		.uleb128 0x19
 1832 01a6 31       		.uleb128 0x31
 1833 01a7 13       		.uleb128 0x13
 1834 01a8 00       		.byte	0
 1835 01a9 00       		.byte	0
 1836 01aa 20       		.uleb128 0x20
 1837 01ab 898201   		.uleb128 0x4109
 1838 01ae 01       		.byte	0x1
 1839 01af 11       		.uleb128 0x11
 1840 01b0 01       		.uleb128 0x1
 1841 01b1 31       		.uleb128 0x31
 1842 01b2 13       		.uleb128 0x13
 1843 01b3 00       		.byte	0
 1844 01b4 00       		.byte	0
 1845 01b5 21       		.uleb128 0x21
 1846 01b6 34       		.uleb128 0x34
 1847 01b7 00       		.byte	0
 1848 01b8 03       		.uleb128 0x3
 1849 01b9 0E       		.uleb128 0xe
 1850 01ba 3A       		.uleb128 0x3a
 1851 01bb 0B       		.uleb128 0xb
 1852 01bc 3B       		.uleb128 0x3b
 1853 01bd 0B       		.uleb128 0xb
 1854 01be 49       		.uleb128 0x49
 1855 01bf 13       		.uleb128 0x13
 1856 01c0 02       		.uleb128 0x2
 1857 01c1 18       		.uleb128 0x18
 1858 01c2 00       		.byte	0
 1859 01c3 00       		.byte	0
 1860 01c4 22       		.uleb128 0x22
 1861 01c5 2E       		.uleb128 0x2e
 1862 01c6 01       		.byte	0x1
 1863 01c7 3F       		.uleb128 0x3f
 1864 01c8 19       		.uleb128 0x19
ARM GAS  /tmp/ccPryv9I.s 			page 34


 1865 01c9 03       		.uleb128 0x3
 1866 01ca 0E       		.uleb128 0xe
 1867 01cb 3A       		.uleb128 0x3a
 1868 01cc 0B       		.uleb128 0xb
 1869 01cd 3B       		.uleb128 0x3b
 1870 01ce 0B       		.uleb128 0xb
 1871 01cf 27       		.uleb128 0x27
 1872 01d0 19       		.uleb128 0x19
 1873 01d1 3C       		.uleb128 0x3c
 1874 01d2 19       		.uleb128 0x19
 1875 01d3 01       		.uleb128 0x1
 1876 01d4 13       		.uleb128 0x13
 1877 01d5 00       		.byte	0
 1878 01d6 00       		.byte	0
 1879 01d7 23       		.uleb128 0x23
 1880 01d8 2E       		.uleb128 0x2e
 1881 01d9 00       		.byte	0
 1882 01da 3F       		.uleb128 0x3f
 1883 01db 19       		.uleb128 0x19
 1884 01dc 03       		.uleb128 0x3
 1885 01dd 0E       		.uleb128 0xe
 1886 01de 3A       		.uleb128 0x3a
 1887 01df 0B       		.uleb128 0xb
 1888 01e0 3B       		.uleb128 0x3b
 1889 01e1 0B       		.uleb128 0xb
 1890 01e2 27       		.uleb128 0x27
 1891 01e3 19       		.uleb128 0x19
 1892 01e4 49       		.uleb128 0x49
 1893 01e5 13       		.uleb128 0x13
 1894 01e6 3C       		.uleb128 0x3c
 1895 01e7 19       		.uleb128 0x19
 1896 01e8 00       		.byte	0
 1897 01e9 00       		.byte	0
 1898 01ea 00       		.byte	0
 1899              		.section	.debug_loc,"",%progbits
 1900              	.Ldebug_loc0:
 1901              	.LLST0:
 1902 0000 00000000 		.4byte	.LVL1
 1903 0004 12000000 		.4byte	.LVL3
 1904 0008 0100     		.2byte	0x1
 1905 000a 50       		.byte	0x50
 1906 000b 12000000 		.4byte	.LVL3
 1907 000f 2C000000 		.4byte	.LVL8
 1908 0013 0100     		.2byte	0x1
 1909 0015 55       		.byte	0x55
 1910 0016 2C000000 		.4byte	.LVL8
 1911 001a 2F000000 		.4byte	.LVL9-1
 1912 001e 0300     		.2byte	0x3
 1913 0020 70       		.byte	0x70
 1914 0021 70       		.sleb128 -16
 1915 0022 9F       		.byte	0x9f
 1916 0023 2F000000 		.4byte	.LVL9-1
 1917 0027 34000000 		.4byte	.LFE8
 1918 002b 0400     		.2byte	0x4
 1919 002d F3       		.byte	0xf3
 1920 002e 01       		.uleb128 0x1
 1921 002f 50       		.byte	0x50
ARM GAS  /tmp/ccPryv9I.s 			page 35


 1922 0030 9F       		.byte	0x9f
 1923 0031 00000000 		.4byte	0
 1924 0035 00000000 		.4byte	0
 1925              	.LLST1:
 1926 0039 00000000 		.4byte	.LVL1
 1927 003d 15000000 		.4byte	.LVL4-1
 1928 0041 0100     		.2byte	0x1
 1929 0043 51       		.byte	0x51
 1930 0044 15000000 		.4byte	.LVL4-1
 1931 0048 2C000000 		.4byte	.LVL8
 1932 004c 0100     		.2byte	0x1
 1933 004e 54       		.byte	0x54
 1934 004f 2C000000 		.4byte	.LVL8
 1935 0053 34000000 		.4byte	.LFE8
 1936 0057 0400     		.2byte	0x4
 1937 0059 F3       		.byte	0xf3
 1938 005a 01       		.uleb128 0x1
 1939 005b 51       		.byte	0x51
 1940 005c 9F       		.byte	0x9f
 1941 005d 00000000 		.4byte	0
 1942 0061 00000000 		.4byte	0
 1943              	.LLST2:
 1944 0065 00000000 		.4byte	.LVL1
 1945 0069 06000000 		.4byte	.LVL2
 1946 006d 0100     		.2byte	0x1
 1947 006f 52       		.byte	0x52
 1948 0070 06000000 		.4byte	.LVL2
 1949 0074 1A000000 		.4byte	.LVL5
 1950 0078 0100     		.2byte	0x1
 1951 007a 56       		.byte	0x56
 1952 007b 1A000000 		.4byte	.LVL5
 1953 007f 2C000000 		.4byte	.LVL8
 1954 0083 0300     		.2byte	0x3
 1955 0085 76       		.byte	0x76
 1956 0086 08       		.sleb128 8
 1957 0087 9F       		.byte	0x9f
 1958 0088 2C000000 		.4byte	.LVL8
 1959 008c 2F000000 		.4byte	.LVL9-1
 1960 0090 0900     		.2byte	0x9
 1961 0092 F3       		.byte	0xf3
 1962 0093 01       		.uleb128 0x1
 1963 0094 51       		.byte	0x51
 1964 0095 23       		.byte	0x23
 1965 0096 04       		.uleb128 0x4
 1966 0097 06       		.byte	0x6
 1967 0098 23       		.byte	0x23
 1968 0099 08       		.uleb128 0x8
 1969 009a 9F       		.byte	0x9f
 1970 009b 2F000000 		.4byte	.LVL9-1
 1971 009f 34000000 		.4byte	.LFE8
 1972 00a3 0400     		.2byte	0x4
 1973 00a5 F3       		.byte	0xf3
 1974 00a6 01       		.uleb128 0x1
 1975 00a7 52       		.byte	0x52
 1976 00a8 9F       		.byte	0x9f
 1977 00a9 00000000 		.4byte	0
 1978 00ad 00000000 		.4byte	0
ARM GAS  /tmp/ccPryv9I.s 			page 36


 1979              	.LLST3:
 1980 00b1 1E000000 		.4byte	.LVL6
 1981 00b5 24000000 		.4byte	.LVL7
 1982 00b9 0200     		.2byte	0x2
 1983 00bb 75       		.byte	0x75
 1984 00bc 08       		.sleb128 8
 1985 00bd 24000000 		.4byte	.LVL7
 1986 00c1 2C000000 		.4byte	.LVL8
 1987 00c5 0100     		.2byte	0x1
 1988 00c7 54       		.byte	0x54
 1989 00c8 2C000000 		.4byte	.LVL8
 1990 00cc 34000000 		.4byte	.LFE8
 1991 00d0 0400     		.2byte	0x4
 1992 00d2 F3       		.byte	0xf3
 1993 00d3 01       		.uleb128 0x1
 1994 00d4 51       		.byte	0x51
 1995 00d5 9F       		.byte	0x9f
 1996 00d6 00000000 		.4byte	0
 1997 00da 00000000 		.4byte	0
 1998              	.LLST4:
 1999 00de 00000000 		.4byte	.LVL10
 2000 00e2 0C000000 		.4byte	.LVL12
 2001 00e6 0100     		.2byte	0x1
 2002 00e8 50       		.byte	0x50
 2003 00e9 0C000000 		.4byte	.LVL12
 2004 00ed 80000000 		.4byte	.LFE9
 2005 00f1 0100     		.2byte	0x1
 2006 00f3 56       		.byte	0x56
 2007 00f4 00000000 		.4byte	0
 2008 00f8 00000000 		.4byte	0
 2009              	.LLST5:
 2010 00fc 00000000 		.4byte	.LVL10
 2011 0100 06000000 		.4byte	.LVL11
 2012 0104 0100     		.2byte	0x1
 2013 0106 51       		.byte	0x51
 2014 0107 06000000 		.4byte	.LVL11
 2015 010b 14000000 		.4byte	.LVL13
 2016 010f 0300     		.2byte	0x3
 2017 0111 71       		.byte	0x71
 2018 0112 79       		.sleb128 -7
 2019 0113 9F       		.byte	0x9f
 2020 0114 14000000 		.4byte	.LVL13
 2021 0118 80000000 		.4byte	.LFE9
 2022 011c 0100     		.2byte	0x1
 2023 011e 55       		.byte	0x55
 2024 011f 00000000 		.4byte	0
 2025 0123 00000000 		.4byte	0
 2026              	.LLST6:
 2027 0127 18000000 		.4byte	.LVL14
 2028 012b 44000000 		.4byte	.LVL22
 2029 012f 0100     		.2byte	0x1
 2030 0131 54       		.byte	0x54
 2031 0132 48000000 		.4byte	.LVL23
 2032 0136 56000000 		.4byte	.LVL24
 2033 013a 0100     		.2byte	0x1
 2034 013c 54       		.byte	0x54
 2035 013d 62000000 		.4byte	.LVL26
ARM GAS  /tmp/ccPryv9I.s 			page 37


 2036 0141 7A000000 		.4byte	.LVL29
 2037 0145 0100     		.2byte	0x1
 2038 0147 54       		.byte	0x54
 2039 0148 00000000 		.4byte	0
 2040 014c 00000000 		.4byte	0
 2041              	.LLST7:
 2042 0150 1E000000 		.4byte	.LVL16
 2043 0154 26000000 		.4byte	.LVL17
 2044 0158 0100     		.2byte	0x1
 2045 015a 53       		.byte	0x53
 2046 015b 28000000 		.4byte	.LVL18
 2047 015f 2F000000 		.4byte	.LVL19-1
 2048 0163 0100     		.2byte	0x1
 2049 0165 53       		.byte	0x53
 2050 0166 3A000000 		.4byte	.LVL20
 2051 016a 40000000 		.4byte	.LVL21
 2052 016e 0100     		.2byte	0x1
 2053 0170 50       		.byte	0x50
 2054 0171 40000000 		.4byte	.LVL21
 2055 0175 44000000 		.4byte	.LVL22
 2056 0179 0300     		.2byte	0x3
 2057 017b 70       		.byte	0x70
 2058 017c 08       		.sleb128 8
 2059 017d 9F       		.byte	0x9f
 2060 017e 48000000 		.4byte	.LVL23
 2061 0182 5D000000 		.4byte	.LVL25-1
 2062 0186 0100     		.2byte	0x1
 2063 0188 53       		.byte	0x53
 2064 0189 5D000000 		.4byte	.LVL25-1
 2065 018d 62000000 		.4byte	.LVL26
 2066 0191 0300     		.2byte	0x3
 2067 0193 74       		.byte	0x74
 2068 0194 78       		.sleb128 -8
 2069 0195 9F       		.byte	0x9f
 2070 0196 62000000 		.4byte	.LVL26
 2071 019a 78000000 		.4byte	.LVL28
 2072 019e 0100     		.2byte	0x1
 2073 01a0 53       		.byte	0x53
 2074 01a1 00000000 		.4byte	0
 2075 01a5 00000000 		.4byte	0
 2076              	.LLST8:
 2077 01a9 6E000000 		.4byte	.LVL27
 2078 01ad 78000000 		.4byte	.LVL28
 2079 01b1 0100     		.2byte	0x1
 2080 01b3 52       		.byte	0x52
 2081 01b4 00000000 		.4byte	0
 2082 01b8 00000000 		.4byte	0
 2083              	.LLST9:
 2084 01bc 00000000 		.4byte	.LVL30
 2085 01c0 08000000 		.4byte	.LVL31
 2086 01c4 0100     		.2byte	0x1
 2087 01c6 50       		.byte	0x50
 2088 01c7 08000000 		.4byte	.LVL31
 2089 01cb 80000000 		.4byte	.LVL40
 2090 01cf 0100     		.2byte	0x1
 2091 01d1 57       		.byte	0x57
 2092 01d2 80000000 		.4byte	.LVL40
ARM GAS  /tmp/ccPryv9I.s 			page 38


 2093 01d6 84000000 		.4byte	.LVL41
 2094 01da 0400     		.2byte	0x4
 2095 01dc F3       		.byte	0xf3
 2096 01dd 01       		.uleb128 0x1
 2097 01de 50       		.byte	0x50
 2098 01df 9F       		.byte	0x9f
 2099 01e0 84000000 		.4byte	.LVL41
 2100 01e4 B4000000 		.4byte	.LVL42
 2101 01e8 0100     		.2byte	0x1
 2102 01ea 57       		.byte	0x57
 2103 01eb B4000000 		.4byte	.LVL42
 2104 01ef B8000000 		.4byte	.LVL43
 2105 01f3 0400     		.2byte	0x4
 2106 01f5 F3       		.byte	0xf3
 2107 01f6 01       		.uleb128 0x1
 2108 01f7 50       		.byte	0x50
 2109 01f8 9F       		.byte	0x9f
 2110 01f9 B8000000 		.4byte	.LVL43
 2111 01fd BA000000 		.4byte	.LVL44
 2112 0201 0100     		.2byte	0x1
 2113 0203 50       		.byte	0x50
 2114 0204 BA000000 		.4byte	.LVL44
 2115 0208 C8000000 		.4byte	.LFE10
 2116 020c 0100     		.2byte	0x1
 2117 020e 57       		.byte	0x57
 2118 020f 00000000 		.4byte	0
 2119 0213 00000000 		.4byte	0
 2120              	.LLST10:
 2121 0217 1A000000 		.4byte	.LVL34
 2122 021b 1C000000 		.4byte	.LVL35
 2123 021f 0100     		.2byte	0x1
 2124 0221 56       		.byte	0x56
 2125 0222 1C000000 		.4byte	.LVL35
 2126 0226 56000000 		.4byte	.LVL38
 2127 022a 0100     		.2byte	0x1
 2128 022c 54       		.byte	0x54
 2129 022d 58000000 		.4byte	.LVL39
 2130 0231 80000000 		.4byte	.LVL40
 2131 0235 0100     		.2byte	0x1
 2132 0237 54       		.byte	0x54
 2133 0238 84000000 		.4byte	.LVL41
 2134 023c B4000000 		.4byte	.LVL42
 2135 0240 0100     		.2byte	0x1
 2136 0242 54       		.byte	0x54
 2137 0243 00000000 		.4byte	0
 2138 0247 00000000 		.4byte	0
 2139              	.LLST11:
 2140 024b 10000000 		.4byte	.LVL32
 2141 024f 80000000 		.4byte	.LVL40
 2142 0253 0100     		.2byte	0x1
 2143 0255 55       		.byte	0x55
 2144 0256 80000000 		.4byte	.LVL40
 2145 025a 84000000 		.4byte	.LVL41
 2146 025e 0600     		.2byte	0x6
 2147 0260 F3       		.byte	0xf3
 2148 0261 01       		.uleb128 0x1
 2149 0262 50       		.byte	0x50
ARM GAS  /tmp/ccPryv9I.s 			page 39


 2150 0263 38       		.byte	0x38
 2151 0264 1C       		.byte	0x1c
 2152 0265 9F       		.byte	0x9f
 2153 0266 84000000 		.4byte	.LVL41
 2154 026a B4000000 		.4byte	.LVL42
 2155 026e 0100     		.2byte	0x1
 2156 0270 55       		.byte	0x55
 2157 0271 B4000000 		.4byte	.LVL42
 2158 0275 B8000000 		.4byte	.LVL43
 2159 0279 0600     		.2byte	0x6
 2160 027b F3       		.byte	0xf3
 2161 027c 01       		.uleb128 0x1
 2162 027d 50       		.byte	0x50
 2163 027e 38       		.byte	0x38
 2164 027f 1C       		.byte	0x1c
 2165 0280 9F       		.byte	0x9f
 2166 0281 00000000 		.4byte	0
 2167 0285 00000000 		.4byte	0
 2168              	.LLST12:
 2169 0289 10000000 		.4byte	.LVL32
 2170 028d 1A000000 		.4byte	.LVL34
 2171 0291 0100     		.2byte	0x1
 2172 0293 56       		.byte	0x56
 2173 0294 1A000000 		.4byte	.LVL34
 2174 0298 80000000 		.4byte	.LVL40
 2175 029c 0300     		.2byte	0x3
 2176 029e 76       		.byte	0x76
 2177 029f 78       		.sleb128 -8
 2178 02a0 9F       		.byte	0x9f
 2179 02a1 84000000 		.4byte	.LVL41
 2180 02a5 B4000000 		.4byte	.LVL42
 2181 02a9 0300     		.2byte	0x3
 2182 02ab 76       		.byte	0x76
 2183 02ac 78       		.sleb128 -8
 2184 02ad 9F       		.byte	0x9f
 2185 02ae 00000000 		.4byte	0
 2186 02b2 00000000 		.4byte	0
 2187              	.LLST13:
 2188 02b6 00000000 		.4byte	.LVL46
 2189 02ba 0C000000 		.4byte	.LVL47
 2190 02be 0100     		.2byte	0x1
 2191 02c0 50       		.byte	0x50
 2192 02c1 0C000000 		.4byte	.LVL47
 2193 02c5 1C000000 		.4byte	.LVL49
 2194 02c9 0100     		.2byte	0x1
 2195 02cb 54       		.byte	0x54
 2196 02cc 1C000000 		.4byte	.LVL49
 2197 02d0 34000000 		.4byte	.LVL54
 2198 02d4 1300     		.2byte	0x13
 2199 02d6 F3       		.byte	0xf3
 2200 02d7 01       		.uleb128 0x1
 2201 02d8 50       		.byte	0x50
 2202 02d9 03       		.byte	0x3
 2203 02da 00000000 		.4byte	.LANCHOR0
 2204 02de F3       		.byte	0xf3
 2205 02df 01       		.uleb128 0x1
 2206 02e0 50       		.byte	0x50
ARM GAS  /tmp/ccPryv9I.s 			page 40


 2207 02e1 30       		.byte	0x30
 2208 02e2 2E       		.byte	0x2e
 2209 02e3 28       		.byte	0x28
 2210 02e4 0100     		.2byte	0x1
 2211 02e6 16       		.byte	0x16
 2212 02e7 13       		.byte	0x13
 2213 02e8 9F       		.byte	0x9f
 2214 02e9 34000000 		.4byte	.LVL54
 2215 02ed 38000000 		.4byte	.LVL55
 2216 02f1 0100     		.2byte	0x1
 2217 02f3 54       		.byte	0x54
 2218 02f4 38000000 		.4byte	.LVL55
 2219 02f8 40000000 		.4byte	.LFE11
 2220 02fc 1300     		.2byte	0x13
 2221 02fe F3       		.byte	0xf3
 2222 02ff 01       		.uleb128 0x1
 2223 0300 50       		.byte	0x50
 2224 0301 03       		.byte	0x3
 2225 0302 00000000 		.4byte	.LANCHOR0
 2226 0306 F3       		.byte	0xf3
 2227 0307 01       		.uleb128 0x1
 2228 0308 50       		.byte	0x50
 2229 0309 30       		.byte	0x30
 2230 030a 2E       		.byte	0x2e
 2231 030b 28       		.byte	0x28
 2232 030c 0100     		.2byte	0x1
 2233 030e 16       		.byte	0x16
 2234 030f 13       		.byte	0x13
 2235 0310 9F       		.byte	0x9f
 2236 0311 00000000 		.4byte	0
 2237 0315 00000000 		.4byte	0
 2238              	.LLST14:
 2239 0319 00000000 		.4byte	.LVL46
 2240 031d 13000000 		.4byte	.LVL48-1
 2241 0321 0100     		.2byte	0x1
 2242 0323 51       		.byte	0x51
 2243 0324 13000000 		.4byte	.LVL48-1
 2244 0328 40000000 		.4byte	.LFE11
 2245 032c 0100     		.2byte	0x1
 2246 032e 55       		.byte	0x55
 2247 032f 00000000 		.4byte	0
 2248 0333 00000000 		.4byte	0
 2249              	.LLST15:
 2250 0337 14000000 		.4byte	.LVL48
 2251 033b 1C000000 		.4byte	.LVL49
 2252 033f 0300     		.2byte	0x3
 2253 0341 74       		.byte	0x74
 2254 0342 08       		.sleb128 8
 2255 0343 9F       		.byte	0x9f
 2256 0344 1C000000 		.4byte	.LVL49
 2257 0348 24000000 		.4byte	.LVL51
 2258 034c 1500     		.2byte	0x15
 2259 034e F3       		.byte	0xf3
 2260 034f 01       		.uleb128 0x1
 2261 0350 50       		.byte	0x50
 2262 0351 03       		.byte	0x3
 2263 0352 00000000 		.4byte	.LANCHOR0
ARM GAS  /tmp/ccPryv9I.s 			page 41


 2264 0356 F3       		.byte	0xf3
 2265 0357 01       		.uleb128 0x1
 2266 0358 50       		.byte	0x50
 2267 0359 30       		.byte	0x30
 2268 035a 2E       		.byte	0x2e
 2269 035b 28       		.byte	0x28
 2270 035c 0100     		.2byte	0x1
 2271 035e 16       		.byte	0x16
 2272 035f 13       		.byte	0x13
 2273 0360 23       		.byte	0x23
 2274 0361 08       		.uleb128 0x8
 2275 0362 9F       		.byte	0x9f
 2276 0363 34000000 		.4byte	.LVL54
 2277 0367 38000000 		.4byte	.LVL55
 2278 036b 0300     		.2byte	0x3
 2279 036d 74       		.byte	0x74
 2280 036e 08       		.sleb128 8
 2281 036f 9F       		.byte	0x9f
 2282 0370 38000000 		.4byte	.LVL55
 2283 0374 40000000 		.4byte	.LFE11
 2284 0378 1500     		.2byte	0x15
 2285 037a F3       		.byte	0xf3
 2286 037b 01       		.uleb128 0x1
 2287 037c 50       		.byte	0x50
 2288 037d 03       		.byte	0x3
 2289 037e 00000000 		.4byte	.LANCHOR0
 2290 0382 F3       		.byte	0xf3
 2291 0383 01       		.uleb128 0x1
 2292 0384 50       		.byte	0x50
 2293 0385 30       		.byte	0x30
 2294 0386 2E       		.byte	0x2e
 2295 0387 28       		.byte	0x28
 2296 0388 0100     		.2byte	0x1
 2297 038a 16       		.byte	0x16
 2298 038b 13       		.byte	0x13
 2299 038c 23       		.byte	0x23
 2300 038d 08       		.uleb128 0x8
 2301 038e 9F       		.byte	0x9f
 2302 038f 00000000 		.4byte	0
 2303 0393 00000000 		.4byte	0
 2304              	.LLST16:
 2305 0397 14000000 		.4byte	.LVL48
 2306 039b 1C000000 		.4byte	.LVL49
 2307 039f 0200     		.2byte	0x2
 2308 03a1 30       		.byte	0x30
 2309 03a2 9F       		.byte	0x9f
 2310 03a3 1C000000 		.4byte	.LVL49
 2311 03a7 22000000 		.4byte	.LVL50
 2312 03ab 0100     		.2byte	0x1
 2313 03ad 54       		.byte	0x54
 2314 03ae 22000000 		.4byte	.LVL50
 2315 03b2 24000000 		.4byte	.LVL51
 2316 03b6 0300     		.2byte	0x3
 2317 03b8 74       		.byte	0x74
 2318 03b9 7F       		.sleb128 -1
 2319 03ba 9F       		.byte	0x9f
 2320 03bb 24000000 		.4byte	.LVL51
ARM GAS  /tmp/ccPryv9I.s 			page 42


 2321 03bf 28000000 		.4byte	.LVL52
 2322 03c3 0100     		.2byte	0x1
 2323 03c5 54       		.byte	0x54
 2324 03c6 34000000 		.4byte	.LVL54
 2325 03ca 40000000 		.4byte	.LFE11
 2326 03ce 0200     		.2byte	0x2
 2327 03d0 30       		.byte	0x30
 2328 03d1 9F       		.byte	0x9f
 2329 03d2 00000000 		.4byte	0
 2330 03d6 00000000 		.4byte	0
 2331              	.LLST17:
 2332 03da 14000000 		.4byte	.LVL48
 2333 03de 1C000000 		.4byte	.LVL49
 2334 03e2 0200     		.2byte	0x2
 2335 03e4 30       		.byte	0x30
 2336 03e5 9F       		.byte	0x9f
 2337 03e6 1C000000 		.4byte	.LVL49
 2338 03ea 28000000 		.4byte	.LVL52
 2339 03ee 0100     		.2byte	0x1
 2340 03f0 52       		.byte	0x52
 2341 03f1 34000000 		.4byte	.LVL54
 2342 03f5 40000000 		.4byte	.LFE11
 2343 03f9 0200     		.2byte	0x2
 2344 03fb 30       		.byte	0x30
 2345 03fc 9F       		.byte	0x9f
 2346 03fd 00000000 		.4byte	0
 2347 0401 00000000 		.4byte	0
 2348              		.section	.debug_aranges,"",%progbits
 2349 0000 3C000000 		.4byte	0x3c
 2350 0004 0200     		.2byte	0x2
 2351 0006 00000000 		.4byte	.Ldebug_info0
 2352 000a 04       		.byte	0x4
 2353 000b 00       		.byte	0
 2354 000c 0000     		.2byte	0
 2355 000e 0000     		.2byte	0
 2356 0010 00000000 		.4byte	.LFB7
 2357 0014 1C000000 		.4byte	.LFE7-.LFB7
 2358 0018 00000000 		.4byte	.LFB8
 2359 001c 34000000 		.4byte	.LFE8-.LFB8
 2360 0020 00000000 		.4byte	.LFB9
 2361 0024 80000000 		.4byte	.LFE9-.LFB9
 2362 0028 00000000 		.4byte	.LFB10
 2363 002c C8000000 		.4byte	.LFE10-.LFB10
 2364 0030 00000000 		.4byte	.LFB11
 2365 0034 40000000 		.4byte	.LFE11-.LFB11
 2366 0038 00000000 		.4byte	0
 2367 003c 00000000 		.4byte	0
 2368              		.section	.debug_ranges,"",%progbits
 2369              	.Ldebug_ranges0:
 2370 0000 00000000 		.4byte	.LFB7
 2371 0004 1C000000 		.4byte	.LFE7
 2372 0008 00000000 		.4byte	.LFB8
 2373 000c 34000000 		.4byte	.LFE8
 2374 0010 00000000 		.4byte	.LFB9
 2375 0014 80000000 		.4byte	.LFE9
 2376 0018 00000000 		.4byte	.LFB10
 2377 001c C8000000 		.4byte	.LFE10
ARM GAS  /tmp/ccPryv9I.s 			page 43


 2378 0020 00000000 		.4byte	.LFB11
 2379 0024 40000000 		.4byte	.LFE11
 2380 0028 00000000 		.4byte	0
 2381 002c 00000000 		.4byte	0
 2382              		.section	.debug_line,"",%progbits
 2383              	.Ldebug_line0:
 2384 0000 6B030000 		.section	.debug_str,"MS",%progbits,1
 2384      02005102 
 2384      00000201 
 2384      FB0E0D00 
 2384      01010101 
 2385              	.LASF39:
 2386 0000 705F6D73 		.ascii	"p_msg\000"
 2386      6700
 2387              	.LASF2:
 2388 0006 73697A65 		.ascii	"size_t\000"
 2388      5F7400
 2389              	.LASF65:
 2390 000d 7264796D 		.ascii	"rdymsg\000"
 2390      736700
 2391              	.LASF17:
 2392 0014 75696E74 		.ascii	"uint64_t\000"
 2392      36345F74 
 2392      00
 2393              	.LASF3:
 2394 001d 5F5F7569 		.ascii	"__uint8_t\000"
 2394      6E74385F 
 2394      7400
 2395              	.LASF55:
 2396 0027 6D656D67 		.ascii	"memgetfunc_t\000"
 2396      65746675 
 2396      6E635F74 
 2396      00
 2397              	.LASF13:
 2398 0034 6C6F6E67 		.ascii	"long long unsigned int\000"
 2398      206C6F6E 
 2398      6720756E 
 2398      7369676E 
 2398      65642069 
 2399              	.LASF66:
 2400 004b 65786974 		.ascii	"exitcode\000"
 2400      636F6465 
 2400      00
 2401              	.LASF59:
 2402 0054 685F6672 		.ascii	"h_free\000"
 2402      656500
 2403              	.LASF79:
 2404 005b 63684462 		.ascii	"chDbgPanic\000"
 2404      6750616E 
 2404      696300
 2405              	.LASF72:
 2406 0066 68656170 		.ascii	"heapp\000"
 2406      7000
 2407              	.LASF85:
 2408 006c 63684D74 		.ascii	"chMtxUnlock\000"
 2408      78556E6C 
 2408      6F636B00 
ARM GAS  /tmp/ccPryv9I.s 			page 44


 2409              	.LASF71:
 2410 0078 63684865 		.ascii	"chHeapInit\000"
 2410      6170496E 
 2410      697400
 2411              	.LASF61:
 2412 0083 6E657874 		.ascii	"next\000"
 2412      00
 2413              	.LASF28:
 2414 0088 705F7072 		.ascii	"p_prio\000"
 2414      696F00
 2415              	.LASF11:
 2416 008f 6C6F6E67 		.ascii	"long long int\000"
 2416      206C6F6E 
 2416      6720696E 
 2416      7400
 2417              	.LASF1:
 2418 009d 7369676E 		.ascii	"signed char\000"
 2418      65642063 
 2418      68617200 
 2419              	.LASF60:
 2420 00a9 685F6D74 		.ascii	"h_mtx\000"
 2420      7800
 2421              	.LASF43:
 2422 00af 705F6D70 		.ascii	"p_mpool\000"
 2422      6F6F6C00 
 2423              	.LASF52:
 2424 00b7 6D5F7175 		.ascii	"m_queue\000"
 2424      65756500 
 2425              	.LASF73:
 2426 00bf 63684865 		.ascii	"chHeapFree\000"
 2426      61704672 
 2426      656500
 2427              	.LASF8:
 2428 00ca 6C6F6E67 		.ascii	"long int\000"
 2428      20696E74 
 2428      00
 2429              	.LASF20:
 2430 00d3 74737461 		.ascii	"tstate_t\000"
 2430      74655F74 
 2430      00
 2431              	.LASF30:
 2432 00dc 705F6E65 		.ascii	"p_newer\000"
 2432      77657200 
 2433              	.LASF9:
 2434 00e4 5F5F7569 		.ascii	"__uint32_t\000"
 2434      6E743332 
 2434      5F7400
 2435              	.LASF46:
 2436 00ef 72656761 		.ascii	"regarm_t\000"
 2436      726D5F74 
 2436      00
 2437              	.LASF83:
 2438 00f8 2F686F6D 		.ascii	"/homes/msunkara/ASE-praticle-folder/ChibiOS/testhal"
 2438      65732F6D 
 2438      73756E6B 
 2438      6172612F 
 2438      4153452D 
ARM GAS  /tmp/ccPryv9I.s 			page 45


 2439 012b 2F53544D 		.ascii	"/STM32F1xx/I2S\000"
 2439      33324631 
 2439      78782F49 
 2439      325300
 2440              	.LASF63:
 2441 013a 616C6967 		.ascii	"align\000"
 2441      6E00
 2442              	.LASF33:
 2443 0140 705F7374 		.ascii	"p_stklimit\000"
 2443      6B6C696D 
 2443      697400
 2444              	.LASF0:
 2445 014b 756E7369 		.ascii	"unsigned int\000"
 2445      676E6564 
 2445      20696E74 
 2445      00
 2446              	.LASF10:
 2447 0158 6C6F6E67 		.ascii	"long unsigned int\000"
 2447      20756E73 
 2447      69676E65 
 2447      6420696E 
 2447      7400
 2448              	.LASF64:
 2449 016a 73697A65 		.ascii	"size\000"
 2449      00
 2450              	.LASF6:
 2451 016f 73686F72 		.ascii	"short unsigned int\000"
 2451      7420756E 
 2451      7369676E 
 2451      65642069 
 2451      6E7400
 2452              	.LASF23:
 2453 0182 6D73675F 		.ascii	"msg_t\000"
 2453      7400
 2454              	.LASF19:
 2455 0188 746D6F64 		.ascii	"tmode_t\000"
 2455      655F7400 
 2456              	.LASF45:
 2457 0190 54687265 		.ascii	"ThreadsList\000"
 2457      6164734C 
 2457      69737400 
 2458              	.LASF24:
 2459 019c 6576656E 		.ascii	"eventmask_t\000"
 2459      746D6173 
 2459      6B5F7400 
 2460              	.LASF51:
 2461 01a8 4D757465 		.ascii	"Mutex\000"
 2461      7800
 2462              	.LASF47:
 2463 01ae 73746B61 		.ascii	"stkalign_t\000"
 2463      6C69676E 
 2463      5F7400
 2464              	.LASF82:
 2465 01b9 2E2E2F2E 		.ascii	"../../../os/kernel/src/chheap.c\000"
 2465      2E2F2E2E 
 2465      2F6F732F 
 2465      6B65726E 
ARM GAS  /tmp/ccPryv9I.s 			page 46


 2465      656C2F73 
 2466              	.LASF50:
 2467 01d9 73697A65 		.ascii	"sizetype\000"
 2467      74797065 
 2467      00
 2468              	.LASF80:
 2469 01e2 63684D74 		.ascii	"chMtxLock\000"
 2469      784C6F63 
 2469      6B00
 2470              	.LASF31:
 2471 01ec 705F6F6C 		.ascii	"p_older\000"
 2471      64657200 
 2472              	.LASF44:
 2473 01f4 54687265 		.ascii	"ThreadsQueue\000"
 2473      61647351 
 2473      75657565 
 2473      00
 2474              	.LASF56:
 2475 0201 4D656D6F 		.ascii	"MemoryHeap\000"
 2475      72794865 
 2475      617000
 2476              	.LASF12:
 2477 020c 5F5F7569 		.ascii	"__uint64_t\000"
 2477      6E743634 
 2477      5F7400
 2478              	.LASF21:
 2479 0217 74726566 		.ascii	"trefs_t\000"
 2479      735F7400 
 2480              	.LASF27:
 2481 021f 705F7072 		.ascii	"p_prev\000"
 2481      657600
 2482              	.LASF22:
 2483 0226 74707269 		.ascii	"tprio_t\000"
 2483      6F5F7400 
 2484              	.LASF18:
 2485 022e 5F426F6F 		.ascii	"_Bool\000"
 2485      6C00
 2486              	.LASF15:
 2487 0234 696E7433 		.ascii	"int32_t\000"
 2487      325F7400 
 2488              	.LASF4:
 2489 023c 756E7369 		.ascii	"unsigned char\000"
 2489      676E6564 
 2489      20636861 
 2489      7200
 2490              	.LASF58:
 2491 024a 685F7072 		.ascii	"h_provider\000"
 2491      6F766964 
 2491      657200
 2492              	.LASF41:
 2493 0255 705F6D74 		.ascii	"p_mtxlist\000"
 2493      786C6973 
 2493      7400
 2494              	.LASF5:
 2495 025f 73686F72 		.ascii	"short int\000"
 2495      7420696E 
 2495      7400
ARM GAS  /tmp/ccPryv9I.s 			page 47


 2496              	.LASF34:
 2497 0269 705F7374 		.ascii	"p_state\000"
 2497      61746500 
 2498              	.LASF84:
 2499 0271 68656170 		.ascii	"heap_header\000"
 2499      5F686561 
 2499      64657200 
 2500              	.LASF68:
 2501 027d 65776D61 		.ascii	"ewmask\000"
 2501      736B00
 2502              	.LASF26:
 2503 0284 705F6E65 		.ascii	"p_next\000"
 2503      787400
 2504              	.LASF35:
 2505 028b 705F666C 		.ascii	"p_flags\000"
 2505      61677300 
 2506              	.LASF25:
 2507 0293 54687265 		.ascii	"Thread\000"
 2507      616400
 2508              	.LASF74:
 2509 029a 63684865 		.ascii	"chHeapAlloc\000"
 2509      6170416C 
 2509      6C6F6300 
 2510              	.LASF40:
 2511 02a6 705F6570 		.ascii	"p_epending\000"
 2511      656E6469 
 2511      6E6700
 2512              	.LASF16:
 2513 02b1 75696E74 		.ascii	"uint32_t\000"
 2513      33325F74 
 2513      00
 2514              	.LASF62:
 2515 02ba 68656170 		.ascii	"heap\000"
 2515      00
 2516              	.LASF77:
 2517 02bf 64656661 		.ascii	"default_heap\000"
 2517      756C745F 
 2517      68656170 
 2517      00
 2518              	.LASF69:
 2519 02cc 63686172 		.ascii	"char\000"
 2519      00
 2520              	.LASF75:
 2521 02d1 63684865 		.ascii	"chHeapStatus\000"
 2521      61705374 
 2521      61747573 
 2521      00
 2522              	.LASF54:
 2523 02de 6D5F6E65 		.ascii	"m_next\000"
 2523      787400
 2524              	.LASF42:
 2525 02e5 705F7265 		.ascii	"p_realprio\000"
 2525      616C7072 
 2525      696F00
 2526              	.LASF7:
 2527 02f0 5F5F696E 		.ascii	"__int32_t\000"
 2527      7433325F 
ARM GAS  /tmp/ccPryv9I.s 			page 48


 2527      7400
 2528              	.LASF49:
 2529 02fa 636F6E74 		.ascii	"context\000"
 2529      65787400 
 2530              	.LASF48:
 2531 0302 696E7463 		.ascii	"intctx\000"
 2531      747800
 2532              	.LASF38:
 2533 0309 705F6D73 		.ascii	"p_msgqueue\000"
 2533      67717565 
 2533      756500
 2534              	.LASF78:
 2535 0314 63684D74 		.ascii	"chMtxInit\000"
 2535      78496E69 
 2535      7400
 2536              	.LASF36:
 2537 031e 705F7265 		.ascii	"p_refs\000"
 2537      667300
 2538              	.LASF14:
 2539 0325 75696E74 		.ascii	"uint8_t\000"
 2539      385F7400 
 2540              	.LASF67:
 2541 032d 77746F62 		.ascii	"wtobjp\000"
 2541      6A7000
 2542              	.LASF76:
 2543 0334 73697A65 		.ascii	"sizep\000"
 2543      7000
 2544              	.LASF32:
 2545 033a 705F6E61 		.ascii	"p_name\000"
 2545      6D6500
 2546              	.LASF81:
 2547 0341 474E5520 		.ascii	"GNU C 4.8.3 20140228 (release) [ARM/embedded-4_8-br"
 2547      4320342E 
 2547      382E3320 
 2547      32303134 
 2547      30323238 
 2548 0374 616E6368 		.ascii	"anch revision 208322] -mcpu=cortex-m3 -mno-thumb-in"
 2548      20726576 
 2548      6973696F 
 2548      6E203230 
 2548      38333232 
 2549 03a7 74657277 		.ascii	"terwork -mthumb -ggdb -O2 -fomit-frame-pointer -fal"
 2549      6F726B20 
 2549      2D6D7468 
 2549      756D6220 
 2549      2D676764 
 2550 03da 69676E2D 		.ascii	"ign-functions=16 -ffunction-sections -fdata-section"
 2550      66756E63 
 2550      74696F6E 
 2550      733D3136 
 2550      202D6666 
 2551 040d 73202D66 		.ascii	"s -fno-common\000"
 2551      6E6F2D63 
 2551      6F6D6D6F 
 2551      6E00
 2552              	.LASF70:
 2553 041b 5F686561 		.ascii	"_heap_init\000"
ARM GAS  /tmp/ccPryv9I.s 			page 49


 2553      705F696E 
 2553      697400
 2554              	.LASF53:
 2555 0426 6D5F6F77 		.ascii	"m_owner\000"
 2555      6E657200 
 2556              	.LASF29:
 2557 042e 705F6374 		.ascii	"p_ctx\000"
 2557      7800
 2558              	.LASF37:
 2559 0434 705F7761 		.ascii	"p_waiting\000"
 2559      6974696E 
 2559      6700
 2560              	.LASF57:
 2561 043e 6D656D6F 		.ascii	"memory_heap\000"
 2561      72795F68 
 2561      65617000 
 2562              		.ident	"GCC: (GNU Tools for ARM Embedded Processors) 4.8.3 20140228 (release) [ARM/embedded-4_8-br
ARM GAS  /tmp/ccPryv9I.s 			page 50


DEFINED SYMBOLS
                            *ABS*:00000000 chheap.c
     /tmp/ccPryv9I.s:19     .text._heap_init:00000000 $t
     /tmp/ccPryv9I.s:25     .text._heap_init:00000000 _heap_init
     /tmp/ccPryv9I.s:52     .text._heap_init:00000014 $d
     /tmp/ccPryv9I.s:58     .text.chHeapInit:00000000 $t
     /tmp/ccPryv9I.s:64     .text.chHeapInit:00000000 chHeapInit
     /tmp/ccPryv9I.s:123    .text.chHeapInit:00000030 $d
     /tmp/ccPryv9I.s:128    .text.chHeapAlloc:00000000 $t
     /tmp/ccPryv9I.s:134    .text.chHeapAlloc:00000000 chHeapAlloc
     /tmp/ccPryv9I.s:260    .text.chHeapAlloc:0000007c $d
     /tmp/ccPryv9I.s:265    .text.chHeapFree:00000000 $t
     /tmp/ccPryv9I.s:271    .text.chHeapFree:00000000 chHeapFree
     /tmp/ccPryv9I.s:424    .text.chHeapFree:000000c0 $d
     /tmp/ccPryv9I.s:430    .text.chHeapStatus:00000000 $t
     /tmp/ccPryv9I.s:436    .text.chHeapStatus:00000000 chHeapStatus
     /tmp/ccPryv9I.s:507    .text.chHeapStatus:0000003c $d
     /tmp/ccPryv9I.s:512    .rodata.str1.4:00000000 $d
     /tmp/ccPryv9I.s:522    .bss.default_heap:00000000 $d
     /tmp/ccPryv9I.s:526    .bss.default_heap:00000000 default_heap
                     .debug_frame:00000010 $d
     /tmp/ccPryv9I.s:57     .text._heap_init:0000001c $t
     /tmp/ccPryv9I.s:127    .text.chHeapInit:00000034 $t
     /tmp/ccPryv9I.s:429    .text.chHeapFree:000000c8 $t

UNDEFINED SYMBOLS
chMtxInit
chCoreAlloc
chDbgPanic
chMtxLock
chMtxUnlock
