ARM GAS  /tmp/ccbpZSYU.s 			page 1


   1              		.syntax unified
   2              		.cpu cortex-m3
   3              		.fpu softvfp
   4              		.eabi_attribute 20, 1
   5              		.eabi_attribute 21, 1
   6              		.eabi_attribute 23, 3
   7              		.eabi_attribute 24, 1
   8              		.eabi_attribute 25, 1
   9              		.eabi_attribute 26, 1
  10              		.eabi_attribute 30, 2
  11              		.eabi_attribute 34, 1
  12              		.eabi_attribute 18, 4
  13              		.thumb
  14              		.file	"chcore_v7m.c"
  15              		.text
  16              	.Ltext0:
  17              		.cfi_sections	.debug_frame
  18              		.section	.text._port_switch_from_isr,"ax",%progbits
  19              		.align	2
  20              		.p2align 4,,15
  21              		.global	_port_switch_from_isr
  22              		.thumb
  23              		.thumb_func
  24              		.type	_port_switch_from_isr, %function
  25              	_port_switch_from_isr:
  26              	.LFB6:
  27              		.file 1 "../../../os/ports/GCC/ARMCMx/chcore_v7m.c"
  28              		.loc 1 200 0
  29              		.cfi_startproc
  30              		@ Naked Function: prologue and epilogue provided by programmer.
  31              		@ args = 0, pretend = 0, frame = 0
  32              		@ frame_needed = 0, uses_anonymous_args = 0
  33              		.loc 1 202 0
  34 0000 FFF7FEFF 		bl	dbg_check_lock
  35              	.LVL0:
  36              		.loc 1 203 0
  37 0004 FFF7FEFF 		bl	chSchDoReschedule
  38              	.LVL1:
  39              		.loc 1 204 0
  40 0008 FFF7FEFF 		bl	dbg_check_unlock
  41              	.LVL2:
  42              		.loc 1 205 0
  43              	@ 205 "../../../os/ports/GCC/ARMCMx/chcore_v7m.c" 1
  44              		_port_exit_from_isr:
  45              	@ 0 "" 2
  46              		.loc 1 207 0
  47              	@ 207 "../../../os/ports/GCC/ARMCMx/chcore_v7m.c" 1
  48 000c 00DF     		svc     #0
  49              	@ 0 "" 2
  50              		.loc 1 214 0
  51              		.thumb
  52              		.cfi_endproc
  53              	.LFE6:
  54              		.size	_port_switch_from_isr, .-_port_switch_from_isr
  55 000e 00BF     		.section	.text.SVCallVector,"ax",%progbits
  56              		.align	2
  57              		.p2align 4,,15
ARM GAS  /tmp/ccbpZSYU.s 			page 2


  58              		.global	SVCallVector
  59              		.thumb
  60              		.thumb_func
  61              		.type	SVCallVector, %function
  62              	SVCallVector:
  63              	.LFB1:
  64              		.loc 1 65 0
  65              		.cfi_startproc
  66              		@ args = 0, pretend = 0, frame = 0
  67              		@ frame_needed = 0, uses_anonymous_args = 0
  68 0000 00B5     		push	{lr}
  69              		.cfi_def_cfa_offset 4
  70              		.cfi_offset 14, -4
  71              		.loc 1 74 0
  72              	@ 74 "../../../os/ports/GCC/ARMCMx/chcore_v7m.c" 1
  73 0002 EFF30983 		mrs     r3, PSP
  74              	@ 0 "" 2
  75              	.LVL3:
  76              		.loc 1 78 0
  77              		.thumb
  78 0006 2033     		adds	r3, r3, #32
  79              	.LVL4:
  80              		.loc 1 81 0
  81              	@ 81 "../../../os/ports/GCC/ARMCMx/chcore_v7m.c" 1
  82 0008 83F30988 		msr     PSP, r3
  83              	@ 0 "" 2
  84              		.loc 1 82 0
  85              	@ 82 "../../../os/ports/GCC/ARMCMx/chcore_v7m.c" 1
  86 000c FFF7FEFF 		bl      _port_unlock
  87              	@ 0 "" 2
  88              	.LVL5:
  89              		.thumb
  90 0010 5DF804FB 		ldr	pc, [sp], #4
  91              		.cfi_endproc
  92              	.LFE1:
  93              		.size	SVCallVector, .-SVCallVector
  94 0014 AFF30080 		.section	.text._port_init,"ax",%progbits
  94      AFF30080 
  94      AFF30080 
  95              		.align	2
  96              		.p2align 4,,15
  97              		.global	_port_init
  98              		.thumb
  99              		.thumb_func
 100              		.type	_port_init, %function
 101              	_port_init:
 102              	.LFB2:
 103              		.loc 1 120 0
 104              		.cfi_startproc
 105              		@ args = 0, pretend = 0, frame = 0
 106              		@ frame_needed = 0, uses_anonymous_args = 0
 107 0000 08B5     		push	{r3, lr}
 108              		.cfi_def_cfa_offset 8
 109              		.cfi_offset 3, -8
 110              		.cfi_offset 14, -4
 111              		.loc 1 124 0
 112 0002 094A     		ldr	r2, .L4
ARM GAS  /tmp/ccbpZSYU.s 			page 3


 113              		.loc 1 123 0
 114 0004 094B     		ldr	r3, .L4+4
 115 0006 0021     		movs	r1, #0
 116 0008 9960     		str	r1, [r3, #8]
 117              		.loc 1 127 0
 118 000a 0720     		movs	r0, #7
 119              		.loc 1 124 0
 120 000c DA60     		str	r2, [r3, #12]
 121              		.loc 1 127 0
 122 000e 1021     		movs	r1, #16
 123 0010 FFF7FEFF 		bl	nvicSetSystemHandlerPriority
 124              	.LVL6:
 125              		.loc 1 129 0
 126 0014 0A20     		movs	r0, #10
 127 0016 2021     		movs	r1, #32
 128 0018 FFF7FEFF 		bl	nvicSetSystemHandlerPriority
 129              	.LVL7:
 130              		.loc 1 133 0
 131 001c BDE80840 		pop	{r3, lr}
 132              		.loc 1 131 0
 133 0020 0B20     		movs	r0, #11
 134 0022 8021     		movs	r1, #128
 135 0024 FFF7FEBF 		b	nvicSetSystemHandlerPriority
 136              	.LVL8:
 137              	.L5:
 138              		.align	2
 139              	.L4:
 140 0028 0003FA05 		.word	100270848
 141 002c 00ED00E0 		.word	-536810240
 142              		.cfi_endproc
 143              	.LFE2:
 144              		.size	_port_init, .-_port_init
 145              		.section	.text._port_lock,"ax",%progbits
 146              		.align	2
 147              		.p2align 4,,15
 148              		.global	_port_lock
 149              		.thumb
 150              		.thumb_func
 151              		.type	_port_lock, %function
 152              	_port_lock:
 153              	.LFB3:
 154              		.loc 1 136 0
 155              		.cfi_startproc
 156              		@ args = 0, pretend = 0, frame = 0
 157              		@ frame_needed = 0, uses_anonymous_args = 0
 158              		@ link register save eliminated.
 159              		.loc 1 137 0
 160 0000 2023     		movs	r3, #32
 161              		.loc 1 138 0
 162              	@ 138 "../../../os/ports/GCC/ARMCMx/chcore_v7m.c" 1
 163 0002 83F31188 		msr     BASEPRI, r3
 164              	@ 0 "" 2
 165              		.thumb
 166 0006 7047     		bx	lr
 167              		.cfi_endproc
 168              	.LFE3:
 169              		.size	_port_lock, .-_port_lock
ARM GAS  /tmp/ccbpZSYU.s 			page 4


 170 0008 AFF30080 		.section	.text._port_unlock,"ax",%progbits
 170      AFF30080 
 171              		.align	2
 172              		.p2align 4,,15
 173              		.global	_port_unlock
 174              		.thumb
 175              		.thumb_func
 176              		.type	_port_unlock, %function
 177              	_port_unlock:
 178              	.LFB4:
 179              		.loc 1 141 0
 180              		.cfi_startproc
 181              		@ args = 0, pretend = 0, frame = 0
 182              		@ frame_needed = 0, uses_anonymous_args = 0
 183              		@ link register save eliminated.
 184              		.loc 1 142 0
 185 0000 0023     		movs	r3, #0
 186              		.loc 1 143 0
 187              	@ 143 "../../../os/ports/GCC/ARMCMx/chcore_v7m.c" 1
 188 0002 83F31188 		msr     BASEPRI, r3
 189              	@ 0 "" 2
 190              		.thumb
 191 0006 7047     		bx	lr
 192              		.cfi_endproc
 193              	.LFE4:
 194              		.size	_port_unlock, .-_port_unlock
 195 0008 AFF30080 		.section	.text._port_irq_epilogue,"ax",%progbits
 195      AFF30080 
 196              		.align	2
 197              		.p2align 4,,15
 198              		.global	_port_irq_epilogue
 199              		.thumb
 200              		.thumb_func
 201              		.type	_port_irq_epilogue, %function
 202              	_port_irq_epilogue:
 203              	.LFB5:
 204              		.loc 1 150 0
 205              		.cfi_startproc
 206              		@ args = 0, pretend = 0, frame = 0
 207              		@ frame_needed = 0, uses_anonymous_args = 0
 208 0000 00B5     		push	{lr}
 209              		.cfi_def_cfa_offset 4
 210              		.cfi_offset 14, -4
 211              		.loc 1 152 0
 212              	@ 152 "../../../os/ports/GCC/ARMCMx/chcore_v7m.c" 1
 213 0002 FFF7FEFF 		bl      _port_lock
 214              	@ 0 "" 2
 215              		.loc 1 153 0
 216              		.thumb
 217 0006 0F4B     		ldr	r3, .L13
 218 0008 5B68     		ldr	r3, [r3, #4]
 219 000a 1B05     		lsls	r3, r3, #20
 220 000c 16D5     		bpl	.L9
 221              	.LBB2:
 222              		.loc 1 163 0
 223              	@ 163 "../../../os/ports/GCC/ARMCMx/chcore_v7m.c" 1
 224 000e EFF30983 		mrs     r3, PSP
ARM GAS  /tmp/ccbpZSYU.s 			page 5


 225              	@ 0 "" 2
 226              	.LVL9:
 227              		.loc 1 168 0
 228              		.thumb
 229 0012 4FF08072 		mov	r2, #16777216
 230 0016 43F8042C 		str	r2, [r3, #-4]
 231              		.loc 1 167 0
 232 001a A3F12002 		sub	r2, r3, #32
 233              	.LVL10:
 234              		.loc 1 172 0
 235              	@ 172 "../../../os/ports/GCC/ARMCMx/chcore_v7m.c" 1
 236 001e 82F30988 		msr     PSP, r2
 237              	@ 0 "" 2
 238              		.loc 1 176 0
 239              		.thumb
 240 0022 094A     		ldr	r2, .L13+4
 241              	.LVL11:
 242 0024 1168     		ldr	r1, [r2]
 243 0026 9269     		ldr	r2, [r2, #24]
 244 0028 8968     		ldr	r1, [r1, #8]
 245 002a 9268     		ldr	r2, [r2, #8]
 246 002c 9142     		cmp	r1, r2
 247              		.loc 1 178 0
 248 002e 8CBF     		ite	hi
 249 0030 064A     		ldrhi	r2, .L13+8
 250              		.loc 1 183 0
 251 0032 074A     		ldrls	r2, .L13+12
 252 0034 43F8082C 		str	r2, [r3, #-8]
 253 0038 5DF804FB 		ldr	pc, [sp], #4
 254              	.LVL12:
 255              	.L9:
 256              	.LBE2:
 257              		.loc 1 190 0
 258              	@ 190 "../../../os/ports/GCC/ARMCMx/chcore_v7m.c" 1
 259 003c FFF7FEFF 		bl      _port_unlock
 260              	@ 0 "" 2
 261              		.thumb
 262 0040 5DF804FB 		ldr	pc, [sp], #4
 263              	.L14:
 264              		.align	2
 265              	.L13:
 266 0044 00ED00E0 		.word	-536810240
 267 0048 00000000 		.word	rlist
 268 004c 00000000 		.word	_port_switch_from_isr
 269 0050 0C000000 		.word	_port_exit_from_isr
 270              		.cfi_endproc
 271              	.LFE5:
 272              		.size	_port_irq_epilogue, .-_port_irq_epilogue
 273 0054 AFF30080 		.section	.text.SysTickVector,"ax",%progbits
 273      AFF30080 
 273      AFF30080 
 274              		.align	2
 275              		.p2align 4,,15
 276              		.global	SysTickVector
 277              		.thumb
 278              		.thumb_func
 279              		.type	SysTickVector, %function
ARM GAS  /tmp/ccbpZSYU.s 			page 6


 280              	SysTickVector:
 281              	.LFB0:
 282              		.loc 1 47 0
 283              		.cfi_startproc
 284              		@ args = 0, pretend = 0, frame = 0
 285              		@ frame_needed = 0, uses_anonymous_args = 0
 286 0000 08B5     		push	{r3, lr}
 287              		.cfi_def_cfa_offset 8
 288              		.cfi_offset 3, -8
 289              		.cfi_offset 14, -4
 290              		.loc 1 49 0
 291 0002 FFF7FEFF 		bl	dbg_check_enter_isr
 292              	.LVL13:
 293              		.loc 1 51 0
 294              	@ 51 "../../../os/ports/GCC/ARMCMx/chcore_v7m.c" 1
 295 0006 FFF7FEFF 		bl      _port_lock
 296              	@ 0 "" 2
 297              		.thumb
 298 000a FFF7FEFF 		bl	dbg_check_lock_from_isr
 299              	.LVL14:
 300              		.loc 1 52 0
 301 000e FFF7FEFF 		bl	chSysTimerHandlerI
 302              	.LVL15:
 303              		.loc 1 53 0
 304 0012 FFF7FEFF 		bl	dbg_check_unlock_from_isr
 305              	.LVL16:
 306              	@ 53 "../../../os/ports/GCC/ARMCMx/chcore_v7m.c" 1
 307 0016 FFF7FEFF 		bl      _port_unlock
 308              	@ 0 "" 2
 309              		.loc 1 55 0
 310              		.thumb
 311 001a FFF7FEFF 		bl	dbg_check_leave_isr
 312              	.LVL17:
 313              		.loc 1 56 0
 314 001e BDE80840 		pop	{r3, lr}
 315              		.loc 1 55 0
 316 0022 FFF7FEBF 		b	_port_irq_epilogue
 317              	.LVL18:
 318              		.cfi_endproc
 319              	.LFE0:
 320              		.size	SysTickVector, .-SysTickVector
 321              		.section	.text._port_switch,"ax",%progbits
 322              		.align	2
 323              		.p2align 4,,15
 324              		.global	_port_switch
 325              		.thumb
 326              		.thumb_func
 327              		.type	_port_switch, %function
 328              	_port_switch:
 329              	.LFB7:
 330              		.loc 1 229 0
 331              		.cfi_startproc
 332              		@ Naked Function: prologue and epilogue provided by programmer.
 333              		@ args = 0, pretend = 0, frame = 0
 334              		@ frame_needed = 0, uses_anonymous_args = 0
 335              	.LVL19:
 336              		.loc 1 231 0
ARM GAS  /tmp/ccbpZSYU.s 			page 7


 337              	@ 231 "../../../os/ports/GCC/ARMCMx/chcore_v7m.c" 1
 338 0000 2DE9F04F 		push    {r4, r5, r6, r7, r8, r9, r10, r11, lr}
 339              	@ 0 "" 2
 340              		.loc 1 237 0
 341              	@ 237 "../../../os/ports/GCC/ARMCMx/chcore_v7m.c" 1
 342 0004 C1F80CD0 		str     sp, [r1, #12]                          
 343 0008 D0F80CD0 		ldr     sp, [r0, #12]
 344              	@ 0 "" 2
 345              		.loc 1 243 0
 346              	@ 243 "../../../os/ports/GCC/ARMCMx/chcore_v7m.c" 1
 347 000c BDE8F08F 		pop     {r4, r5, r6, r7, r8, r9, r10, r11, pc}
 348              	@ 0 "" 2
 349              		.loc 1 245 0
 350              		.thumb
 351              		.cfi_endproc
 352              	.LFE7:
 353              		.size	_port_switch, .-_port_switch
 354              		.section	.text._port_thread_start,"ax",%progbits
 355              		.align	2
 356              		.p2align 4,,15
 357              		.global	_port_thread_start
 358              		.thumb
 359              		.thumb_func
 360              		.type	_port_thread_start, %function
 361              	_port_thread_start:
 362              	.LFB8:
 363              		.loc 1 252 0
 364              		.cfi_startproc
 365              		@ args = 0, pretend = 0, frame = 0
 366              		@ frame_needed = 0, uses_anonymous_args = 0
 367 0000 08B5     		push	{r3, lr}
 368              		.cfi_def_cfa_offset 8
 369              		.cfi_offset 3, -8
 370              		.cfi_offset 14, -4
 371              		.loc 1 254 0
 372 0002 FFF7FEFF 		bl	dbg_check_unlock
 373              	.LVL20:
 374              	@ 254 "../../../os/ports/GCC/ARMCMx/chcore_v7m.c" 1
 375 0006 FFF7FEFF 		bl      _port_unlock
 376              	@ 0 "" 2
 377              		.loc 1 255 0
 378              	@ 255 "../../../os/ports/GCC/ARMCMx/chcore_v7m.c" 1
 379 000a 2846     		mov     r0, r5                                 
 380 000c A047     		blx     r4                                     
 381 000e FFF7FEFF 		bl      chThdExit
 382              	@ 0 "" 2
 383              		.thumb
 384 0012 08BD     		pop	{r3, pc}
 385              		.cfi_endproc
 386              	.LFE8:
 387              		.size	_port_thread_start, .-_port_thread_start
 388 0014 AFF30080 		.text
 388      AFF30080 
 388      AFF30080 
 389              	.Letext0:
 390              		.file 2 "/homes/msunkara/ASE-praticle-folder/gcc-arm-embedded/gcc-arm-none-eabi-4_8-2014q/arm-none
 391              		.file 3 "/homes/msunkara/ASE-praticle-folder/gcc-arm-embedded/gcc-arm-none-eabi-4_8-2014q/arm-none
ARM GAS  /tmp/ccbpZSYU.s 			page 8


 392              		.file 4 "../../../os/ports/GCC/ARMCMx/chtypes.h"
 393              		.file 5 "../../../os/kernel/include/chlists.h"
 394              		.file 6 "../../../os/kernel/include/chthreads.h"
 395              		.file 7 "../../../os/ports/GCC/ARMCMx/chcore_v7m.h"
 396              		.file 8 "../../../os/ports/common/ARMCMx/nvic.h"
 397              		.file 9 "../../../os/kernel/include/chschd.h"
 398              		.file 10 "../../../os/kernel/include/chmtx.h"
 399              		.file 11 "../../../os/kernel/include/chdebug.h"
 400              		.file 12 "../../../os/kernel/include/chsys.h"
 401              		.section	.debug_info,"",%progbits
 402              	.Ldebug_info0:
 403 0000 00080000 		.4byte	0x800
 404 0004 0400     		.2byte	0x4
 405 0006 00000000 		.4byte	.Ldebug_abbrev0
 406 000a 04       		.byte	0x4
 407 000b 01       		.uleb128 0x1
 408 000c 6C040000 		.4byte	.LASF103
 409 0010 01       		.byte	0x1
 410 0011 1B020000 		.4byte	.LASF104
 411 0015 EC000000 		.4byte	.LASF105
 412 0019 00000000 		.4byte	.Ldebug_ranges0+0
 413 001d 00000000 		.4byte	0
 414 0021 00000000 		.4byte	.Ldebug_line0
 415 0025 02       		.uleb128 0x2
 416 0026 04       		.byte	0x4
 417 0027 05       		.byte	0x5
 418 0028 696E7400 		.ascii	"int\000"
 419 002c 03       		.uleb128 0x3
 420 002d 04       		.byte	0x4
 421 002e 07       		.byte	0x7
 422 002f A0010000 		.4byte	.LASF0
 423 0033 03       		.uleb128 0x3
 424 0034 01       		.byte	0x1
 425 0035 06       		.byte	0x6
 426 0036 84000000 		.4byte	.LASF1
 427 003a 04       		.uleb128 0x4
 428 003b 16000000 		.4byte	.LASF5
 429 003f 02       		.byte	0x2
 430 0040 1C       		.byte	0x1c
 431 0041 45000000 		.4byte	0x45
 432 0045 03       		.uleb128 0x3
 433 0046 01       		.byte	0x1
 434 0047 08       		.byte	0x8
 435 0048 2A030000 		.4byte	.LASF2
 436 004c 03       		.uleb128 0x3
 437 004d 02       		.byte	0x2
 438 004e 05       		.byte	0x5
 439 004f 48030000 		.4byte	.LASF3
 440 0053 03       		.uleb128 0x3
 441 0054 02       		.byte	0x2
 442 0055 07       		.byte	0x7
 443 0056 FD010000 		.4byte	.LASF4
 444 005a 04       		.uleb128 0x4
 445 005b D5030000 		.4byte	.LASF6
 446 005f 02       		.byte	0x2
 447 0060 37       		.byte	0x37
 448 0061 65000000 		.4byte	0x65
ARM GAS  /tmp/ccbpZSYU.s 			page 9


 449 0065 03       		.uleb128 0x3
 450 0066 04       		.byte	0x4
 451 0067 05       		.byte	0x5
 452 0068 B2000000 		.4byte	.LASF7
 453 006c 04       		.uleb128 0x4
 454 006d 33010000 		.4byte	.LASF8
 455 0071 02       		.byte	0x2
 456 0072 38       		.byte	0x38
 457 0073 77000000 		.4byte	0x77
 458 0077 03       		.uleb128 0x3
 459 0078 04       		.byte	0x4
 460 0079 07       		.byte	0x7
 461 007a C8010000 		.4byte	.LASF9
 462 007e 03       		.uleb128 0x3
 463 007f 08       		.byte	0x8
 464 0080 05       		.byte	0x5
 465 0081 76000000 		.4byte	.LASF10
 466 0085 04       		.uleb128 0x4
 467 0086 F8020000 		.4byte	.LASF11
 468 008a 02       		.byte	0x2
 469 008b 4E       		.byte	0x4e
 470 008c 90000000 		.4byte	0x90
 471 0090 03       		.uleb128 0x3
 472 0091 08       		.byte	0x8
 473 0092 07       		.byte	0x7
 474 0093 49000000 		.4byte	.LASF12
 475 0097 04       		.uleb128 0x4
 476 0098 33040000 		.4byte	.LASF13
 477 009c 03       		.byte	0x3
 478 009d 2A       		.byte	0x2a
 479 009e 3A000000 		.4byte	0x3a
 480 00a2 04       		.uleb128 0x4
 481 00a3 22030000 		.4byte	.LASF14
 482 00a7 03       		.byte	0x3
 483 00a8 41       		.byte	0x41
 484 00a9 5A000000 		.4byte	0x5a
 485 00ad 04       		.uleb128 0x4
 486 00ae 8E030000 		.4byte	.LASF15
 487 00b2 03       		.byte	0x3
 488 00b3 42       		.byte	0x42
 489 00b4 6C000000 		.4byte	0x6c
 490 00b8 04       		.uleb128 0x4
 491 00b9 0D000000 		.4byte	.LASF16
 492 00bd 03       		.byte	0x3
 493 00be 4E       		.byte	0x4e
 494 00bf 85000000 		.4byte	0x85
 495 00c3 03       		.uleb128 0x3
 496 00c4 01       		.byte	0x1
 497 00c5 02       		.byte	0x2
 498 00c6 1C030000 		.4byte	.LASF17
 499 00ca 04       		.uleb128 0x4
 500 00cb 6C020000 		.4byte	.LASF18
 501 00cf 04       		.byte	0x4
 502 00d0 2C       		.byte	0x2c
 503 00d1 97000000 		.4byte	0x97
 504 00d5 04       		.uleb128 0x4
 505 00d6 C8000000 		.4byte	.LASF19
ARM GAS  /tmp/ccbpZSYU.s 			page 10


 506 00da 04       		.byte	0x4
 507 00db 2D       		.byte	0x2d
 508 00dc 97000000 		.4byte	0x97
 509 00e0 04       		.uleb128 0x4
 510 00e1 14030000 		.4byte	.LASF20
 511 00e5 04       		.byte	0x4
 512 00e6 30       		.byte	0x30
 513 00e7 AD000000 		.4byte	0xad
 514 00eb 04       		.uleb128 0x4
 515 00ec 15020000 		.4byte	.LASF21
 516 00f0 04       		.byte	0x4
 517 00f1 31       		.byte	0x31
 518 00f2 A2000000 		.4byte	0xa2
 519 00f6 04       		.uleb128 0x4
 520 00f7 80020000 		.4byte	.LASF22
 521 00fb 04       		.byte	0x4
 522 00fc 33       		.byte	0x33
 523 00fd AD000000 		.4byte	0xad
 524 0101 04       		.uleb128 0x4
 525 0102 C0030000 		.4byte	.LASF23
 526 0106 04       		.byte	0x4
 527 0107 35       		.byte	0x35
 528 0108 AD000000 		.4byte	0xad
 529 010c 04       		.uleb128 0x4
 530 010d 7C030000 		.4byte	.LASF24
 531 0111 05       		.byte	0x5
 532 0112 2A       		.byte	0x2a
 533 0113 17010000 		.4byte	0x117
 534 0117 05       		.uleb128 0x5
 535 0118 7C030000 		.4byte	.LASF24
 536 011c 48       		.byte	0x48
 537 011d 06       		.byte	0x6
 538 011e 5E       		.byte	0x5e
 539 011f FC010000 		.4byte	0x1fc
 540 0123 06       		.uleb128 0x6
 541 0124 6D030000 		.4byte	.LASF25
 542 0128 06       		.byte	0x6
 543 0129 5F       		.byte	0x5f
 544 012a 1D020000 		.4byte	0x21d
 545 012e 00       		.byte	0
 546 012f 06       		.uleb128 0x6
 547 0130 0D030000 		.4byte	.LASF26
 548 0134 06       		.byte	0x6
 549 0135 61       		.byte	0x61
 550 0136 1D020000 		.4byte	0x21d
 551 013a 04       		.byte	0x4
 552 013b 06       		.uleb128 0x6
 553 013c 6F000000 		.4byte	.LASF27
 554 0140 06       		.byte	0x6
 555 0141 63       		.byte	0x63
 556 0142 E0000000 		.4byte	0xe0
 557 0146 08       		.byte	0x8
 558 0147 06       		.uleb128 0x6
 559 0148 59050000 		.4byte	.LASF28
 560 014c 06       		.byte	0x6
 561 014d 64       		.byte	0x64
 562 014e 4A030000 		.4byte	0x34a
ARM GAS  /tmp/ccbpZSYU.s 			page 11


 563 0152 0C       		.byte	0xc
 564 0153 06       		.uleb128 0x6
 565 0154 E4000000 		.4byte	.LASF29
 566 0158 06       		.byte	0x6
 567 0159 66       		.byte	0x66
 568 015a 1D020000 		.4byte	0x21d
 569 015e 10       		.byte	0x10
 570 015f 06       		.uleb128 0x6
 571 0160 BA020000 		.4byte	.LASF30
 572 0164 06       		.byte	0x6
 573 0165 67       		.byte	0x67
 574 0166 1D020000 		.4byte	0x21d
 575 016a 14       		.byte	0x14
 576 016b 06       		.uleb128 0x6
 577 016c 65040000 		.4byte	.LASF31
 578 0170 06       		.byte	0x6
 579 0171 6E       		.byte	0x6e
 580 0172 C3050000 		.4byte	0x5c3
 581 0176 18       		.byte	0x18
 582 0177 06       		.uleb128 0x6
 583 0178 95010000 		.4byte	.LASF32
 584 017c 06       		.byte	0x6
 585 017d 74       		.byte	0x74
 586 017e D5050000 		.4byte	0x5d5
 587 0182 1C       		.byte	0x1c
 588 0183 06       		.uleb128 0x6
 589 0184 52030000 		.4byte	.LASF33
 590 0188 06       		.byte	0x6
 591 0189 79       		.byte	0x79
 592 018a D5000000 		.4byte	0xd5
 593 018e 20       		.byte	0x20
 594 018f 06       		.uleb128 0x6
 595 0190 74030000 		.4byte	.LASF34
 596 0194 06       		.byte	0x6
 597 0195 7D       		.byte	0x7d
 598 0196 CA000000 		.4byte	0xca
 599 019a 21       		.byte	0x21
 600 019b 06       		.uleb128 0x6
 601 019c EC030000 		.4byte	.LASF35
 602 01a0 06       		.byte	0x6
 603 01a1 8F       		.byte	0x8f
 604 01a2 EB040000 		.4byte	0x4eb
 605 01a6 24       		.byte	0x24
 606 01a7 07       		.uleb128 0x7
 607 01a8 705F7500 		.ascii	"p_u\000"
 608 01ac 06       		.byte	0x6
 609 01ad B4       		.byte	0xb4
 610 01ae 8E050000 		.4byte	0x58e
 611 01b2 28       		.byte	0x28
 612 01b3 06       		.uleb128 0x6
 613 01b4 5F050000 		.4byte	.LASF36
 614 01b8 06       		.byte	0x6
 615 01b9 B9       		.byte	0xb9
 616 01ba 43020000 		.4byte	0x243
 617 01be 2C       		.byte	0x2c
 618 01bf 06       		.uleb128 0x6
 619 01c0 13040000 		.4byte	.LASF37
ARM GAS  /tmp/ccbpZSYU.s 			page 12


 620 01c4 06       		.byte	0x6
 621 01c5 BF       		.byte	0xbf
 622 01c6 23020000 		.4byte	0x223
 623 01ca 30       		.byte	0x30
 624 01cb 06       		.uleb128 0x6
 625 01cc 00000000 		.4byte	.LASF38
 626 01d0 06       		.byte	0x6
 627 01d1 C3       		.byte	0xc3
 628 01d2 EB000000 		.4byte	0xeb
 629 01d6 38       		.byte	0x38
 630 01d7 06       		.uleb128 0x6
 631 01d8 83030000 		.4byte	.LASF39
 632 01dc 06       		.byte	0x6
 633 01dd C9       		.byte	0xc9
 634 01de F6000000 		.4byte	0xf6
 635 01e2 3C       		.byte	0x3c
 636 01e3 06       		.uleb128 0x6
 637 01e4 3E030000 		.4byte	.LASF40
 638 01e8 06       		.byte	0x6
 639 01e9 D0       		.byte	0xd0
 640 01ea DB050000 		.4byte	0x5db
 641 01ee 40       		.byte	0x40
 642 01ef 06       		.uleb128 0x6
 643 01f0 CA030000 		.4byte	.LASF41
 644 01f4 06       		.byte	0x6
 645 01f5 D4       		.byte	0xd4
 646 01f6 E0000000 		.4byte	0xe0
 647 01fa 44       		.byte	0x44
 648 01fb 00       		.byte	0
 649 01fc 08       		.uleb128 0x8
 650 01fd 08       		.byte	0x8
 651 01fe 05       		.byte	0x5
 652 01ff 61       		.byte	0x61
 653 0200 1D020000 		.4byte	0x21d
 654 0204 06       		.uleb128 0x6
 655 0205 6D030000 		.4byte	.LASF25
 656 0209 05       		.byte	0x5
 657 020a 62       		.byte	0x62
 658 020b 1D020000 		.4byte	0x21d
 659 020f 00       		.byte	0
 660 0210 06       		.uleb128 0x6
 661 0211 0D030000 		.4byte	.LASF26
 662 0215 05       		.byte	0x5
 663 0216 64       		.byte	0x64
 664 0217 1D020000 		.4byte	0x21d
 665 021b 04       		.byte	0x4
 666 021c 00       		.byte	0
 667 021d 09       		.uleb128 0x9
 668 021e 04       		.byte	0x4
 669 021f 0C010000 		.4byte	0x10c
 670 0223 04       		.uleb128 0x4
 671 0224 C8020000 		.4byte	.LASF42
 672 0228 05       		.byte	0x5
 673 0229 66       		.byte	0x66
 674 022a FC010000 		.4byte	0x1fc
 675 022e 08       		.uleb128 0x8
 676 022f 04       		.byte	0x4
ARM GAS  /tmp/ccbpZSYU.s 			page 13


 677 0230 05       		.byte	0x5
 678 0231 6B       		.byte	0x6b
 679 0232 43020000 		.4byte	0x243
 680 0236 06       		.uleb128 0x6
 681 0237 6D030000 		.4byte	.LASF25
 682 023b 05       		.byte	0x5
 683 023c 6D       		.byte	0x6d
 684 023d 1D020000 		.4byte	0x21d
 685 0241 00       		.byte	0
 686 0242 00       		.byte	0
 687 0243 04       		.uleb128 0x4
 688 0244 74020000 		.4byte	.LASF43
 689 0248 05       		.byte	0x5
 690 0249 70       		.byte	0x70
 691 024a 2E020000 		.4byte	0x22e
 692 024e 04       		.uleb128 0x4
 693 024f 5B010000 		.4byte	.LASF44
 694 0253 07       		.byte	0x7
 695 0254 E5       		.byte	0xe5
 696 0255 59020000 		.4byte	0x259
 697 0259 0A       		.uleb128 0xa
 698 025a 04       		.byte	0x4
 699 025b 04       		.uleb128 0x4
 700 025c 92020000 		.4byte	.LASF45
 701 0260 07       		.byte	0x7
 702 0261 EB       		.byte	0xeb
 703 0262 B8000000 		.4byte	0xb8
 704 0266 05       		.uleb128 0x5
 705 0267 B4010000 		.4byte	.LASF46
 706 026b 20       		.byte	0x20
 707 026c 07       		.byte	0x7
 708 026d ED       		.byte	0xed
 709 026e CE020000 		.4byte	0x2ce
 710 0272 07       		.uleb128 0x7
 711 0273 723000   		.ascii	"r0\000"
 712 0276 07       		.byte	0x7
 713 0277 EE       		.byte	0xee
 714 0278 4E020000 		.4byte	0x24e
 715 027c 00       		.byte	0
 716 027d 07       		.uleb128 0x7
 717 027e 723100   		.ascii	"r1\000"
 718 0281 07       		.byte	0x7
 719 0282 EF       		.byte	0xef
 720 0283 4E020000 		.4byte	0x24e
 721 0287 04       		.byte	0x4
 722 0288 07       		.uleb128 0x7
 723 0289 723200   		.ascii	"r2\000"
 724 028c 07       		.byte	0x7
 725 028d F0       		.byte	0xf0
 726 028e 4E020000 		.4byte	0x24e
 727 0292 08       		.byte	0x8
 728 0293 07       		.uleb128 0x7
 729 0294 723300   		.ascii	"r3\000"
 730 0297 07       		.byte	0x7
 731 0298 F1       		.byte	0xf1
 732 0299 4E020000 		.4byte	0x24e
 733 029d 0C       		.byte	0xc
ARM GAS  /tmp/ccbpZSYU.s 			page 14


 734 029e 07       		.uleb128 0x7
 735 029f 72313200 		.ascii	"r12\000"
 736 02a3 07       		.byte	0x7
 737 02a4 F2       		.byte	0xf2
 738 02a5 4E020000 		.4byte	0x24e
 739 02a9 10       		.byte	0x10
 740 02aa 06       		.uleb128 0x6
 741 02ab AD010000 		.4byte	.LASF47
 742 02af 07       		.byte	0x7
 743 02b0 F3       		.byte	0xf3
 744 02b1 4E020000 		.4byte	0x24e
 745 02b5 14       		.byte	0x14
 746 02b6 07       		.uleb128 0x7
 747 02b7 706300   		.ascii	"pc\000"
 748 02ba 07       		.byte	0x7
 749 02bb F4       		.byte	0xf4
 750 02bc 4E020000 		.4byte	0x24e
 751 02c0 18       		.byte	0x18
 752 02c1 06       		.uleb128 0x6
 753 02c2 5A030000 		.4byte	.LASF48
 754 02c6 07       		.byte	0x7
 755 02c7 F5       		.byte	0xf5
 756 02c8 4E020000 		.4byte	0x24e
 757 02cc 1C       		.byte	0x1c
 758 02cd 00       		.byte	0
 759 02ce 0B       		.uleb128 0xb
 760 02cf 0C040000 		.4byte	.LASF49
 761 02d3 24       		.byte	0x24
 762 02d4 07       		.byte	0x7
 763 02d5 0C01     		.2byte	0x10c
 764 02d7 4A030000 		.4byte	0x34a
 765 02db 0C       		.uleb128 0xc
 766 02dc 723400   		.ascii	"r4\000"
 767 02df 07       		.byte	0x7
 768 02e0 1F01     		.2byte	0x11f
 769 02e2 4E020000 		.4byte	0x24e
 770 02e6 00       		.byte	0
 771 02e7 0C       		.uleb128 0xc
 772 02e8 723500   		.ascii	"r5\000"
 773 02eb 07       		.byte	0x7
 774 02ec 2001     		.2byte	0x120
 775 02ee 4E020000 		.4byte	0x24e
 776 02f2 04       		.byte	0x4
 777 02f3 0C       		.uleb128 0xc
 778 02f4 723600   		.ascii	"r6\000"
 779 02f7 07       		.byte	0x7
 780 02f8 2101     		.2byte	0x121
 781 02fa 4E020000 		.4byte	0x24e
 782 02fe 08       		.byte	0x8
 783 02ff 0C       		.uleb128 0xc
 784 0300 723700   		.ascii	"r7\000"
 785 0303 07       		.byte	0x7
 786 0304 2201     		.2byte	0x122
 787 0306 4E020000 		.4byte	0x24e
 788 030a 0C       		.byte	0xc
 789 030b 0C       		.uleb128 0xc
 790 030c 723800   		.ascii	"r8\000"
ARM GAS  /tmp/ccbpZSYU.s 			page 15


 791 030f 07       		.byte	0x7
 792 0310 2301     		.2byte	0x123
 793 0312 4E020000 		.4byte	0x24e
 794 0316 10       		.byte	0x10
 795 0317 0C       		.uleb128 0xc
 796 0318 723900   		.ascii	"r9\000"
 797 031b 07       		.byte	0x7
 798 031c 2401     		.2byte	0x124
 799 031e 4E020000 		.4byte	0x24e
 800 0322 14       		.byte	0x14
 801 0323 0C       		.uleb128 0xc
 802 0324 72313000 		.ascii	"r10\000"
 803 0328 07       		.byte	0x7
 804 0329 2501     		.2byte	0x125
 805 032b 4E020000 		.4byte	0x24e
 806 032f 18       		.byte	0x18
 807 0330 0C       		.uleb128 0xc
 808 0331 72313100 		.ascii	"r11\000"
 809 0335 07       		.byte	0x7
 810 0336 2601     		.2byte	0x126
 811 0338 4E020000 		.4byte	0x24e
 812 033c 1C       		.byte	0x1c
 813 033d 0C       		.uleb128 0xc
 814 033e 6C7200   		.ascii	"lr\000"
 815 0341 07       		.byte	0x7
 816 0342 2701     		.2byte	0x127
 817 0344 4E020000 		.4byte	0x24e
 818 0348 20       		.byte	0x20
 819 0349 00       		.byte	0
 820 034a 0B       		.uleb128 0xb
 821 034b F5010000 		.4byte	.LASF50
 822 034f 04       		.byte	0x4
 823 0350 07       		.byte	0x7
 824 0351 3101     		.2byte	0x131
 825 0353 65030000 		.4byte	0x365
 826 0357 0C       		.uleb128 0xc
 827 0358 72313300 		.ascii	"r13\000"
 828 035c 07       		.byte	0x7
 829 035d 3201     		.2byte	0x132
 830 035f 65030000 		.4byte	0x365
 831 0363 00       		.byte	0
 832 0364 00       		.byte	0
 833 0365 09       		.uleb128 0x9
 834 0366 04       		.byte	0x4
 835 0367 CE020000 		.4byte	0x2ce
 836 036b 04       		.uleb128 0x4
 837 036c B1030000 		.4byte	.LASF51
 838 0370 08       		.byte	0x8
 839 0371 3A       		.byte	0x3a
 840 0372 76030000 		.4byte	0x376
 841 0376 0D       		.uleb128 0xd
 842 0377 AD000000 		.4byte	0xad
 843 037b 03       		.uleb128 0x3
 844 037c 04       		.byte	0x4
 845 037d 07       		.byte	0x7
 846 037e 9D020000 		.4byte	.LASF52
 847 0382 08       		.uleb128 0x8
ARM GAS  /tmp/ccbpZSYU.s 			page 16


 848 0383 8C       		.byte	0x8c
 849 0384 08       		.byte	0x8
 850 0385 89       		.byte	0x89
 851 0386 87040000 		.4byte	0x487
 852 038a 06       		.uleb128 0x6
 853 038b 69000000 		.4byte	.LASF53
 854 038f 08       		.byte	0x8
 855 0390 8A       		.byte	0x8a
 856 0391 6B030000 		.4byte	0x36b
 857 0395 00       		.byte	0
 858 0396 06       		.uleb128 0x6
 859 0397 10020000 		.4byte	.LASF54
 860 039b 08       		.byte	0x8
 861 039c 8B       		.byte	0x8b
 862 039d 6B030000 		.4byte	0x36b
 863 03a1 04       		.byte	0x4
 864 03a2 06       		.uleb128 0x6
 865 03a3 DA010000 		.4byte	.LASF55
 866 03a7 08       		.byte	0x8
 867 03a8 8C       		.byte	0x8c
 868 03a9 6B030000 		.4byte	0x36b
 869 03ad 08       		.byte	0x8
 870 03ae 06       		.uleb128 0x6
 871 03af 45020000 		.4byte	.LASF56
 872 03b3 08       		.byte	0x8
 873 03b4 8D       		.byte	0x8d
 874 03b5 6B030000 		.4byte	0x36b
 875 03b9 0C       		.byte	0xc
 876 03ba 07       		.uleb128 0x7
 877 03bb 53435200 		.ascii	"SCR\000"
 878 03bf 08       		.byte	0x8
 879 03c0 8E       		.byte	0x8e
 880 03c1 6B030000 		.4byte	0x36b
 881 03c5 10       		.byte	0x10
 882 03c6 07       		.uleb128 0x7
 883 03c7 43435200 		.ascii	"CCR\000"
 884 03cb 08       		.byte	0x8
 885 03cc 8F       		.byte	0x8f
 886 03cd 6B030000 		.4byte	0x36b
 887 03d1 14       		.byte	0x14
 888 03d2 06       		.uleb128 0x6
 889 03d3 F3030000 		.4byte	.LASF57
 890 03d7 08       		.byte	0x8
 891 03d8 90       		.byte	0x90
 892 03d9 97040000 		.4byte	0x497
 893 03dd 18       		.byte	0x18
 894 03de 06       		.uleb128 0x6
 895 03df 38030000 		.4byte	.LASF58
 896 03e3 08       		.byte	0x8
 897 03e4 91       		.byte	0x91
 898 03e5 6B030000 		.4byte	0x36b
 899 03e9 24       		.byte	0x24
 900 03ea 06       		.uleb128 0x6
 901 03eb B5020000 		.4byte	.LASF59
 902 03ef 08       		.byte	0x8
 903 03f0 92       		.byte	0x92
 904 03f1 6B030000 		.4byte	0x36b
ARM GAS  /tmp/ccbpZSYU.s 			page 17


 905 03f5 28       		.byte	0x28
 906 03f6 06       		.uleb128 0x6
 907 03f7 4C050000 		.4byte	.LASF60
 908 03fb 08       		.byte	0x8
 909 03fc 93       		.byte	0x93
 910 03fd 6B030000 		.4byte	0x36b
 911 0401 2C       		.byte	0x2c
 912 0402 06       		.uleb128 0x6
 913 0403 03030000 		.4byte	.LASF61
 914 0407 08       		.byte	0x8
 915 0408 94       		.byte	0x94
 916 0409 6B030000 		.4byte	0x36b
 917 040d 30       		.byte	0x30
 918 040e 06       		.uleb128 0x6
 919 040f 53020000 		.4byte	.LASF62
 920 0413 08       		.byte	0x8
 921 0414 95       		.byte	0x95
 922 0415 6B030000 		.4byte	0x36b
 923 0419 34       		.byte	0x34
 924 041a 06       		.uleb128 0x6
 925 041b 2E010000 		.4byte	.LASF63
 926 041f 08       		.byte	0x8
 927 0420 96       		.byte	0x96
 928 0421 6B030000 		.4byte	0x36b
 929 0425 38       		.byte	0x38
 930 0426 06       		.uleb128 0x6
 931 0427 9F030000 		.4byte	.LASF64
 932 042b 08       		.byte	0x8
 933 042c 97       		.byte	0x97
 934 042d 6B030000 		.4byte	0x36b
 935 0431 3C       		.byte	0x3c
 936 0432 07       		.uleb128 0x7
 937 0433 50465200 		.ascii	"PFR\000"
 938 0437 08       		.byte	0x8
 939 0438 98       		.byte	0x98
 940 0439 AC040000 		.4byte	0x4ac
 941 043d 40       		.byte	0x40
 942 043e 07       		.uleb128 0x7
 943 043f 44465200 		.ascii	"DFR\000"
 944 0443 08       		.byte	0x8
 945 0444 99       		.byte	0x99
 946 0445 6B030000 		.4byte	0x36b
 947 0449 48       		.byte	0x48
 948 044a 07       		.uleb128 0x7
 949 044b 41445200 		.ascii	"ADR\000"
 950 044f 08       		.byte	0x8
 951 0450 9A       		.byte	0x9a
 952 0451 6B030000 		.4byte	0x36b
 953 0455 4C       		.byte	0x4c
 954 0456 06       		.uleb128 0x6
 955 0457 28040000 		.4byte	.LASF65
 956 045b 08       		.byte	0x8
 957 045c 9B       		.byte	0x9b
 958 045d C1040000 		.4byte	0x4c1
 959 0461 50       		.byte	0x50
 960 0462 07       		.uleb128 0x7
 961 0463 53415200 		.ascii	"SAR\000"
ARM GAS  /tmp/ccbpZSYU.s 			page 18


 962 0467 08       		.byte	0x8
 963 0468 9C       		.byte	0x9c
 964 0469 D6040000 		.4byte	0x4d6
 965 046d 60       		.byte	0x60
 966 046e 06       		.uleb128 0x6
 967 046f A4030000 		.4byte	.LASF66
 968 0473 08       		.byte	0x8
 969 0474 9D       		.byte	0x9d
 970 0475 DB040000 		.4byte	0x4db
 971 0479 74       		.byte	0x74
 972 047a 06       		.uleb128 0x6
 973 047b 46050000 		.4byte	.LASF67
 974 047f 08       		.byte	0x8
 975 0480 9E       		.byte	0x9e
 976 0481 6B030000 		.4byte	0x36b
 977 0485 88       		.byte	0x88
 978 0486 00       		.byte	0
 979 0487 0E       		.uleb128 0xe
 980 0488 6B030000 		.4byte	0x36b
 981 048c 97040000 		.4byte	0x497
 982 0490 0F       		.uleb128 0xf
 983 0491 7B030000 		.4byte	0x37b
 984 0495 02       		.byte	0x2
 985 0496 00       		.byte	0
 986 0497 0D       		.uleb128 0xd
 987 0498 87040000 		.4byte	0x487
 988 049c 0E       		.uleb128 0xe
 989 049d 6B030000 		.4byte	0x36b
 990 04a1 AC040000 		.4byte	0x4ac
 991 04a5 0F       		.uleb128 0xf
 992 04a6 7B030000 		.4byte	0x37b
 993 04aa 01       		.byte	0x1
 994 04ab 00       		.byte	0
 995 04ac 0D       		.uleb128 0xd
 996 04ad 9C040000 		.4byte	0x49c
 997 04b1 0E       		.uleb128 0xe
 998 04b2 6B030000 		.4byte	0x36b
 999 04b6 C1040000 		.4byte	0x4c1
 1000 04ba 0F       		.uleb128 0xf
 1001 04bb 7B030000 		.4byte	0x37b
 1002 04bf 03       		.byte	0x3
 1003 04c0 00       		.byte	0
 1004 04c1 0D       		.uleb128 0xd
 1005 04c2 B1040000 		.4byte	0x4b1
 1006 04c6 0E       		.uleb128 0xe
 1007 04c7 6B030000 		.4byte	0x36b
 1008 04cb D6040000 		.4byte	0x4d6
 1009 04cf 0F       		.uleb128 0xf
 1010 04d0 7B030000 		.4byte	0x37b
 1011 04d4 04       		.byte	0x4
 1012 04d5 00       		.byte	0
 1013 04d6 0D       		.uleb128 0xd
 1014 04d7 C6040000 		.4byte	0x4c6
 1015 04db 0D       		.uleb128 0xd
 1016 04dc C6040000 		.4byte	0x4c6
 1017 04e0 04       		.uleb128 0x4
 1018 04e1 20000000 		.4byte	.LASF68
ARM GAS  /tmp/ccbpZSYU.s 			page 19


 1019 04e5 08       		.byte	0x8
 1020 04e6 9F       		.byte	0x9f
 1021 04e7 82030000 		.4byte	0x382
 1022 04eb 0D       		.uleb128 0xd
 1023 04ec 01010000 		.4byte	0x101
 1024 04f0 08       		.uleb128 0x8
 1025 04f1 1C       		.byte	0x1c
 1026 04f2 09       		.byte	0x9
 1027 04f3 5E       		.byte	0x5e
 1028 04f4 41050000 		.4byte	0x541
 1029 04f8 06       		.uleb128 0x6
 1030 04f9 97030000 		.4byte	.LASF69
 1031 04fd 09       		.byte	0x9
 1032 04fe 5F       		.byte	0x5f
 1033 04ff 23020000 		.4byte	0x223
 1034 0503 00       		.byte	0
 1035 0504 06       		.uleb128 0x6
 1036 0505 5F030000 		.4byte	.LASF70
 1037 0509 09       		.byte	0x9
 1038 050a 60       		.byte	0x60
 1039 050b E0000000 		.4byte	0xe0
 1040 050f 08       		.byte	0x8
 1041 0510 06       		.uleb128 0x6
 1042 0511 C2020000 		.4byte	.LASF71
 1043 0515 09       		.byte	0x9
 1044 0516 62       		.byte	0x62
 1045 0517 4A030000 		.4byte	0x34a
 1046 051b 0C       		.byte	0xc
 1047 051c 06       		.uleb128 0x6
 1048 051d 4B020000 		.4byte	.LASF72
 1049 0521 09       		.byte	0x9
 1050 0522 65       		.byte	0x65
 1051 0523 1D020000 		.4byte	0x21d
 1052 0527 10       		.byte	0x10
 1053 0528 06       		.uleb128 0x6
 1054 0529 DF020000 		.4byte	.LASF73
 1055 052d 09       		.byte	0x9
 1056 052e 66       		.byte	0x66
 1057 052f 1D020000 		.4byte	0x21d
 1058 0533 14       		.byte	0x14
 1059 0534 06       		.uleb128 0x6
 1060 0535 D5020000 		.4byte	.LASF74
 1061 0539 09       		.byte	0x9
 1062 053a 69       		.byte	0x69
 1063 053b 1D020000 		.4byte	0x21d
 1064 053f 18       		.byte	0x18
 1065 0540 00       		.byte	0
 1066 0541 04       		.uleb128 0x4
 1067 0542 1E040000 		.4byte	.LASF75
 1068 0546 09       		.byte	0x9
 1069 0547 6B       		.byte	0x6b
 1070 0548 F0040000 		.4byte	0x4f0
 1071 054c 05       		.uleb128 0x5
 1072 054d 8C020000 		.4byte	.LASF76
 1073 0551 10       		.byte	0x10
 1074 0552 0A       		.byte	0xa
 1075 0553 2C       		.byte	0x2c
ARM GAS  /tmp/ccbpZSYU.s 			page 20


 1076 0554 7D050000 		.4byte	0x57d
 1077 0558 06       		.uleb128 0x6
 1078 0559 AA000000 		.4byte	.LASF77
 1079 055d 0A       		.byte	0xa
 1080 055e 2D       		.byte	0x2d
 1081 055f 23020000 		.4byte	0x223
 1082 0563 00       		.byte	0
 1083 0564 06       		.uleb128 0x6
 1084 0565 51050000 		.4byte	.LASF78
 1085 0569 0A       		.byte	0xa
 1086 056a 2F       		.byte	0x2f
 1087 056b 1D020000 		.4byte	0x21d
 1088 056f 08       		.byte	0x8
 1089 0570 06       		.uleb128 0x6
 1090 0571 B9030000 		.4byte	.LASF79
 1091 0575 0A       		.byte	0xa
 1092 0576 31       		.byte	0x31
 1093 0577 7D050000 		.4byte	0x57d
 1094 057b 0C       		.byte	0xc
 1095 057c 00       		.byte	0
 1096 057d 09       		.uleb128 0x9
 1097 057e 04       		.byte	0x4
 1098 057f 4C050000 		.4byte	0x54c
 1099 0583 04       		.uleb128 0x4
 1100 0584 8C020000 		.4byte	.LASF76
 1101 0588 0A       		.byte	0xa
 1102 0589 33       		.byte	0x33
 1103 058a 4C050000 		.4byte	0x54c
 1104 058e 10       		.uleb128 0x10
 1105 058f 04       		.byte	0x4
 1106 0590 06       		.byte	0x6
 1107 0591 96       		.byte	0x96
 1108 0592 C3050000 		.4byte	0x5c3
 1109 0596 11       		.uleb128 0x11
 1110 0597 06000000 		.4byte	.LASF80
 1111 059b 06       		.byte	0x6
 1112 059c 9D       		.byte	0x9d
 1113 059d EB000000 		.4byte	0xeb
 1114 05a1 11       		.uleb128 0x11
 1115 05a2 60000000 		.4byte	.LASF81
 1116 05a6 06       		.byte	0x6
 1117 05a7 A4       		.byte	0xa4
 1118 05a8 EB000000 		.4byte	0xeb
 1119 05ac 11       		.uleb128 0x11
 1120 05ad 53040000 		.4byte	.LASF82
 1121 05b1 06       		.byte	0x6
 1122 05b2 AB       		.byte	0xab
 1123 05b3 59020000 		.4byte	0x259
 1124 05b7 11       		.uleb128 0x11
 1125 05b8 66030000 		.4byte	.LASF83
 1126 05bc 06       		.byte	0x6
 1127 05bd B2       		.byte	0xb2
 1128 05be F6000000 		.4byte	0xf6
 1129 05c2 00       		.byte	0
 1130 05c3 09       		.uleb128 0x9
 1131 05c4 04       		.byte	0x4
 1132 05c5 C9050000 		.4byte	0x5c9
ARM GAS  /tmp/ccbpZSYU.s 			page 21


 1133 05c9 12       		.uleb128 0x12
 1134 05ca CE050000 		.4byte	0x5ce
 1135 05ce 03       		.uleb128 0x3
 1136 05cf 01       		.byte	0x1
 1137 05d0 08       		.byte	0x8
 1138 05d1 AC030000 		.4byte	.LASF84
 1139 05d5 09       		.uleb128 0x9
 1140 05d6 04       		.byte	0x4
 1141 05d7 5B020000 		.4byte	0x25b
 1142 05db 09       		.uleb128 0x9
 1143 05dc 04       		.byte	0x4
 1144 05dd 83050000 		.4byte	0x583
 1145 05e1 13       		.uleb128 0x13
 1146 05e2 DF010000 		.4byte	.LASF85
 1147 05e6 01       		.byte	0x1
 1148 05e7 C8       		.byte	0xc8
 1149 05e8 00000000 		.4byte	.LFB6
 1150 05ec 0E000000 		.4byte	.LFE6-.LFB6
 1151 05f0 01       		.uleb128 0x1
 1152 05f1 9C       		.byte	0x9c
 1153 05f2 12060000 		.4byte	0x612
 1154 05f6 14       		.uleb128 0x14
 1155 05f7 04000000 		.4byte	.LVL0
 1156 05fb B4070000 		.4byte	0x7b4
 1157 05ff 14       		.uleb128 0x14
 1158 0600 08000000 		.4byte	.LVL1
 1159 0604 BB070000 		.4byte	0x7bb
 1160 0608 14       		.uleb128 0x14
 1161 0609 0C000000 		.4byte	.LVL2
 1162 060d C2070000 		.4byte	0x7c2
 1163 0611 00       		.byte	0
 1164 0612 13       		.uleb128 0x13
 1165 0613 BB000000 		.4byte	.LASF86
 1166 0617 01       		.byte	0x1
 1167 0618 41       		.byte	0x41
 1168 0619 00000000 		.4byte	.LFB1
 1169 061d 14000000 		.4byte	.LFE1-.LFB1
 1170 0621 01       		.uleb128 0x1
 1171 0622 9C       		.byte	0x9c
 1172 0623 37060000 		.4byte	0x637
 1173 0627 15       		.uleb128 0x15
 1174 0628 08030000 		.4byte	.LASF89
 1175 062c 01       		.byte	0x1
 1176 062d 42       		.byte	0x42
 1177 062e 37060000 		.4byte	0x637
 1178 0632 00000000 		.4byte	.LLST0
 1179 0636 00       		.byte	0
 1180 0637 09       		.uleb128 0x9
 1181 0638 04       		.byte	0x4
 1182 0639 66020000 		.4byte	0x266
 1183 063d 13       		.uleb128 0x13
 1184 063e 5A040000 		.4byte	.LASF87
 1185 0642 01       		.byte	0x1
 1186 0643 78       		.byte	0x78
 1187 0644 00000000 		.4byte	.LFB2
 1188 0648 30000000 		.4byte	.LFE2-.LFB2
 1189 064c 01       		.uleb128 0x1
ARM GAS  /tmp/ccbpZSYU.s 			page 22


 1190 064d 9C       		.byte	0x9c
 1191 064e 99060000 		.4byte	0x699
 1192 0652 16       		.uleb128 0x16
 1193 0653 14000000 		.4byte	.LVL6
 1194 0657 C9070000 		.4byte	0x7c9
 1195 065b 6A060000 		.4byte	0x66a
 1196 065f 17       		.uleb128 0x17
 1197 0660 01       		.uleb128 0x1
 1198 0661 51       		.byte	0x51
 1199 0662 01       		.uleb128 0x1
 1200 0663 40       		.byte	0x40
 1201 0664 17       		.uleb128 0x17
 1202 0665 01       		.uleb128 0x1
 1203 0666 50       		.byte	0x50
 1204 0667 01       		.uleb128 0x1
 1205 0668 37       		.byte	0x37
 1206 0669 00       		.byte	0
 1207 066a 16       		.uleb128 0x16
 1208 066b 1C000000 		.4byte	.LVL7
 1209 066f C9070000 		.4byte	0x7c9
 1210 0673 83060000 		.4byte	0x683
 1211 0677 17       		.uleb128 0x17
 1212 0678 01       		.uleb128 0x1
 1213 0679 51       		.byte	0x51
 1214 067a 02       		.uleb128 0x2
 1215 067b 08       		.byte	0x8
 1216 067c 20       		.byte	0x20
 1217 067d 17       		.uleb128 0x17
 1218 067e 01       		.uleb128 0x1
 1219 067f 50       		.byte	0x50
 1220 0680 01       		.uleb128 0x1
 1221 0681 3A       		.byte	0x3a
 1222 0682 00       		.byte	0
 1223 0683 18       		.uleb128 0x18
 1224 0684 28000000 		.4byte	.LVL8
 1225 0688 C9070000 		.4byte	0x7c9
 1226 068c 17       		.uleb128 0x17
 1227 068d 01       		.uleb128 0x1
 1228 068e 51       		.byte	0x51
 1229 068f 02       		.uleb128 0x2
 1230 0690 08       		.byte	0x8
 1231 0691 80       		.byte	0x80
 1232 0692 17       		.uleb128 0x17
 1233 0693 01       		.uleb128 0x1
 1234 0694 50       		.byte	0x50
 1235 0695 01       		.uleb128 0x1
 1236 0696 3B       		.byte	0x3b
 1237 0697 00       		.byte	0
 1238 0698 00       		.byte	0
 1239 0699 13       		.uleb128 0x13
 1240 069a 76010000 		.4byte	.LASF88
 1241 069e 01       		.byte	0x1
 1242 069f 88       		.byte	0x88
 1243 06a0 00000000 		.4byte	.LFB3
 1244 06a4 08000000 		.4byte	.LFE3-.LFB3
 1245 06a8 01       		.uleb128 0x1
 1246 06a9 9C       		.byte	0x9c
ARM GAS  /tmp/ccbpZSYU.s 			page 23


 1247 06aa BC060000 		.4byte	0x6bc
 1248 06ae 19       		.uleb128 0x19
 1249 06af 746D7000 		.ascii	"tmp\000"
 1250 06b3 01       		.byte	0x1
 1251 06b4 89       		.byte	0x89
 1252 06b5 AD000000 		.4byte	0xad
 1253 06b9 01       		.uleb128 0x1
 1254 06ba 53       		.byte	0x53
 1255 06bb 00       		.byte	0
 1256 06bc 13       		.uleb128 0x13
 1257 06bd DF030000 		.4byte	.LASF90
 1258 06c1 01       		.byte	0x1
 1259 06c2 8D       		.byte	0x8d
 1260 06c3 00000000 		.4byte	.LFB4
 1261 06c7 08000000 		.4byte	.LFE4-.LFB4
 1262 06cb 01       		.uleb128 0x1
 1263 06cc 9C       		.byte	0x9c
 1264 06cd DF060000 		.4byte	0x6df
 1265 06d1 19       		.uleb128 0x19
 1266 06d2 746D7000 		.ascii	"tmp\000"
 1267 06d6 01       		.byte	0x1
 1268 06d7 8E       		.byte	0x8e
 1269 06d8 AD000000 		.4byte	0xad
 1270 06dc 01       		.uleb128 0x1
 1271 06dd 53       		.byte	0x53
 1272 06de 00       		.byte	0
 1273 06df 13       		.uleb128 0x13
 1274 06e0 59020000 		.4byte	.LASF91
 1275 06e4 01       		.byte	0x1
 1276 06e5 96       		.byte	0x96
 1277 06e6 00000000 		.4byte	.LFB5
 1278 06ea 54000000 		.4byte	.LFE5-.LFB5
 1279 06ee 01       		.uleb128 0x1
 1280 06ef 9C       		.byte	0x9c
 1281 06f0 0E070000 		.4byte	0x70e
 1282 06f4 1A       		.uleb128 0x1a
 1283 06f5 0E000000 		.4byte	.LBB2
 1284 06f9 2E000000 		.4byte	.LBE2-.LBB2
 1285 06fd 15       		.uleb128 0x15
 1286 06fe 08030000 		.4byte	.LASF89
 1287 0702 01       		.byte	0x1
 1288 0703 9A       		.byte	0x9a
 1289 0704 37060000 		.4byte	0x637
 1290 0708 20000000 		.4byte	.LLST1
 1291 070c 00       		.byte	0
 1292 070d 00       		.byte	0
 1293 070e 13       		.uleb128 0x13
 1294 070f 3B000000 		.4byte	.LASF92
 1295 0713 01       		.byte	0x1
 1296 0714 2F       		.byte	0x2f
 1297 0715 00000000 		.4byte	.LFB0
 1298 0719 26000000 		.4byte	.LFE0-.LFB0
 1299 071d 01       		.uleb128 0x1
 1300 071e 9C       		.byte	0x9c
 1301 071f 5A070000 		.4byte	0x75a
 1302 0723 14       		.uleb128 0x14
 1303 0724 06000000 		.4byte	.LVL13
ARM GAS  /tmp/ccbpZSYU.s 			page 24


 1304 0728 E0070000 		.4byte	0x7e0
 1305 072c 14       		.uleb128 0x14
 1306 072d 0E000000 		.4byte	.LVL14
 1307 0731 E7070000 		.4byte	0x7e7
 1308 0735 14       		.uleb128 0x14
 1309 0736 12000000 		.4byte	.LVL15
 1310 073a EE070000 		.4byte	0x7ee
 1311 073e 14       		.uleb128 0x14
 1312 073f 16000000 		.4byte	.LVL16
 1313 0743 F5070000 		.4byte	0x7f5
 1314 0747 14       		.uleb128 0x14
 1315 0748 1E000000 		.4byte	.LVL17
 1316 074c FC070000 		.4byte	0x7fc
 1317 0750 1B       		.uleb128 0x1b
 1318 0751 26000000 		.4byte	.LVL18
 1319 0755 DF060000 		.4byte	0x6df
 1320 0759 00       		.byte	0
 1321 075a 13       		.uleb128 0x13
 1322 075b BB010000 		.4byte	.LASF93
 1323 075f 01       		.byte	0x1
 1324 0760 E5       		.byte	0xe5
 1325 0761 00000000 		.4byte	.LFB7
 1326 0765 10000000 		.4byte	.LFE7-.LFB7
 1327 0769 01       		.uleb128 0x1
 1328 076a 9C       		.byte	0x9c
 1329 076b 8A070000 		.4byte	0x78a
 1330 076f 1C       		.uleb128 0x1c
 1331 0770 6E747000 		.ascii	"ntp\000"
 1332 0774 01       		.byte	0x1
 1333 0775 E5       		.byte	0xe5
 1334 0776 1D020000 		.4byte	0x21d
 1335 077a 01       		.uleb128 0x1
 1336 077b 50       		.byte	0x50
 1337 077c 1C       		.uleb128 0x1c
 1338 077d 6F747000 		.ascii	"otp\000"
 1339 0781 01       		.byte	0x1
 1340 0782 E5       		.byte	0xe5
 1341 0783 1D020000 		.4byte	0x21d
 1342 0787 01       		.uleb128 0x1
 1343 0788 51       		.byte	0x51
 1344 0789 00       		.byte	0
 1345 078a 13       		.uleb128 0x13
 1346 078b D1000000 		.4byte	.LASF94
 1347 078f 01       		.byte	0x1
 1348 0790 FC       		.byte	0xfc
 1349 0791 00000000 		.4byte	.LFB8
 1350 0795 14000000 		.4byte	.LFE8-.LFB8
 1351 0799 01       		.uleb128 0x1
 1352 079a 9C       		.byte	0x9c
 1353 079b A9070000 		.4byte	0x7a9
 1354 079f 14       		.uleb128 0x14
 1355 07a0 06000000 		.4byte	.LVL20
 1356 07a4 C2070000 		.4byte	0x7c2
 1357 07a8 00       		.byte	0
 1358 07a9 1D       		.uleb128 0x1d
 1359 07aa 2D040000 		.4byte	.LASF106
 1360 07ae 09       		.byte	0x9
ARM GAS  /tmp/ccbpZSYU.s 			page 25


 1361 07af 6F       		.byte	0x6f
 1362 07b0 41050000 		.4byte	0x541
 1363 07b4 1E       		.uleb128 0x1e
 1364 07b5 A6020000 		.4byte	.LASF95
 1365 07b9 0B       		.byte	0xb
 1366 07ba E7       		.byte	0xe7
 1367 07bb 1E       		.uleb128 0x1e
 1368 07bc 64010000 		.4byte	.LASF96
 1369 07c0 09       		.byte	0x9
 1370 07c1 A8       		.byte	0xa8
 1371 07c2 1E       		.uleb128 0x1e
 1372 07c3 E7020000 		.4byte	.LASF97
 1373 07c7 0B       		.byte	0xb
 1374 07c8 E8       		.byte	0xe8
 1375 07c9 1F       		.uleb128 0x1f
 1376 07ca 3E010000 		.4byte	.LASF107
 1377 07ce 08       		.byte	0x8
 1378 07cf 2501     		.2byte	0x125
 1379 07d1 E0070000 		.4byte	0x7e0
 1380 07d5 20       		.uleb128 0x20
 1381 07d6 AD000000 		.4byte	0xad
 1382 07da 20       		.uleb128 0x20
 1383 07db AD000000 		.4byte	0xad
 1384 07df 00       		.byte	0
 1385 07e0 1E       		.uleb128 0x1e
 1386 07e1 81010000 		.4byte	.LASF98
 1387 07e5 0B       		.byte	0xb
 1388 07e6 EB       		.byte	0xeb
 1389 07e7 1E       		.uleb128 0x1e
 1390 07e8 3B040000 		.4byte	.LASF99
 1391 07ec 0B       		.byte	0xb
 1392 07ed E9       		.byte	0xe9
 1393 07ee 1E       		.uleb128 0x1e
 1394 07ef 28000000 		.4byte	.LASF100
 1395 07f3 0C       		.byte	0xc
 1396 07f4 F7       		.byte	0xf7
 1397 07f5 1E       		.uleb128 0x1e
 1398 07f6 90000000 		.4byte	.LASF101
 1399 07fa 0B       		.byte	0xb
 1400 07fb EA       		.byte	0xea
 1401 07fc 1E       		.uleb128 0x1e
 1402 07fd F8030000 		.4byte	.LASF102
 1403 0801 0B       		.byte	0xb
 1404 0802 EC       		.byte	0xec
 1405 0803 00       		.byte	0
 1406              		.section	.debug_abbrev,"",%progbits
 1407              	.Ldebug_abbrev0:
 1408 0000 01       		.uleb128 0x1
 1409 0001 11       		.uleb128 0x11
 1410 0002 01       		.byte	0x1
 1411 0003 25       		.uleb128 0x25
 1412 0004 0E       		.uleb128 0xe
 1413 0005 13       		.uleb128 0x13
 1414 0006 0B       		.uleb128 0xb
 1415 0007 03       		.uleb128 0x3
 1416 0008 0E       		.uleb128 0xe
 1417 0009 1B       		.uleb128 0x1b
ARM GAS  /tmp/ccbpZSYU.s 			page 26


 1418 000a 0E       		.uleb128 0xe
 1419 000b 55       		.uleb128 0x55
 1420 000c 17       		.uleb128 0x17
 1421 000d 11       		.uleb128 0x11
 1422 000e 01       		.uleb128 0x1
 1423 000f 10       		.uleb128 0x10
 1424 0010 17       		.uleb128 0x17
 1425 0011 00       		.byte	0
 1426 0012 00       		.byte	0
 1427 0013 02       		.uleb128 0x2
 1428 0014 24       		.uleb128 0x24
 1429 0015 00       		.byte	0
 1430 0016 0B       		.uleb128 0xb
 1431 0017 0B       		.uleb128 0xb
 1432 0018 3E       		.uleb128 0x3e
 1433 0019 0B       		.uleb128 0xb
 1434 001a 03       		.uleb128 0x3
 1435 001b 08       		.uleb128 0x8
 1436 001c 00       		.byte	0
 1437 001d 00       		.byte	0
 1438 001e 03       		.uleb128 0x3
 1439 001f 24       		.uleb128 0x24
 1440 0020 00       		.byte	0
 1441 0021 0B       		.uleb128 0xb
 1442 0022 0B       		.uleb128 0xb
 1443 0023 3E       		.uleb128 0x3e
 1444 0024 0B       		.uleb128 0xb
 1445 0025 03       		.uleb128 0x3
 1446 0026 0E       		.uleb128 0xe
 1447 0027 00       		.byte	0
 1448 0028 00       		.byte	0
 1449 0029 04       		.uleb128 0x4
 1450 002a 16       		.uleb128 0x16
 1451 002b 00       		.byte	0
 1452 002c 03       		.uleb128 0x3
 1453 002d 0E       		.uleb128 0xe
 1454 002e 3A       		.uleb128 0x3a
 1455 002f 0B       		.uleb128 0xb
 1456 0030 3B       		.uleb128 0x3b
 1457 0031 0B       		.uleb128 0xb
 1458 0032 49       		.uleb128 0x49
 1459 0033 13       		.uleb128 0x13
 1460 0034 00       		.byte	0
 1461 0035 00       		.byte	0
 1462 0036 05       		.uleb128 0x5
 1463 0037 13       		.uleb128 0x13
 1464 0038 01       		.byte	0x1
 1465 0039 03       		.uleb128 0x3
 1466 003a 0E       		.uleb128 0xe
 1467 003b 0B       		.uleb128 0xb
 1468 003c 0B       		.uleb128 0xb
 1469 003d 3A       		.uleb128 0x3a
 1470 003e 0B       		.uleb128 0xb
 1471 003f 3B       		.uleb128 0x3b
 1472 0040 0B       		.uleb128 0xb
 1473 0041 01       		.uleb128 0x1
 1474 0042 13       		.uleb128 0x13
ARM GAS  /tmp/ccbpZSYU.s 			page 27


 1475 0043 00       		.byte	0
 1476 0044 00       		.byte	0
 1477 0045 06       		.uleb128 0x6
 1478 0046 0D       		.uleb128 0xd
 1479 0047 00       		.byte	0
 1480 0048 03       		.uleb128 0x3
 1481 0049 0E       		.uleb128 0xe
 1482 004a 3A       		.uleb128 0x3a
 1483 004b 0B       		.uleb128 0xb
 1484 004c 3B       		.uleb128 0x3b
 1485 004d 0B       		.uleb128 0xb
 1486 004e 49       		.uleb128 0x49
 1487 004f 13       		.uleb128 0x13
 1488 0050 38       		.uleb128 0x38
 1489 0051 0B       		.uleb128 0xb
 1490 0052 00       		.byte	0
 1491 0053 00       		.byte	0
 1492 0054 07       		.uleb128 0x7
 1493 0055 0D       		.uleb128 0xd
 1494 0056 00       		.byte	0
 1495 0057 03       		.uleb128 0x3
 1496 0058 08       		.uleb128 0x8
 1497 0059 3A       		.uleb128 0x3a
 1498 005a 0B       		.uleb128 0xb
 1499 005b 3B       		.uleb128 0x3b
 1500 005c 0B       		.uleb128 0xb
 1501 005d 49       		.uleb128 0x49
 1502 005e 13       		.uleb128 0x13
 1503 005f 38       		.uleb128 0x38
 1504 0060 0B       		.uleb128 0xb
 1505 0061 00       		.byte	0
 1506 0062 00       		.byte	0
 1507 0063 08       		.uleb128 0x8
 1508 0064 13       		.uleb128 0x13
 1509 0065 01       		.byte	0x1
 1510 0066 0B       		.uleb128 0xb
 1511 0067 0B       		.uleb128 0xb
 1512 0068 3A       		.uleb128 0x3a
 1513 0069 0B       		.uleb128 0xb
 1514 006a 3B       		.uleb128 0x3b
 1515 006b 0B       		.uleb128 0xb
 1516 006c 01       		.uleb128 0x1
 1517 006d 13       		.uleb128 0x13
 1518 006e 00       		.byte	0
 1519 006f 00       		.byte	0
 1520 0070 09       		.uleb128 0x9
 1521 0071 0F       		.uleb128 0xf
 1522 0072 00       		.byte	0
 1523 0073 0B       		.uleb128 0xb
 1524 0074 0B       		.uleb128 0xb
 1525 0075 49       		.uleb128 0x49
 1526 0076 13       		.uleb128 0x13
 1527 0077 00       		.byte	0
 1528 0078 00       		.byte	0
 1529 0079 0A       		.uleb128 0xa
 1530 007a 0F       		.uleb128 0xf
 1531 007b 00       		.byte	0
ARM GAS  /tmp/ccbpZSYU.s 			page 28


 1532 007c 0B       		.uleb128 0xb
 1533 007d 0B       		.uleb128 0xb
 1534 007e 00       		.byte	0
 1535 007f 00       		.byte	0
 1536 0080 0B       		.uleb128 0xb
 1537 0081 13       		.uleb128 0x13
 1538 0082 01       		.byte	0x1
 1539 0083 03       		.uleb128 0x3
 1540 0084 0E       		.uleb128 0xe
 1541 0085 0B       		.uleb128 0xb
 1542 0086 0B       		.uleb128 0xb
 1543 0087 3A       		.uleb128 0x3a
 1544 0088 0B       		.uleb128 0xb
 1545 0089 3B       		.uleb128 0x3b
 1546 008a 05       		.uleb128 0x5
 1547 008b 01       		.uleb128 0x1
 1548 008c 13       		.uleb128 0x13
 1549 008d 00       		.byte	0
 1550 008e 00       		.byte	0
 1551 008f 0C       		.uleb128 0xc
 1552 0090 0D       		.uleb128 0xd
 1553 0091 00       		.byte	0
 1554 0092 03       		.uleb128 0x3
 1555 0093 08       		.uleb128 0x8
 1556 0094 3A       		.uleb128 0x3a
 1557 0095 0B       		.uleb128 0xb
 1558 0096 3B       		.uleb128 0x3b
 1559 0097 05       		.uleb128 0x5
 1560 0098 49       		.uleb128 0x49
 1561 0099 13       		.uleb128 0x13
 1562 009a 38       		.uleb128 0x38
 1563 009b 0B       		.uleb128 0xb
 1564 009c 00       		.byte	0
 1565 009d 00       		.byte	0
 1566 009e 0D       		.uleb128 0xd
 1567 009f 35       		.uleb128 0x35
 1568 00a0 00       		.byte	0
 1569 00a1 49       		.uleb128 0x49
 1570 00a2 13       		.uleb128 0x13
 1571 00a3 00       		.byte	0
 1572 00a4 00       		.byte	0
 1573 00a5 0E       		.uleb128 0xe
 1574 00a6 01       		.uleb128 0x1
 1575 00a7 01       		.byte	0x1
 1576 00a8 49       		.uleb128 0x49
 1577 00a9 13       		.uleb128 0x13
 1578 00aa 01       		.uleb128 0x1
 1579 00ab 13       		.uleb128 0x13
 1580 00ac 00       		.byte	0
 1581 00ad 00       		.byte	0
 1582 00ae 0F       		.uleb128 0xf
 1583 00af 21       		.uleb128 0x21
 1584 00b0 00       		.byte	0
 1585 00b1 49       		.uleb128 0x49
 1586 00b2 13       		.uleb128 0x13
 1587 00b3 2F       		.uleb128 0x2f
 1588 00b4 0B       		.uleb128 0xb
ARM GAS  /tmp/ccbpZSYU.s 			page 29


 1589 00b5 00       		.byte	0
 1590 00b6 00       		.byte	0
 1591 00b7 10       		.uleb128 0x10
 1592 00b8 17       		.uleb128 0x17
 1593 00b9 01       		.byte	0x1
 1594 00ba 0B       		.uleb128 0xb
 1595 00bb 0B       		.uleb128 0xb
 1596 00bc 3A       		.uleb128 0x3a
 1597 00bd 0B       		.uleb128 0xb
 1598 00be 3B       		.uleb128 0x3b
 1599 00bf 0B       		.uleb128 0xb
 1600 00c0 01       		.uleb128 0x1
 1601 00c1 13       		.uleb128 0x13
 1602 00c2 00       		.byte	0
 1603 00c3 00       		.byte	0
 1604 00c4 11       		.uleb128 0x11
 1605 00c5 0D       		.uleb128 0xd
 1606 00c6 00       		.byte	0
 1607 00c7 03       		.uleb128 0x3
 1608 00c8 0E       		.uleb128 0xe
 1609 00c9 3A       		.uleb128 0x3a
 1610 00ca 0B       		.uleb128 0xb
 1611 00cb 3B       		.uleb128 0x3b
 1612 00cc 0B       		.uleb128 0xb
 1613 00cd 49       		.uleb128 0x49
 1614 00ce 13       		.uleb128 0x13
 1615 00cf 00       		.byte	0
 1616 00d0 00       		.byte	0
 1617 00d1 12       		.uleb128 0x12
 1618 00d2 26       		.uleb128 0x26
 1619 00d3 00       		.byte	0
 1620 00d4 49       		.uleb128 0x49
 1621 00d5 13       		.uleb128 0x13
 1622 00d6 00       		.byte	0
 1623 00d7 00       		.byte	0
 1624 00d8 13       		.uleb128 0x13
 1625 00d9 2E       		.uleb128 0x2e
 1626 00da 01       		.byte	0x1
 1627 00db 3F       		.uleb128 0x3f
 1628 00dc 19       		.uleb128 0x19
 1629 00dd 03       		.uleb128 0x3
 1630 00de 0E       		.uleb128 0xe
 1631 00df 3A       		.uleb128 0x3a
 1632 00e0 0B       		.uleb128 0xb
 1633 00e1 3B       		.uleb128 0x3b
 1634 00e2 0B       		.uleb128 0xb
 1635 00e3 27       		.uleb128 0x27
 1636 00e4 19       		.uleb128 0x19
 1637 00e5 11       		.uleb128 0x11
 1638 00e6 01       		.uleb128 0x1
 1639 00e7 12       		.uleb128 0x12
 1640 00e8 06       		.uleb128 0x6
 1641 00e9 40       		.uleb128 0x40
 1642 00ea 18       		.uleb128 0x18
 1643 00eb 9742     		.uleb128 0x2117
 1644 00ed 19       		.uleb128 0x19
 1645 00ee 01       		.uleb128 0x1
ARM GAS  /tmp/ccbpZSYU.s 			page 30


 1646 00ef 13       		.uleb128 0x13
 1647 00f0 00       		.byte	0
 1648 00f1 00       		.byte	0
 1649 00f2 14       		.uleb128 0x14
 1650 00f3 898201   		.uleb128 0x4109
 1651 00f6 00       		.byte	0
 1652 00f7 11       		.uleb128 0x11
 1653 00f8 01       		.uleb128 0x1
 1654 00f9 31       		.uleb128 0x31
 1655 00fa 13       		.uleb128 0x13
 1656 00fb 00       		.byte	0
 1657 00fc 00       		.byte	0
 1658 00fd 15       		.uleb128 0x15
 1659 00fe 34       		.uleb128 0x34
 1660 00ff 00       		.byte	0
 1661 0100 03       		.uleb128 0x3
 1662 0101 0E       		.uleb128 0xe
 1663 0102 3A       		.uleb128 0x3a
 1664 0103 0B       		.uleb128 0xb
 1665 0104 3B       		.uleb128 0x3b
 1666 0105 0B       		.uleb128 0xb
 1667 0106 49       		.uleb128 0x49
 1668 0107 13       		.uleb128 0x13
 1669 0108 02       		.uleb128 0x2
 1670 0109 17       		.uleb128 0x17
 1671 010a 00       		.byte	0
 1672 010b 00       		.byte	0
 1673 010c 16       		.uleb128 0x16
 1674 010d 898201   		.uleb128 0x4109
 1675 0110 01       		.byte	0x1
 1676 0111 11       		.uleb128 0x11
 1677 0112 01       		.uleb128 0x1
 1678 0113 31       		.uleb128 0x31
 1679 0114 13       		.uleb128 0x13
 1680 0115 01       		.uleb128 0x1
 1681 0116 13       		.uleb128 0x13
 1682 0117 00       		.byte	0
 1683 0118 00       		.byte	0
 1684 0119 17       		.uleb128 0x17
 1685 011a 8A8201   		.uleb128 0x410a
 1686 011d 00       		.byte	0
 1687 011e 02       		.uleb128 0x2
 1688 011f 18       		.uleb128 0x18
 1689 0120 9142     		.uleb128 0x2111
 1690 0122 18       		.uleb128 0x18
 1691 0123 00       		.byte	0
 1692 0124 00       		.byte	0
 1693 0125 18       		.uleb128 0x18
 1694 0126 898201   		.uleb128 0x4109
 1695 0129 01       		.byte	0x1
 1696 012a 11       		.uleb128 0x11
 1697 012b 01       		.uleb128 0x1
 1698 012c 9542     		.uleb128 0x2115
 1699 012e 19       		.uleb128 0x19
 1700 012f 31       		.uleb128 0x31
 1701 0130 13       		.uleb128 0x13
 1702 0131 00       		.byte	0
ARM GAS  /tmp/ccbpZSYU.s 			page 31


 1703 0132 00       		.byte	0
 1704 0133 19       		.uleb128 0x19
 1705 0134 34       		.uleb128 0x34
 1706 0135 00       		.byte	0
 1707 0136 03       		.uleb128 0x3
 1708 0137 08       		.uleb128 0x8
 1709 0138 3A       		.uleb128 0x3a
 1710 0139 0B       		.uleb128 0xb
 1711 013a 3B       		.uleb128 0x3b
 1712 013b 0B       		.uleb128 0xb
 1713 013c 49       		.uleb128 0x49
 1714 013d 13       		.uleb128 0x13
 1715 013e 02       		.uleb128 0x2
 1716 013f 18       		.uleb128 0x18
 1717 0140 00       		.byte	0
 1718 0141 00       		.byte	0
 1719 0142 1A       		.uleb128 0x1a
 1720 0143 0B       		.uleb128 0xb
 1721 0144 01       		.byte	0x1
 1722 0145 11       		.uleb128 0x11
 1723 0146 01       		.uleb128 0x1
 1724 0147 12       		.uleb128 0x12
 1725 0148 06       		.uleb128 0x6
 1726 0149 00       		.byte	0
 1727 014a 00       		.byte	0
 1728 014b 1B       		.uleb128 0x1b
 1729 014c 898201   		.uleb128 0x4109
 1730 014f 00       		.byte	0
 1731 0150 11       		.uleb128 0x11
 1732 0151 01       		.uleb128 0x1
 1733 0152 9542     		.uleb128 0x2115
 1734 0154 19       		.uleb128 0x19
 1735 0155 31       		.uleb128 0x31
 1736 0156 13       		.uleb128 0x13
 1737 0157 00       		.byte	0
 1738 0158 00       		.byte	0
 1739 0159 1C       		.uleb128 0x1c
 1740 015a 05       		.uleb128 0x5
 1741 015b 00       		.byte	0
 1742 015c 03       		.uleb128 0x3
 1743 015d 08       		.uleb128 0x8
 1744 015e 3A       		.uleb128 0x3a
 1745 015f 0B       		.uleb128 0xb
 1746 0160 3B       		.uleb128 0x3b
 1747 0161 0B       		.uleb128 0xb
 1748 0162 49       		.uleb128 0x49
 1749 0163 13       		.uleb128 0x13
 1750 0164 02       		.uleb128 0x2
 1751 0165 18       		.uleb128 0x18
 1752 0166 00       		.byte	0
 1753 0167 00       		.byte	0
 1754 0168 1D       		.uleb128 0x1d
 1755 0169 34       		.uleb128 0x34
 1756 016a 00       		.byte	0
 1757 016b 03       		.uleb128 0x3
 1758 016c 0E       		.uleb128 0xe
 1759 016d 3A       		.uleb128 0x3a
ARM GAS  /tmp/ccbpZSYU.s 			page 32


 1760 016e 0B       		.uleb128 0xb
 1761 016f 3B       		.uleb128 0x3b
 1762 0170 0B       		.uleb128 0xb
 1763 0171 49       		.uleb128 0x49
 1764 0172 13       		.uleb128 0x13
 1765 0173 3F       		.uleb128 0x3f
 1766 0174 19       		.uleb128 0x19
 1767 0175 3C       		.uleb128 0x3c
 1768 0176 19       		.uleb128 0x19
 1769 0177 00       		.byte	0
 1770 0178 00       		.byte	0
 1771 0179 1E       		.uleb128 0x1e
 1772 017a 2E       		.uleb128 0x2e
 1773 017b 00       		.byte	0
 1774 017c 3F       		.uleb128 0x3f
 1775 017d 19       		.uleb128 0x19
 1776 017e 03       		.uleb128 0x3
 1777 017f 0E       		.uleb128 0xe
 1778 0180 3A       		.uleb128 0x3a
 1779 0181 0B       		.uleb128 0xb
 1780 0182 3B       		.uleb128 0x3b
 1781 0183 0B       		.uleb128 0xb
 1782 0184 27       		.uleb128 0x27
 1783 0185 19       		.uleb128 0x19
 1784 0186 3C       		.uleb128 0x3c
 1785 0187 19       		.uleb128 0x19
 1786 0188 00       		.byte	0
 1787 0189 00       		.byte	0
 1788 018a 1F       		.uleb128 0x1f
 1789 018b 2E       		.uleb128 0x2e
 1790 018c 01       		.byte	0x1
 1791 018d 3F       		.uleb128 0x3f
 1792 018e 19       		.uleb128 0x19
 1793 018f 03       		.uleb128 0x3
 1794 0190 0E       		.uleb128 0xe
 1795 0191 3A       		.uleb128 0x3a
 1796 0192 0B       		.uleb128 0xb
 1797 0193 3B       		.uleb128 0x3b
 1798 0194 05       		.uleb128 0x5
 1799 0195 27       		.uleb128 0x27
 1800 0196 19       		.uleb128 0x19
 1801 0197 3C       		.uleb128 0x3c
 1802 0198 19       		.uleb128 0x19
 1803 0199 01       		.uleb128 0x1
 1804 019a 13       		.uleb128 0x13
 1805 019b 00       		.byte	0
 1806 019c 00       		.byte	0
 1807 019d 20       		.uleb128 0x20
 1808 019e 05       		.uleb128 0x5
 1809 019f 00       		.byte	0
 1810 01a0 49       		.uleb128 0x49
 1811 01a1 13       		.uleb128 0x13
 1812 01a2 00       		.byte	0
 1813 01a3 00       		.byte	0
 1814 01a4 00       		.byte	0
 1815              		.section	.debug_loc,"",%progbits
 1816              	.Ldebug_loc0:
ARM GAS  /tmp/ccbpZSYU.s 			page 33


 1817              	.LLST0:
 1818 0000 06000000 		.4byte	.LVL3
 1819 0004 08000000 		.4byte	.LVL4
 1820 0008 0300     		.2byte	0x3
 1821 000a 73       		.byte	0x73
 1822 000b 20       		.sleb128 32
 1823 000c 9F       		.byte	0x9f
 1824 000d 08000000 		.4byte	.LVL4
 1825 0011 10000000 		.4byte	.LVL5
 1826 0015 0100     		.2byte	0x1
 1827 0017 53       		.byte	0x53
 1828 0018 00000000 		.4byte	0
 1829 001c 00000000 		.4byte	0
 1830              	.LLST1:
 1831 0020 12000000 		.4byte	.LVL9
 1832 0024 1E000000 		.4byte	.LVL10
 1833 0028 0300     		.2byte	0x3
 1834 002a 73       		.byte	0x73
 1835 002b 60       		.sleb128 -32
 1836 002c 9F       		.byte	0x9f
 1837 002d 1E000000 		.4byte	.LVL10
 1838 0031 24000000 		.4byte	.LVL11
 1839 0035 0100     		.2byte	0x1
 1840 0037 52       		.byte	0x52
 1841 0038 24000000 		.4byte	.LVL11
 1842 003c 3C000000 		.4byte	.LVL12
 1843 0040 0300     		.2byte	0x3
 1844 0042 73       		.byte	0x73
 1845 0043 60       		.sleb128 -32
 1846 0044 9F       		.byte	0x9f
 1847 0045 00000000 		.4byte	0
 1848 0049 00000000 		.4byte	0
 1849              		.section	.debug_aranges,"",%progbits
 1850 0000 5C000000 		.4byte	0x5c
 1851 0004 0200     		.2byte	0x2
 1852 0006 00000000 		.4byte	.Ldebug_info0
 1853 000a 04       		.byte	0x4
 1854 000b 00       		.byte	0
 1855 000c 0000     		.2byte	0
 1856 000e 0000     		.2byte	0
 1857 0010 00000000 		.4byte	.LFB6
 1858 0014 0E000000 		.4byte	.LFE6-.LFB6
 1859 0018 00000000 		.4byte	.LFB1
 1860 001c 14000000 		.4byte	.LFE1-.LFB1
 1861 0020 00000000 		.4byte	.LFB2
 1862 0024 30000000 		.4byte	.LFE2-.LFB2
 1863 0028 00000000 		.4byte	.LFB3
 1864 002c 08000000 		.4byte	.LFE3-.LFB3
 1865 0030 00000000 		.4byte	.LFB4
 1866 0034 08000000 		.4byte	.LFE4-.LFB4
 1867 0038 00000000 		.4byte	.LFB5
 1868 003c 54000000 		.4byte	.LFE5-.LFB5
 1869 0040 00000000 		.4byte	.LFB0
 1870 0044 26000000 		.4byte	.LFE0-.LFB0
 1871 0048 00000000 		.4byte	.LFB7
 1872 004c 10000000 		.4byte	.LFE7-.LFB7
 1873 0050 00000000 		.4byte	.LFB8
ARM GAS  /tmp/ccbpZSYU.s 			page 34


 1874 0054 14000000 		.4byte	.LFE8-.LFB8
 1875 0058 00000000 		.4byte	0
 1876 005c 00000000 		.4byte	0
 1877              		.section	.debug_ranges,"",%progbits
 1878              	.Ldebug_ranges0:
 1879 0000 00000000 		.4byte	.LFB6
 1880 0004 0E000000 		.4byte	.LFE6
 1881 0008 00000000 		.4byte	.LFB1
 1882 000c 14000000 		.4byte	.LFE1
 1883 0010 00000000 		.4byte	.LFB2
 1884 0014 30000000 		.4byte	.LFE2
 1885 0018 00000000 		.4byte	.LFB3
 1886 001c 08000000 		.4byte	.LFE3
 1887 0020 00000000 		.4byte	.LFB4
 1888 0024 08000000 		.4byte	.LFE4
 1889 0028 00000000 		.4byte	.LFB5
 1890 002c 54000000 		.4byte	.LFE5
 1891 0030 00000000 		.4byte	.LFB0
 1892 0034 26000000 		.4byte	.LFE0
 1893 0038 00000000 		.4byte	.LFB7
 1894 003c 10000000 		.4byte	.LFE7
 1895 0040 00000000 		.4byte	.LFB8
 1896 0044 14000000 		.4byte	.LFE8
 1897 0048 00000000 		.4byte	0
 1898 004c 00000000 		.4byte	0
 1899              		.section	.debug_line,"",%progbits
 1900              	.Ldebug_line0:
 1901 0000 AC020000 		.section	.debug_str,"MS",%progbits,1
 1901      0200E301 
 1901      00000201 
 1901      FB0E0D00 
 1901      01010101 
 1902              	.LASF38:
 1903 0000 705F6D73 		.ascii	"p_msg\000"
 1903      6700
 1904              	.LASF80:
 1905 0006 7264796D 		.ascii	"rdymsg\000"
 1905      736700
 1906              	.LASF16:
 1907 000d 75696E74 		.ascii	"uint64_t\000"
 1907      36345F74 
 1907      00
 1908              	.LASF5:
 1909 0016 5F5F7569 		.ascii	"__uint8_t\000"
 1909      6E74385F 
 1909      7400
 1910              	.LASF68:
 1911 0020 434D785F 		.ascii	"CMx_SCB\000"
 1911      53434200 
 1912              	.LASF100:
 1913 0028 63685379 		.ascii	"chSysTimerHandlerI\000"
 1913      7354696D 
 1913      65724861 
 1913      6E646C65 
 1913      724900
 1914              	.LASF92:
 1915 003b 53797354 		.ascii	"SysTickVector\000"
ARM GAS  /tmp/ccbpZSYU.s 			page 35


 1915      69636B56 
 1915      6563746F 
 1915      7200
 1916              	.LASF12:
 1917 0049 6C6F6E67 		.ascii	"long long unsigned int\000"
 1917      206C6F6E 
 1917      6720756E 
 1917      7369676E 
 1917      65642069 
 1918              	.LASF81:
 1919 0060 65786974 		.ascii	"exitcode\000"
 1919      636F6465 
 1919      00
 1920              	.LASF53:
 1921 0069 43505549 		.ascii	"CPUID\000"
 1921      4400
 1922              	.LASF27:
 1923 006f 705F7072 		.ascii	"p_prio\000"
 1923      696F00
 1924              	.LASF10:
 1925 0076 6C6F6E67 		.ascii	"long long int\000"
 1925      206C6F6E 
 1925      6720696E 
 1925      7400
 1926              	.LASF1:
 1927 0084 7369676E 		.ascii	"signed char\000"
 1927      65642063 
 1927      68617200 
 1928              	.LASF101:
 1929 0090 6462675F 		.ascii	"dbg_check_unlock_from_isr\000"
 1929      63686563 
 1929      6B5F756E 
 1929      6C6F636B 
 1929      5F66726F 
 1930              	.LASF77:
 1931 00aa 6D5F7175 		.ascii	"m_queue\000"
 1931      65756500 
 1932              	.LASF7:
 1933 00b2 6C6F6E67 		.ascii	"long int\000"
 1933      20696E74 
 1933      00
 1934              	.LASF86:
 1935 00bb 53564361 		.ascii	"SVCallVector\000"
 1935      6C6C5665 
 1935      63746F72 
 1935      00
 1936              	.LASF19:
 1937 00c8 74737461 		.ascii	"tstate_t\000"
 1937      74655F74 
 1937      00
 1938              	.LASF94:
 1939 00d1 5F706F72 		.ascii	"_port_thread_start\000"
 1939      745F7468 
 1939      72656164 
 1939      5F737461 
 1939      727400
 1940              	.LASF29:
ARM GAS  /tmp/ccbpZSYU.s 			page 36


 1941 00e4 705F6E65 		.ascii	"p_newer\000"
 1941      77657200 
 1942              	.LASF105:
 1943 00ec 2F686F6D 		.ascii	"/homes/msunkara/ASE-praticle-folder/ChibiOS/testhal"
 1943      65732F6D 
 1943      73756E6B 
 1943      6172612F 
 1943      4153452D 
 1944 011f 2F53544D 		.ascii	"/STM32F1xx/I2C\000"
 1944      33324631 
 1944      78782F49 
 1944      324300
 1945              	.LASF63:
 1946 012e 42464152 		.ascii	"BFAR\000"
 1946      00
 1947              	.LASF8:
 1948 0133 5F5F7569 		.ascii	"__uint32_t\000"
 1948      6E743332 
 1948      5F7400
 1949              	.LASF107:
 1950 013e 6E766963 		.ascii	"nvicSetSystemHandlerPriority\000"
 1950      53657453 
 1950      79737465 
 1950      6D48616E 
 1950      646C6572 
 1951              	.LASF44:
 1952 015b 72656761 		.ascii	"regarm_t\000"
 1952      726D5F74 
 1952      00
 1953              	.LASF96:
 1954 0164 63685363 		.ascii	"chSchDoReschedule\000"
 1954      68446F52 
 1954      65736368 
 1954      6564756C 
 1954      6500
 1955              	.LASF88:
 1956 0176 5F706F72 		.ascii	"_port_lock\000"
 1956      745F6C6F 
 1956      636B00
 1957              	.LASF98:
 1958 0181 6462675F 		.ascii	"dbg_check_enter_isr\000"
 1958      63686563 
 1958      6B5F656E 
 1958      7465725F 
 1958      69737200 
 1959              	.LASF32:
 1960 0195 705F7374 		.ascii	"p_stklimit\000"
 1960      6B6C696D 
 1960      697400
 1961              	.LASF0:
 1962 01a0 756E7369 		.ascii	"unsigned int\000"
 1962      676E6564 
 1962      20696E74 
 1962      00
 1963              	.LASF47:
 1964 01ad 6C725F74 		.ascii	"lr_thd\000"
 1964      686400
ARM GAS  /tmp/ccbpZSYU.s 			page 37


 1965              	.LASF46:
 1966 01b4 65787463 		.ascii	"extctx\000"
 1966      747800
 1967              	.LASF93:
 1968 01bb 5F706F72 		.ascii	"_port_switch\000"
 1968      745F7377 
 1968      69746368 
 1968      00
 1969              	.LASF9:
 1970 01c8 6C6F6E67 		.ascii	"long unsigned int\000"
 1970      20756E73 
 1970      69676E65 
 1970      6420696E 
 1970      7400
 1971              	.LASF55:
 1972 01da 56544F52 		.ascii	"VTOR\000"
 1972      00
 1973              	.LASF85:
 1974 01df 5F706F72 		.ascii	"_port_switch_from_isr\000"
 1974      745F7377 
 1974      69746368 
 1974      5F66726F 
 1974      6D5F6973 
 1975              	.LASF50:
 1976 01f5 636F6E74 		.ascii	"context\000"
 1976      65787400 
 1977              	.LASF4:
 1978 01fd 73686F72 		.ascii	"short unsigned int\000"
 1978      7420756E 
 1978      7369676E 
 1978      65642069 
 1978      6E7400
 1979              	.LASF54:
 1980 0210 49435352 		.ascii	"ICSR\000"
 1980      00
 1981              	.LASF21:
 1982 0215 6D73675F 		.ascii	"msg_t\000"
 1982      7400
 1983              	.LASF104:
 1984 021b 2E2E2F2E 		.ascii	"../../../os/ports/GCC/ARMCMx/chcore_v7m.c\000"
 1984      2E2F2E2E 
 1984      2F6F732F 
 1984      706F7274 
 1984      732F4743 
 1985              	.LASF56:
 1986 0245 41495243 		.ascii	"AIRCR\000"
 1986      5200
 1987              	.LASF72:
 1988 024b 725F6E65 		.ascii	"r_newer\000"
 1988      77657200 
 1989              	.LASF62:
 1990 0253 4D4D4641 		.ascii	"MMFAR\000"
 1990      5200
 1991              	.LASF91:
 1992 0259 5F706F72 		.ascii	"_port_irq_epilogue\000"
 1992      745F6972 
 1992      715F6570 
ARM GAS  /tmp/ccbpZSYU.s 			page 38


 1992      696C6F67 
 1992      756500
 1993              	.LASF18:
 1994 026c 746D6F64 		.ascii	"tmode_t\000"
 1994      655F7400 
 1995              	.LASF43:
 1996 0274 54687265 		.ascii	"ThreadsList\000"
 1996      6164734C 
 1996      69737400 
 1997              	.LASF22:
 1998 0280 6576656E 		.ascii	"eventmask_t\000"
 1998      746D6173 
 1998      6B5F7400 
 1999              	.LASF76:
 2000 028c 4D757465 		.ascii	"Mutex\000"
 2000      7800
 2001              	.LASF45:
 2002 0292 73746B61 		.ascii	"stkalign_t\000"
 2002      6C69676E 
 2002      5F7400
 2003              	.LASF52:
 2004 029d 73697A65 		.ascii	"sizetype\000"
 2004      74797065 
 2004      00
 2005              	.LASF95:
 2006 02a6 6462675F 		.ascii	"dbg_check_lock\000"
 2006      63686563 
 2006      6B5F6C6F 
 2006      636B00
 2007              	.LASF59:
 2008 02b5 43465352 		.ascii	"CFSR\000"
 2008      00
 2009              	.LASF30:
 2010 02ba 705F6F6C 		.ascii	"p_older\000"
 2010      64657200 
 2011              	.LASF71:
 2012 02c2 725F6374 		.ascii	"r_ctx\000"
 2012      7800
 2013              	.LASF42:
 2014 02c8 54687265 		.ascii	"ThreadsQueue\000"
 2014      61647351 
 2014      75657565 
 2014      00
 2015              	.LASF74:
 2016 02d5 725F6375 		.ascii	"r_current\000"
 2016      7272656E 
 2016      7400
 2017              	.LASF73:
 2018 02df 725F6F6C 		.ascii	"r_older\000"
 2018      64657200 
 2019              	.LASF97:
 2020 02e7 6462675F 		.ascii	"dbg_check_unlock\000"
 2020      63686563 
 2020      6B5F756E 
 2020      6C6F636B 
 2020      00
 2021              	.LASF11:
ARM GAS  /tmp/ccbpZSYU.s 			page 39


 2022 02f8 5F5F7569 		.ascii	"__uint64_t\000"
 2022      6E743634 
 2022      5F7400
 2023              	.LASF61:
 2024 0303 44465352 		.ascii	"DFSR\000"
 2024      00
 2025              	.LASF89:
 2026 0308 63747870 		.ascii	"ctxp\000"
 2026      00
 2027              	.LASF26:
 2028 030d 705F7072 		.ascii	"p_prev\000"
 2028      657600
 2029              	.LASF20:
 2030 0314 74707269 		.ascii	"tprio_t\000"
 2030      6F5F7400 
 2031              	.LASF17:
 2032 031c 5F426F6F 		.ascii	"_Bool\000"
 2032      6C00
 2033              	.LASF14:
 2034 0322 696E7433 		.ascii	"int32_t\000"
 2034      325F7400 
 2035              	.LASF2:
 2036 032a 756E7369 		.ascii	"unsigned char\000"
 2036      676E6564 
 2036      20636861 
 2036      7200
 2037              	.LASF58:
 2038 0338 53484353 		.ascii	"SHCSR\000"
 2038      5200
 2039              	.LASF40:
 2040 033e 705F6D74 		.ascii	"p_mtxlist\000"
 2040      786C6973 
 2040      7400
 2041              	.LASF3:
 2042 0348 73686F72 		.ascii	"short int\000"
 2042      7420696E 
 2042      7400
 2043              	.LASF33:
 2044 0352 705F7374 		.ascii	"p_state\000"
 2044      61746500 
 2045              	.LASF48:
 2046 035a 78707372 		.ascii	"xpsr\000"
 2046      00
 2047              	.LASF70:
 2048 035f 725F7072 		.ascii	"r_prio\000"
 2048      696F00
 2049              	.LASF83:
 2050 0366 65776D61 		.ascii	"ewmask\000"
 2050      736B00
 2051              	.LASF25:
 2052 036d 705F6E65 		.ascii	"p_next\000"
 2052      787400
 2053              	.LASF34:
 2054 0374 705F666C 		.ascii	"p_flags\000"
 2054      61677300 
 2055              	.LASF24:
 2056 037c 54687265 		.ascii	"Thread\000"
ARM GAS  /tmp/ccbpZSYU.s 			page 40


 2056      616400
 2057              	.LASF39:
 2058 0383 705F6570 		.ascii	"p_epending\000"
 2058      656E6469 
 2058      6E6700
 2059              	.LASF15:
 2060 038e 75696E74 		.ascii	"uint32_t\000"
 2060      33325F74 
 2060      00
 2061              	.LASF69:
 2062 0397 725F7175 		.ascii	"r_queue\000"
 2062      65756500 
 2063              	.LASF64:
 2064 039f 41465352 		.ascii	"AFSR\000"
 2064      00
 2065              	.LASF66:
 2066 03a4 756E7573 		.ascii	"unused1\000"
 2066      65643100 
 2067              	.LASF84:
 2068 03ac 63686172 		.ascii	"char\000"
 2068      00
 2069              	.LASF51:
 2070 03b1 494F5245 		.ascii	"IOREG32\000"
 2070      47333200 
 2071              	.LASF79:
 2072 03b9 6D5F6E65 		.ascii	"m_next\000"
 2072      787400
 2073              	.LASF23:
 2074 03c0 73797374 		.ascii	"systime_t\000"
 2074      696D655F 
 2074      7400
 2075              	.LASF41:
 2076 03ca 705F7265 		.ascii	"p_realprio\000"
 2076      616C7072 
 2076      696F00
 2077              	.LASF6:
 2078 03d5 5F5F696E 		.ascii	"__int32_t\000"
 2078      7433325F 
 2078      7400
 2079              	.LASF90:
 2080 03df 5F706F72 		.ascii	"_port_unlock\000"
 2080      745F756E 
 2080      6C6F636B 
 2080      00
 2081              	.LASF35:
 2082 03ec 705F7469 		.ascii	"p_time\000"
 2082      6D6500
 2083              	.LASF57:
 2084 03f3 53485052 		.ascii	"SHPR\000"
 2084      00
 2085              	.LASF102:
 2086 03f8 6462675F 		.ascii	"dbg_check_leave_isr\000"
 2086      63686563 
 2086      6B5F6C65 
 2086      6176655F 
 2086      69737200 
 2087              	.LASF49:
ARM GAS  /tmp/ccbpZSYU.s 			page 41


 2088 040c 696E7463 		.ascii	"intctx\000"
 2088      747800
 2089              	.LASF37:
 2090 0413 705F6D73 		.ascii	"p_msgqueue\000"
 2090      67717565 
 2090      756500
 2091              	.LASF75:
 2092 041e 52656164 		.ascii	"ReadyList\000"
 2092      794C6973 
 2092      7400
 2093              	.LASF65:
 2094 0428 4D4D4652 		.ascii	"MMFR\000"
 2094      00
 2095              	.LASF106:
 2096 042d 726C6973 		.ascii	"rlist\000"
 2096      7400
 2097              	.LASF13:
 2098 0433 75696E74 		.ascii	"uint8_t\000"
 2098      385F7400 
 2099              	.LASF99:
 2100 043b 6462675F 		.ascii	"dbg_check_lock_from_isr\000"
 2100      63686563 
 2100      6B5F6C6F 
 2100      636B5F66 
 2100      726F6D5F 
 2101              	.LASF82:
 2102 0453 77746F62 		.ascii	"wtobjp\000"
 2102      6A7000
 2103              	.LASF87:
 2104 045a 5F706F72 		.ascii	"_port_init\000"
 2104      745F696E 
 2104      697400
 2105              	.LASF31:
 2106 0465 705F6E61 		.ascii	"p_name\000"
 2106      6D6500
 2107              	.LASF103:
 2108 046c 474E5520 		.ascii	"GNU C 4.8.3 20140228 (release) [ARM/embedded-4_8-br"
 2108      4320342E 
 2108      382E3320 
 2108      32303134 
 2108      30323238 
 2109 049f 616E6368 		.ascii	"anch revision 208322] -mcpu=cortex-m3 -mno-thumb-in"
 2109      20726576 
 2109      6973696F 
 2109      6E203230 
 2109      38333232 
 2110 04d2 74657277 		.ascii	"terwork -mthumb -ggdb -O2 -fomit-frame-pointer -fal"
 2110      6F726B20 
 2110      2D6D7468 
 2110      756D6220 
 2110      2D676764 
 2111 0505 69676E2D 		.ascii	"ign-functions=16 -ffunction-sections -fdata-section"
 2111      66756E63 
 2111      74696F6E 
 2111      733D3136 
 2111      202D6666 
 2112 0538 73202D66 		.ascii	"s -fno-common\000"
ARM GAS  /tmp/ccbpZSYU.s 			page 42


 2112      6E6F2D63 
 2112      6F6D6D6F 
 2112      6E00
 2113              	.LASF67:
 2114 0546 43504143 		.ascii	"CPACR\000"
 2114      5200
 2115              	.LASF60:
 2116 054c 48465352 		.ascii	"HFSR\000"
 2116      00
 2117              	.LASF78:
 2118 0551 6D5F6F77 		.ascii	"m_owner\000"
 2118      6E657200 
 2119              	.LASF28:
 2120 0559 705F6374 		.ascii	"p_ctx\000"
 2120      7800
 2121              	.LASF36:
 2122 055f 705F7761 		.ascii	"p_waiting\000"
 2122      6974696E 
 2122      6700
 2123              		.ident	"GCC: (GNU Tools for ARM Embedded Processors) 4.8.3 20140228 (release) [ARM/embedded-4_8-br
ARM GAS  /tmp/ccbpZSYU.s 			page 43


DEFINED SYMBOLS
                            *ABS*:00000000 chcore_v7m.c
     /tmp/ccbpZSYU.s:19     .text._port_switch_from_isr:00000000 $t
     /tmp/ccbpZSYU.s:25     .text._port_switch_from_isr:00000000 _port_switch_from_isr
     /tmp/ccbpZSYU.s:44     .text._port_switch_from_isr:0000000c _port_exit_from_isr
     /tmp/ccbpZSYU.s:56     .text.SVCallVector:00000000 $t
     /tmp/ccbpZSYU.s:62     .text.SVCallVector:00000000 SVCallVector
     /tmp/ccbpZSYU.s:177    .text._port_unlock:00000000 _port_unlock
     /tmp/ccbpZSYU.s:95     .text._port_init:00000000 $t
     /tmp/ccbpZSYU.s:101    .text._port_init:00000000 _port_init
     /tmp/ccbpZSYU.s:140    .text._port_init:00000028 $d
     /tmp/ccbpZSYU.s:146    .text._port_lock:00000000 $t
     /tmp/ccbpZSYU.s:152    .text._port_lock:00000000 _port_lock
     /tmp/ccbpZSYU.s:171    .text._port_unlock:00000000 $t
     /tmp/ccbpZSYU.s:196    .text._port_irq_epilogue:00000000 $t
     /tmp/ccbpZSYU.s:202    .text._port_irq_epilogue:00000000 _port_irq_epilogue
     /tmp/ccbpZSYU.s:266    .text._port_irq_epilogue:00000044 $d
     /tmp/ccbpZSYU.s:274    .text.SysTickVector:00000000 $t
     /tmp/ccbpZSYU.s:280    .text.SysTickVector:00000000 SysTickVector
     /tmp/ccbpZSYU.s:322    .text._port_switch:00000000 $t
     /tmp/ccbpZSYU.s:328    .text._port_switch:00000000 _port_switch
     /tmp/ccbpZSYU.s:355    .text._port_thread_start:00000000 $t
     /tmp/ccbpZSYU.s:361    .text._port_thread_start:00000000 _port_thread_start
                     .debug_frame:00000010 $d
     /tmp/ccbpZSYU.s:273    .text._port_irq_epilogue:00000054 $t

UNDEFINED SYMBOLS
dbg_check_lock
chSchDoReschedule
dbg_check_unlock
nvicSetSystemHandlerPriority
rlist
dbg_check_enter_isr
dbg_check_lock_from_isr
chSysTimerHandlerI
dbg_check_unlock_from_isr
dbg_check_leave_isr
chThdExit
