ARM GAS  /tmp/ccuSMVkc.s 			page 1


   1              		.syntax unified
   2              		.cpu cortex-m3
   3              		.fpu softvfp
   4              		.eabi_attribute 20, 1
   5              		.eabi_attribute 21, 1
   6              		.eabi_attribute 23, 3
   7              		.eabi_attribute 24, 1
   8              		.eabi_attribute 25, 1
   9              		.eabi_attribute 26, 1
  10              		.eabi_attribute 30, 2
  11              		.eabi_attribute 34, 1
  12              		.eabi_attribute 18, 4
  13              		.thumb
  14              		.file	"chcore_v7m.c"
  15              		.text
  16              	.Ltext0:
  17              		.cfi_sections	.debug_frame
  18              		.section	.text._port_switch_from_isr,"ax",%progbits
  19              		.align	2
  20              		.p2align 4,,15
  21              		.global	_port_switch_from_isr
  22              		.thumb
  23              		.thumb_func
  24              		.type	_port_switch_from_isr, %function
  25              	_port_switch_from_isr:
  26              	.LFB11:
  27              		.file 1 "../../../os/ports/GCC/ARMCMx/chcore_v7m.c"
  28              		.loc 1 200 0
  29              		.cfi_startproc
  30              		@ Naked Function: prologue and epilogue provided by programmer.
  31              		@ args = 0, pretend = 0, frame = 0
  32              		@ frame_needed = 0, uses_anonymous_args = 0
  33              		.loc 1 202 0
  34 0000 FFF7FEFF 		bl	dbg_check_lock
  35              	.LVL0:
  36              		.loc 1 203 0
  37 0004 FFF7FEFF 		bl	chSchDoReschedule
  38              	.LVL1:
  39              		.loc 1 204 0
  40 0008 FFF7FEFF 		bl	dbg_check_unlock
  41              	.LVL2:
  42              		.loc 1 205 0
  43              	@ 205 "../../../os/ports/GCC/ARMCMx/chcore_v7m.c" 1
  44              		_port_exit_from_isr:
  45              	@ 0 "" 2
  46              		.loc 1 207 0
  47              	@ 207 "../../../os/ports/GCC/ARMCMx/chcore_v7m.c" 1
  48 000c 00DF     		svc     #0
  49              	@ 0 "" 2
  50              		.loc 1 214 0
  51              		.thumb
  52              		.cfi_endproc
  53              	.LFE11:
  54              		.size	_port_switch_from_isr, .-_port_switch_from_isr
  55 000e 00BF     		.section	.text.SVCallVector,"ax",%progbits
  56              		.align	2
  57              		.p2align 4,,15
ARM GAS  /tmp/ccuSMVkc.s 			page 2


  58              		.global	SVCallVector
  59              		.thumb
  60              		.thumb_func
  61              		.type	SVCallVector, %function
  62              	SVCallVector:
  63              	.LFB8:
  64              		.loc 1 65 0
  65              		.cfi_startproc
  66              		@ args = 0, pretend = 0, frame = 0
  67              		@ frame_needed = 0, uses_anonymous_args = 0
  68              		@ link register save eliminated.
  69              		.loc 1 74 0
  70              	@ 74 "../../../os/ports/GCC/ARMCMx/chcore_v7m.c" 1
  71 0000 EFF30983 		mrs     r3, PSP
  72              	@ 0 "" 2
  73              	.LVL3:
  74              		.loc 1 78 0
  75              		.thumb
  76 0004 2033     		adds	r3, r3, #32
  77              	.LVL4:
  78              		.loc 1 81 0
  79              	@ 81 "../../../os/ports/GCC/ARMCMx/chcore_v7m.c" 1
  80 0006 83F30988 		msr     PSP, r3
  81              	@ 0 "" 2
  82              		.thumb
  83              	.LBB2:
  84              		.loc 1 82 0
  85 000a 0023     		movs	r3, #0
  86              	.LVL5:
  87              	@ 82 "../../../os/ports/GCC/ARMCMx/chcore_v7m.c" 1
  88 000c 83F31188 		msr     BASEPRI, r3
  89              	@ 0 "" 2
  90              		.thumb
  91 0010 7047     		bx	lr
  92              	.LBE2:
  93              		.cfi_endproc
  94              	.LFE8:
  95              		.size	SVCallVector, .-SVCallVector
  96 0012 00BFAFF3 		.section	.text._port_init,"ax",%progbits
  96      0080AFF3 
  96      0080AFF3 
  96      0080
  97              		.align	2
  98              		.p2align 4,,15
  99              		.global	_port_init
 100              		.thumb
 101              		.thumb_func
 102              		.type	_port_init, %function
 103              	_port_init:
 104              	.LFB9:
 105              		.loc 1 120 0
 106              		.cfi_startproc
 107              		@ args = 0, pretend = 0, frame = 0
 108              		@ frame_needed = 0, uses_anonymous_args = 0
 109 0000 08B5     		push	{r3, lr}
 110              		.cfi_def_cfa_offset 8
 111              		.cfi_offset 3, -8
ARM GAS  /tmp/ccuSMVkc.s 			page 3


 112              		.cfi_offset 14, -4
 113              		.loc 1 124 0
 114 0002 094A     		ldr	r2, .L4
 115              		.loc 1 123 0
 116 0004 094B     		ldr	r3, .L4+4
 117 0006 0021     		movs	r1, #0
 118 0008 9960     		str	r1, [r3, #8]
 119              		.loc 1 127 0
 120 000a 0720     		movs	r0, #7
 121              		.loc 1 124 0
 122 000c DA60     		str	r2, [r3, #12]
 123              		.loc 1 127 0
 124 000e 1021     		movs	r1, #16
 125 0010 FFF7FEFF 		bl	nvicSetSystemHandlerPriority
 126              	.LVL6:
 127              		.loc 1 129 0
 128 0014 0A20     		movs	r0, #10
 129 0016 2021     		movs	r1, #32
 130 0018 FFF7FEFF 		bl	nvicSetSystemHandlerPriority
 131              	.LVL7:
 132              		.loc 1 133 0
 133 001c BDE80840 		pop	{r3, lr}
 134              		.loc 1 131 0
 135 0020 0B20     		movs	r0, #11
 136 0022 8021     		movs	r1, #128
 137 0024 FFF7FEBF 		b	nvicSetSystemHandlerPriority
 138              	.LVL8:
 139              	.L5:
 140              		.align	2
 141              	.L4:
 142 0028 0003FA05 		.word	100270848
 143 002c 00ED00E0 		.word	-536810240
 144              		.cfi_endproc
 145              	.LFE9:
 146              		.size	_port_init, .-_port_init
 147              		.section	.text._port_irq_epilogue,"ax",%progbits
 148              		.align	2
 149              		.p2align 4,,15
 150              		.global	_port_irq_epilogue
 151              		.thumb
 152              		.thumb_func
 153              		.type	_port_irq_epilogue, %function
 154              	_port_irq_epilogue:
 155              	.LFB10:
 156              		.loc 1 150 0
 157              		.cfi_startproc
 158              		@ args = 0, pretend = 0, frame = 0
 159              		@ frame_needed = 0, uses_anonymous_args = 0
 160              		@ link register save eliminated.
 161              	.LBB3:
 162              		.loc 1 152 0
 163 0000 2023     		movs	r3, #32
 164              	@ 152 "../../../os/ports/GCC/ARMCMx/chcore_v7m.c" 1
 165 0002 83F31188 		msr     BASEPRI, r3
 166              	@ 0 "" 2
 167              		.thumb
 168              	.LBE3:
ARM GAS  /tmp/ccuSMVkc.s 			page 4


 169              		.loc 1 153 0
 170 0006 164B     		ldr	r3, .L14
 171 0008 5B68     		ldr	r3, [r3, #4]
 172 000a 13F40063 		ands	r3, r3, #2048
 173 000e 1AD0     		beq	.L7
 174              	.LBB4:
 175              		.loc 1 163 0
 176              	@ 163 "../../../os/ports/GCC/ARMCMx/chcore_v7m.c" 1
 177 0010 EFF30983 		mrs     r3, PSP
 178              	@ 0 "" 2
 179              	.LVL9:
 180              		.loc 1 168 0
 181              		.thumb
 182 0014 4FF08072 		mov	r2, #16777216
 183 0018 43F8042C 		str	r2, [r3, #-4]
 184              		.loc 1 167 0
 185 001c A3F12002 		sub	r2, r3, #32
 186              	.LVL10:
 187              		.loc 1 172 0
 188              	@ 172 "../../../os/ports/GCC/ARMCMx/chcore_v7m.c" 1
 189 0020 82F30988 		msr     PSP, r2
 190              	@ 0 "" 2
 191              		.loc 1 176 0
 192              		.thumb
 193 0024 0F49     		ldr	r1, .L14+4
 194 0026 8A69     		ldr	r2, [r1, #24]
 195              	.LVL11:
 196 0028 0968     		ldr	r1, [r1]
 197 002a 92F82300 		ldrb	r0, [r2, #35]	@ zero_extendqisi2
 198 002e 8968     		ldr	r1, [r1, #8]
 199 0030 9268     		ldr	r2, [r2, #8]
 200 0032 58B1     		cbz	r0, .L8
 201              		.loc 1 176 0 is_stmt 0 discriminator 1
 202 0034 9142     		cmp	r1, r2
 203 0036 94BF     		ite	ls
 204 0038 0022     		movls	r2, #0
 205 003a 0122     		movhi	r2, #1
 206 003c 62B1     		cbz	r2, .L10
 207              	.L13:
 208              		.loc 1 178 0 is_stmt 1
 209 003e 0A4A     		ldr	r2, .L14+8
 210 0040 43F8082C 		str	r2, [r3, #-8]
 211 0044 7047     		bx	lr
 212              	.LVL12:
 213              	.L7:
 214              	.LBE4:
 215              	.LBB5:
 216              		.loc 1 190 0
 217              	@ 190 "../../../os/ports/GCC/ARMCMx/chcore_v7m.c" 1
 218 0046 83F31188 		msr     BASEPRI, r3
 219              	@ 0 "" 2
 220              		.thumb
 221 004a 7047     		bx	lr
 222              	.LVL13:
 223              	.L8:
 224              	.LBE5:
 225              	.LBB6:
ARM GAS  /tmp/ccuSMVkc.s 			page 5


 226              		.loc 1 176 0 discriminator 2
 227 004c 9142     		cmp	r1, r2
 228 004e 34BF     		ite	cc
 229 0050 0022     		movcc	r2, #0
 230 0052 0122     		movcs	r2, #1
 231 0054 002A     		cmp	r2, #0
 232 0056 F2D1     		bne	.L13
 233              	.L10:
 234              		.loc 1 183 0
 235 0058 044A     		ldr	r2, .L14+12
 236 005a 43F8082C 		str	r2, [r3, #-8]
 237 005e 7047     		bx	lr
 238              	.L15:
 239              		.align	2
 240              	.L14:
 241 0060 00ED00E0 		.word	-536810240
 242 0064 00000000 		.word	rlist
 243 0068 00000000 		.word	_port_switch_from_isr
 244 006c 0C000000 		.word	_port_exit_from_isr
 245              	.LBE6:
 246              		.cfi_endproc
 247              	.LFE10:
 248              		.size	_port_irq_epilogue, .-_port_irq_epilogue
 249              		.section	.text.SysTickVector,"ax",%progbits
 250              		.align	2
 251              		.p2align 4,,15
 252              		.global	SysTickVector
 253              		.thumb
 254              		.thumb_func
 255              		.type	SysTickVector, %function
 256              	SysTickVector:
 257              	.LFB7:
 258              		.loc 1 47 0
 259              		.cfi_startproc
 260              		@ args = 0, pretend = 0, frame = 0
 261              		@ frame_needed = 0, uses_anonymous_args = 0
 262 0000 08B5     		push	{r3, lr}
 263              		.cfi_def_cfa_offset 8
 264              		.cfi_offset 3, -8
 265              		.cfi_offset 14, -4
 266              		.loc 1 49 0
 267 0002 FFF7FEFF 		bl	dbg_check_enter_isr
 268              	.LVL14:
 269              	.LBB7:
 270              		.loc 1 51 0
 271 0006 2023     		movs	r3, #32
 272              	@ 51 "../../../os/ports/GCC/ARMCMx/chcore_v7m.c" 1
 273 0008 83F31188 		msr     BASEPRI, r3
 274              	@ 0 "" 2
 275              		.thumb
 276              	.LBE7:
 277 000c FFF7FEFF 		bl	dbg_check_lock_from_isr
 278              	.LVL15:
 279              		.loc 1 52 0
 280 0010 FFF7FEFF 		bl	chSysTimerHandlerI
 281              	.LVL16:
 282              		.loc 1 53 0
ARM GAS  /tmp/ccuSMVkc.s 			page 6


 283 0014 FFF7FEFF 		bl	dbg_check_unlock_from_isr
 284              	.LVL17:
 285              	.LBB8:
 286 0018 0023     		movs	r3, #0
 287              	@ 53 "../../../os/ports/GCC/ARMCMx/chcore_v7m.c" 1
 288 001a 83F31188 		msr     BASEPRI, r3
 289              	@ 0 "" 2
 290              		.thumb
 291              	.LBE8:
 292              		.loc 1 55 0
 293 001e FFF7FEFF 		bl	dbg_check_leave_isr
 294              	.LVL18:
 295              		.loc 1 56 0
 296 0022 BDE80840 		pop	{r3, lr}
 297              		.loc 1 55 0
 298 0026 FFF7FEBF 		b	_port_irq_epilogue
 299              	.LVL19:
 300              		.cfi_endproc
 301              	.LFE7:
 302              		.size	SysTickVector, .-SysTickVector
 303 002a 00BFAFF3 		.section	.text._port_switch,"ax",%progbits
 303      0080
 304              		.align	2
 305              		.p2align 4,,15
 306              		.global	_port_switch
 307              		.thumb
 308              		.thumb_func
 309              		.type	_port_switch, %function
 310              	_port_switch:
 311              	.LFB12:
 312              		.loc 1 229 0
 313              		.cfi_startproc
 314              		@ Naked Function: prologue and epilogue provided by programmer.
 315              		@ args = 0, pretend = 0, frame = 0
 316              		@ frame_needed = 0, uses_anonymous_args = 0
 317              	.LVL20:
 318              		.loc 1 231 0
 319              	@ 231 "../../../os/ports/GCC/ARMCMx/chcore_v7m.c" 1
 320 0000 2DE9F04F 		push    {r4, r5, r6, r7, r8, r9, r10, r11, lr}
 321              	@ 0 "" 2
 322              		.loc 1 237 0
 323              	@ 237 "../../../os/ports/GCC/ARMCMx/chcore_v7m.c" 1
 324 0004 C1F80CD0 		str     sp, [r1, #12]                          
 325 0008 D0F80CD0 		ldr     sp, [r0, #12]
 326              	@ 0 "" 2
 327              		.loc 1 243 0
 328              	@ 243 "../../../os/ports/GCC/ARMCMx/chcore_v7m.c" 1
 329 000c BDE8F08F 		pop     {r4, r5, r6, r7, r8, r9, r10, r11, pc}
 330              	@ 0 "" 2
 331              		.loc 1 245 0
 332              		.thumb
 333              		.cfi_endproc
 334              	.LFE12:
 335              		.size	_port_switch, .-_port_switch
 336              		.section	.text._port_thread_start,"ax",%progbits
 337              		.align	2
 338              		.p2align 4,,15
ARM GAS  /tmp/ccuSMVkc.s 			page 7


 339              		.global	_port_thread_start
 340              		.thumb
 341              		.thumb_func
 342              		.type	_port_thread_start, %function
 343              	_port_thread_start:
 344              	.LFB13:
 345              		.loc 1 252 0
 346              		.cfi_startproc
 347              		@ args = 0, pretend = 0, frame = 0
 348              		@ frame_needed = 0, uses_anonymous_args = 0
 349 0000 08B5     		push	{r3, lr}
 350              		.cfi_def_cfa_offset 8
 351              		.cfi_offset 3, -8
 352              		.cfi_offset 14, -4
 353              		.loc 1 254 0
 354 0002 FFF7FEFF 		bl	dbg_check_unlock
 355              	.LVL21:
 356              	.LBB9:
 357 0006 0023     		movs	r3, #0
 358              	@ 254 "../../../os/ports/GCC/ARMCMx/chcore_v7m.c" 1
 359 0008 83F31188 		msr     BASEPRI, r3
 360              	@ 0 "" 2
 361              		.thumb
 362              	.LBE9:
 363              		.loc 1 255 0
 364              	@ 255 "../../../os/ports/GCC/ARMCMx/chcore_v7m.c" 1
 365 000c 2846     		mov     r0, r5                                 
 366 000e A047     		blx     r4                                     
 367 0010 FFF7FEFF 		bl      chThdExit
 368              	@ 0 "" 2
 369              		.thumb
 370 0014 08BD     		pop	{r3, pc}
 371              		.cfi_endproc
 372              	.LFE13:
 373              		.size	_port_thread_start, .-_port_thread_start
 374 0016 00BFAFF3 		.text
 374      0080AFF3 
 374      0080
 375              	.Letext0:
 376              		.file 2 "/homes/msunkara/ASE-praticle-folder/gcc-arm-embedded/gcc-arm-none-eabi-4_8-2014q/arm-none
 377              		.file 3 "/homes/msunkara/ASE-praticle-folder/gcc-arm-embedded/gcc-arm-none-eabi-4_8-2014q/arm-none
 378              		.file 4 "../../../os/ports/GCC/ARMCMx/chtypes.h"
 379              		.file 5 "../../../os/kernel/include/chlists.h"
 380              		.file 6 "../../../os/kernel/include/chthreads.h"
 381              		.file 7 "../../../os/ports/GCC/ARMCMx/chcore_v7m.h"
 382              		.file 8 "../../../os/ports/common/ARMCMx/nvic.h"
 383              		.file 9 "../../../os/kernel/include/chschd.h"
 384              		.file 10 "../../../os/kernel/include/chmtx.h"
 385              		.file 11 "../../../os/kernel/include/chdebug.h"
 386              		.file 12 "../../../os/kernel/include/chsys.h"
 387              		.section	.debug_info,"",%progbits
 388              	.Ldebug_info0:
 389 0000 8E080000 		.4byte	0x88e
 390 0004 0400     		.2byte	0x4
 391 0006 00000000 		.4byte	.Ldebug_abbrev0
 392 000a 04       		.byte	0x4
 393 000b 01       		.uleb128 0x1
ARM GAS  /tmp/ccuSMVkc.s 			page 8


 394 000c 7F040000 		.4byte	.LASF106
 395 0010 01       		.byte	0x1
 396 0011 E0010000 		.4byte	.LASF107
 397 0015 0A020000 		.4byte	.LASF108
 398 0019 18000000 		.4byte	.Ldebug_ranges0+0x18
 399 001d 00000000 		.4byte	0
 400 0021 00000000 		.4byte	.Ldebug_line0
 401 0025 02       		.uleb128 0x2
 402 0026 04       		.byte	0x4
 403 0027 05       		.byte	0x5
 404 0028 696E7400 		.ascii	"int\000"
 405 002c 03       		.uleb128 0x3
 406 002d 04       		.byte	0x4
 407 002e 07       		.byte	0x7
 408 002f 65010000 		.4byte	.LASF0
 409 0033 03       		.uleb128 0x3
 410 0034 01       		.byte	0x1
 411 0035 06       		.byte	0x6
 412 0036 84000000 		.4byte	.LASF1
 413 003a 04       		.uleb128 0x4
 414 003b 16000000 		.4byte	.LASF5
 415 003f 02       		.byte	0x2
 416 0040 1C       		.byte	0x1c
 417 0041 45000000 		.4byte	0x45
 418 0045 03       		.uleb128 0x3
 419 0046 01       		.byte	0x1
 420 0047 08       		.byte	0x8
 421 0048 39030000 		.4byte	.LASF2
 422 004c 03       		.uleb128 0x3
 423 004d 02       		.byte	0x2
 424 004e 05       		.byte	0x5
 425 004f 57030000 		.4byte	.LASF3
 426 0053 03       		.uleb128 0x3
 427 0054 02       		.byte	0x2
 428 0055 07       		.byte	0x7
 429 0056 C2010000 		.4byte	.LASF4
 430 005a 04       		.uleb128 0x4
 431 005b EE030000 		.4byte	.LASF6
 432 005f 02       		.byte	0x2
 433 0060 37       		.byte	0x37
 434 0061 65000000 		.4byte	0x65
 435 0065 03       		.uleb128 0x3
 436 0066 04       		.byte	0x4
 437 0067 05       		.byte	0x5
 438 0068 C4000000 		.4byte	.LASF7
 439 006c 04       		.uleb128 0x4
 440 006d 03010000 		.4byte	.LASF8
 441 0071 02       		.byte	0x2
 442 0072 38       		.byte	0x38
 443 0073 77000000 		.4byte	0x77
 444 0077 03       		.uleb128 0x3
 445 0078 04       		.byte	0x4
 446 0079 07       		.byte	0x7
 447 007a 8D010000 		.4byte	.LASF9
 448 007e 03       		.uleb128 0x3
 449 007f 08       		.byte	0x8
 450 0080 05       		.byte	0x5
ARM GAS  /tmp/ccuSMVkc.s 			page 9


 451 0081 76000000 		.4byte	.LASF10
 452 0085 04       		.uleb128 0x4
 453 0086 FF020000 		.4byte	.LASF11
 454 008a 02       		.byte	0x2
 455 008b 4E       		.byte	0x4e
 456 008c 90000000 		.4byte	0x90
 457 0090 03       		.uleb128 0x3
 458 0091 08       		.byte	0x8
 459 0092 07       		.byte	0x7
 460 0093 49000000 		.4byte	.LASF12
 461 0097 04       		.uleb128 0x4
 462 0098 46040000 		.4byte	.LASF13
 463 009c 03       		.byte	0x3
 464 009d 2A       		.byte	0x2a
 465 009e 3A000000 		.4byte	0x3a
 466 00a2 04       		.uleb128 0x4
 467 00a3 31030000 		.4byte	.LASF14
 468 00a7 03       		.byte	0x3
 469 00a8 41       		.byte	0x41
 470 00a9 5A000000 		.4byte	0x5a
 471 00ad 04       		.uleb128 0x4
 472 00ae A7030000 		.4byte	.LASF15
 473 00b2 03       		.byte	0x3
 474 00b3 42       		.byte	0x42
 475 00b4 6C000000 		.4byte	0x6c
 476 00b8 04       		.uleb128 0x4
 477 00b9 0D000000 		.4byte	.LASF16
 478 00bd 03       		.byte	0x3
 479 00be 4E       		.byte	0x4e
 480 00bf 85000000 		.4byte	0x85
 481 00c3 03       		.uleb128 0x3
 482 00c4 01       		.byte	0x1
 483 00c5 02       		.byte	0x2
 484 00c6 2B030000 		.4byte	.LASF17
 485 00ca 04       		.uleb128 0x4
 486 00cb 73020000 		.4byte	.LASF18
 487 00cf 04       		.byte	0x4
 488 00d0 2C       		.byte	0x2c
 489 00d1 97000000 		.4byte	0x97
 490 00d5 04       		.uleb128 0x4
 491 00d6 DA000000 		.4byte	.LASF19
 492 00da 04       		.byte	0x4
 493 00db 2D       		.byte	0x2d
 494 00dc 97000000 		.4byte	0x97
 495 00e0 04       		.uleb128 0x4
 496 00e1 0A030000 		.4byte	.LASF20
 497 00e5 04       		.byte	0x4
 498 00e6 2E       		.byte	0x2e
 499 00e7 97000000 		.4byte	0x97
 500 00eb 04       		.uleb128 0x4
 501 00ec BA000000 		.4byte	.LASF21
 502 00f0 04       		.byte	0x4
 503 00f1 2F       		.byte	0x2f
 504 00f2 97000000 		.4byte	0x97
 505 00f6 04       		.uleb128 0x4
 506 00f7 23030000 		.4byte	.LASF22
 507 00fb 04       		.byte	0x4
ARM GAS  /tmp/ccuSMVkc.s 			page 10


 508 00fc 30       		.byte	0x30
 509 00fd AD000000 		.4byte	0xad
 510 0101 04       		.uleb128 0x4
 511 0102 DA010000 		.4byte	.LASF23
 512 0106 04       		.byte	0x4
 513 0107 31       		.byte	0x31
 514 0108 A2000000 		.4byte	0xa2
 515 010c 04       		.uleb128 0x4
 516 010d 87020000 		.4byte	.LASF24
 517 0111 04       		.byte	0x4
 518 0112 33       		.byte	0x33
 519 0113 AD000000 		.4byte	0xad
 520 0117 04       		.uleb128 0x4
 521 0118 D9030000 		.4byte	.LASF25
 522 011c 04       		.byte	0x4
 523 011d 35       		.byte	0x35
 524 011e AD000000 		.4byte	0xad
 525 0122 04       		.uleb128 0x4
 526 0123 95030000 		.4byte	.LASF26
 527 0127 05       		.byte	0x5
 528 0128 2A       		.byte	0x2a
 529 0129 2D010000 		.4byte	0x12d
 530 012d 05       		.uleb128 0x5
 531 012e 95030000 		.4byte	.LASF26
 532 0132 4C       		.byte	0x4c
 533 0133 06       		.byte	0x6
 534 0134 5E       		.byte	0x5e
 535 0135 36020000 		.4byte	0x236
 536 0139 06       		.uleb128 0x6
 537 013a 86030000 		.4byte	.LASF27
 538 013e 06       		.byte	0x6
 539 013f 5F       		.byte	0x5f
 540 0140 57020000 		.4byte	0x257
 541 0144 00       		.byte	0
 542 0145 06       		.uleb128 0x6
 543 0146 1C030000 		.4byte	.LASF28
 544 014a 06       		.byte	0x6
 545 014b 61       		.byte	0x61
 546 014c 57020000 		.4byte	0x257
 547 0150 04       		.byte	0x4
 548 0151 06       		.uleb128 0x6
 549 0152 6F000000 		.4byte	.LASF29
 550 0156 06       		.byte	0x6
 551 0157 63       		.byte	0x63
 552 0158 F6000000 		.4byte	0xf6
 553 015c 08       		.byte	0x8
 554 015d 06       		.uleb128 0x6
 555 015e 6C050000 		.4byte	.LASF30
 556 0162 06       		.byte	0x6
 557 0163 64       		.byte	0x64
 558 0164 84030000 		.4byte	0x384
 559 0168 0C       		.byte	0xc
 560 0169 06       		.uleb128 0x6
 561 016a F6000000 		.4byte	.LASF31
 562 016e 06       		.byte	0x6
 563 016f 66       		.byte	0x66
 564 0170 57020000 		.4byte	0x257
ARM GAS  /tmp/ccuSMVkc.s 			page 11


 565 0174 10       		.byte	0x10
 566 0175 06       		.uleb128 0x6
 567 0176 C1020000 		.4byte	.LASF32
 568 017a 06       		.byte	0x6
 569 017b 67       		.byte	0x67
 570 017c 57020000 		.4byte	0x257
 571 0180 14       		.byte	0x14
 572 0181 06       		.uleb128 0x6
 573 0182 78040000 		.4byte	.LASF33
 574 0186 06       		.byte	0x6
 575 0187 6E       		.byte	0x6e
 576 0188 FD050000 		.4byte	0x5fd
 577 018c 18       		.byte	0x18
 578 018d 06       		.uleb128 0x6
 579 018e 5A010000 		.4byte	.LASF34
 580 0192 06       		.byte	0x6
 581 0193 74       		.byte	0x74
 582 0194 0F060000 		.4byte	0x60f
 583 0198 1C       		.byte	0x1c
 584 0199 06       		.uleb128 0x6
 585 019a 61030000 		.4byte	.LASF35
 586 019e 06       		.byte	0x6
 587 019f 79       		.byte	0x79
 588 01a0 D5000000 		.4byte	0xd5
 589 01a4 20       		.byte	0x20
 590 01a5 06       		.uleb128 0x6
 591 01a6 8D030000 		.4byte	.LASF36
 592 01aa 06       		.byte	0x6
 593 01ab 7D       		.byte	0x7d
 594 01ac CA000000 		.4byte	0xca
 595 01b0 21       		.byte	0x21
 596 01b1 06       		.uleb128 0x6
 597 01b2 2A040000 		.4byte	.LASF37
 598 01b6 06       		.byte	0x6
 599 01b7 82       		.byte	0x82
 600 01b8 E0000000 		.4byte	0xe0
 601 01bc 22       		.byte	0x22
 602 01bd 06       		.uleb128 0x6
 603 01be 69030000 		.4byte	.LASF38
 604 01c2 06       		.byte	0x6
 605 01c3 88       		.byte	0x88
 606 01c4 EB000000 		.4byte	0xeb
 607 01c8 23       		.byte	0x23
 608 01c9 06       		.uleb128 0x6
 609 01ca F8030000 		.4byte	.LASF39
 610 01ce 06       		.byte	0x6
 611 01cf 8F       		.byte	0x8f
 612 01d0 25050000 		.4byte	0x525
 613 01d4 24       		.byte	0x24
 614 01d5 07       		.uleb128 0x7
 615 01d6 705F7500 		.ascii	"p_u\000"
 616 01da 06       		.byte	0x6
 617 01db B4       		.byte	0xb4
 618 01dc C8050000 		.4byte	0x5c8
 619 01e0 28       		.byte	0x28
 620 01e1 06       		.uleb128 0x6
 621 01e2 72050000 		.4byte	.LASF40
ARM GAS  /tmp/ccuSMVkc.s 			page 12


 622 01e6 06       		.byte	0x6
 623 01e7 B9       		.byte	0xb9
 624 01e8 7D020000 		.4byte	0x27d
 625 01ec 2C       		.byte	0x2c
 626 01ed 06       		.uleb128 0x6
 627 01ee 1F040000 		.4byte	.LASF41
 628 01f2 06       		.byte	0x6
 629 01f3 BF       		.byte	0xbf
 630 01f4 5D020000 		.4byte	0x25d
 631 01f8 30       		.byte	0x30
 632 01f9 06       		.uleb128 0x6
 633 01fa 00000000 		.4byte	.LASF42
 634 01fe 06       		.byte	0x6
 635 01ff C3       		.byte	0xc3
 636 0200 01010000 		.4byte	0x101
 637 0204 38       		.byte	0x38
 638 0205 06       		.uleb128 0x6
 639 0206 9C030000 		.4byte	.LASF43
 640 020a 06       		.byte	0x6
 641 020b C9       		.byte	0xc9
 642 020c 0C010000 		.4byte	0x10c
 643 0210 3C       		.byte	0x3c
 644 0211 06       		.uleb128 0x6
 645 0212 4D030000 		.4byte	.LASF44
 646 0216 06       		.byte	0x6
 647 0217 D0       		.byte	0xd0
 648 0218 15060000 		.4byte	0x615
 649 021c 40       		.byte	0x40
 650 021d 06       		.uleb128 0x6
 651 021e E3030000 		.4byte	.LASF45
 652 0222 06       		.byte	0x6
 653 0223 D4       		.byte	0xd4
 654 0224 F6000000 		.4byte	0xf6
 655 0228 44       		.byte	0x44
 656 0229 06       		.uleb128 0x6
 657 022a AA000000 		.4byte	.LASF46
 658 022e 06       		.byte	0x6
 659 022f DA       		.byte	0xda
 660 0230 93020000 		.4byte	0x293
 661 0234 48       		.byte	0x48
 662 0235 00       		.byte	0
 663 0236 08       		.uleb128 0x8
 664 0237 08       		.byte	0x8
 665 0238 05       		.byte	0x5
 666 0239 61       		.byte	0x61
 667 023a 57020000 		.4byte	0x257
 668 023e 06       		.uleb128 0x6
 669 023f 86030000 		.4byte	.LASF27
 670 0243 05       		.byte	0x5
 671 0244 62       		.byte	0x62
 672 0245 57020000 		.4byte	0x257
 673 0249 00       		.byte	0
 674 024a 06       		.uleb128 0x6
 675 024b 1C030000 		.4byte	.LASF28
 676 024f 05       		.byte	0x5
 677 0250 64       		.byte	0x64
 678 0251 57020000 		.4byte	0x257
ARM GAS  /tmp/ccuSMVkc.s 			page 13


 679 0255 04       		.byte	0x4
 680 0256 00       		.byte	0
 681 0257 09       		.uleb128 0x9
 682 0258 04       		.byte	0x4
 683 0259 22010000 		.4byte	0x122
 684 025d 04       		.uleb128 0x4
 685 025e CF020000 		.4byte	.LASF47
 686 0262 05       		.byte	0x5
 687 0263 66       		.byte	0x66
 688 0264 36020000 		.4byte	0x236
 689 0268 08       		.uleb128 0x8
 690 0269 04       		.byte	0x4
 691 026a 05       		.byte	0x5
 692 026b 6B       		.byte	0x6b
 693 026c 7D020000 		.4byte	0x27d
 694 0270 06       		.uleb128 0x6
 695 0271 86030000 		.4byte	.LASF27
 696 0275 05       		.byte	0x5
 697 0276 6D       		.byte	0x6d
 698 0277 57020000 		.4byte	0x257
 699 027b 00       		.byte	0
 700 027c 00       		.byte	0
 701 027d 04       		.uleb128 0x4
 702 027e 7B020000 		.4byte	.LASF48
 703 0282 05       		.byte	0x5
 704 0283 70       		.byte	0x70
 705 0284 68020000 		.4byte	0x268
 706 0288 04       		.uleb128 0x4
 707 0289 2B010000 		.4byte	.LASF49
 708 028d 07       		.byte	0x7
 709 028e E5       		.byte	0xe5
 710 028f 93020000 		.4byte	0x293
 711 0293 0A       		.uleb128 0xa
 712 0294 04       		.byte	0x4
 713 0295 04       		.uleb128 0x4
 714 0296 99020000 		.4byte	.LASF50
 715 029a 07       		.byte	0x7
 716 029b EB       		.byte	0xeb
 717 029c B8000000 		.4byte	0xb8
 718 02a0 05       		.uleb128 0x5
 719 02a1 79010000 		.4byte	.LASF51
 720 02a5 20       		.byte	0x20
 721 02a6 07       		.byte	0x7
 722 02a7 ED       		.byte	0xed
 723 02a8 08030000 		.4byte	0x308
 724 02ac 07       		.uleb128 0x7
 725 02ad 723000   		.ascii	"r0\000"
 726 02b0 07       		.byte	0x7
 727 02b1 EE       		.byte	0xee
 728 02b2 88020000 		.4byte	0x288
 729 02b6 00       		.byte	0
 730 02b7 07       		.uleb128 0x7
 731 02b8 723100   		.ascii	"r1\000"
 732 02bb 07       		.byte	0x7
 733 02bc EF       		.byte	0xef
 734 02bd 88020000 		.4byte	0x288
 735 02c1 04       		.byte	0x4
ARM GAS  /tmp/ccuSMVkc.s 			page 14


 736 02c2 07       		.uleb128 0x7
 737 02c3 723200   		.ascii	"r2\000"
 738 02c6 07       		.byte	0x7
 739 02c7 F0       		.byte	0xf0
 740 02c8 88020000 		.4byte	0x288
 741 02cc 08       		.byte	0x8
 742 02cd 07       		.uleb128 0x7
 743 02ce 723300   		.ascii	"r3\000"
 744 02d1 07       		.byte	0x7
 745 02d2 F1       		.byte	0xf1
 746 02d3 88020000 		.4byte	0x288
 747 02d7 0C       		.byte	0xc
 748 02d8 07       		.uleb128 0x7
 749 02d9 72313200 		.ascii	"r12\000"
 750 02dd 07       		.byte	0x7
 751 02de F2       		.byte	0xf2
 752 02df 88020000 		.4byte	0x288
 753 02e3 10       		.byte	0x10
 754 02e4 06       		.uleb128 0x6
 755 02e5 72010000 		.4byte	.LASF52
 756 02e9 07       		.byte	0x7
 757 02ea F3       		.byte	0xf3
 758 02eb 88020000 		.4byte	0x288
 759 02ef 14       		.byte	0x14
 760 02f0 07       		.uleb128 0x7
 761 02f1 706300   		.ascii	"pc\000"
 762 02f4 07       		.byte	0x7
 763 02f5 F4       		.byte	0xf4
 764 02f6 88020000 		.4byte	0x288
 765 02fa 18       		.byte	0x18
 766 02fb 06       		.uleb128 0x6
 767 02fc 73030000 		.4byte	.LASF53
 768 0300 07       		.byte	0x7
 769 0301 F5       		.byte	0xf5
 770 0302 88020000 		.4byte	0x288
 771 0306 1C       		.byte	0x1c
 772 0307 00       		.byte	0
 773 0308 0B       		.uleb128 0xb
 774 0309 18040000 		.4byte	.LASF54
 775 030d 24       		.byte	0x24
 776 030e 07       		.byte	0x7
 777 030f 0C01     		.2byte	0x10c
 778 0311 84030000 		.4byte	0x384
 779 0315 0C       		.uleb128 0xc
 780 0316 723400   		.ascii	"r4\000"
 781 0319 07       		.byte	0x7
 782 031a 1F01     		.2byte	0x11f
 783 031c 88020000 		.4byte	0x288
 784 0320 00       		.byte	0
 785 0321 0C       		.uleb128 0xc
 786 0322 723500   		.ascii	"r5\000"
 787 0325 07       		.byte	0x7
 788 0326 2001     		.2byte	0x120
 789 0328 88020000 		.4byte	0x288
 790 032c 04       		.byte	0x4
 791 032d 0C       		.uleb128 0xc
 792 032e 723600   		.ascii	"r6\000"
ARM GAS  /tmp/ccuSMVkc.s 			page 15


 793 0331 07       		.byte	0x7
 794 0332 2101     		.2byte	0x121
 795 0334 88020000 		.4byte	0x288
 796 0338 08       		.byte	0x8
 797 0339 0C       		.uleb128 0xc
 798 033a 723700   		.ascii	"r7\000"
 799 033d 07       		.byte	0x7
 800 033e 2201     		.2byte	0x122
 801 0340 88020000 		.4byte	0x288
 802 0344 0C       		.byte	0xc
 803 0345 0C       		.uleb128 0xc
 804 0346 723800   		.ascii	"r8\000"
 805 0349 07       		.byte	0x7
 806 034a 2301     		.2byte	0x123
 807 034c 88020000 		.4byte	0x288
 808 0350 10       		.byte	0x10
 809 0351 0C       		.uleb128 0xc
 810 0352 723900   		.ascii	"r9\000"
 811 0355 07       		.byte	0x7
 812 0356 2401     		.2byte	0x124
 813 0358 88020000 		.4byte	0x288
 814 035c 14       		.byte	0x14
 815 035d 0C       		.uleb128 0xc
 816 035e 72313000 		.ascii	"r10\000"
 817 0362 07       		.byte	0x7
 818 0363 2501     		.2byte	0x125
 819 0365 88020000 		.4byte	0x288
 820 0369 18       		.byte	0x18
 821 036a 0C       		.uleb128 0xc
 822 036b 72313100 		.ascii	"r11\000"
 823 036f 07       		.byte	0x7
 824 0370 2601     		.2byte	0x126
 825 0372 88020000 		.4byte	0x288
 826 0376 1C       		.byte	0x1c
 827 0377 0C       		.uleb128 0xc
 828 0378 6C7200   		.ascii	"lr\000"
 829 037b 07       		.byte	0x7
 830 037c 2701     		.2byte	0x127
 831 037e 88020000 		.4byte	0x288
 832 0382 20       		.byte	0x20
 833 0383 00       		.byte	0
 834 0384 0B       		.uleb128 0xb
 835 0385 BA010000 		.4byte	.LASF55
 836 0389 04       		.byte	0x4
 837 038a 07       		.byte	0x7
 838 038b 3101     		.2byte	0x131
 839 038d 9F030000 		.4byte	0x39f
 840 0391 0C       		.uleb128 0xc
 841 0392 72313300 		.ascii	"r13\000"
 842 0396 07       		.byte	0x7
 843 0397 3201     		.2byte	0x132
 844 0399 9F030000 		.4byte	0x39f
 845 039d 00       		.byte	0
 846 039e 00       		.byte	0
 847 039f 09       		.uleb128 0x9
 848 03a0 04       		.byte	0x4
 849 03a1 08030000 		.4byte	0x308
ARM GAS  /tmp/ccuSMVkc.s 			page 16


 850 03a5 04       		.uleb128 0x4
 851 03a6 CA030000 		.4byte	.LASF56
 852 03aa 08       		.byte	0x8
 853 03ab 3A       		.byte	0x3a
 854 03ac B0030000 		.4byte	0x3b0
 855 03b0 0D       		.uleb128 0xd
 856 03b1 AD000000 		.4byte	0xad
 857 03b5 03       		.uleb128 0x3
 858 03b6 04       		.byte	0x4
 859 03b7 07       		.byte	0x7
 860 03b8 A4020000 		.4byte	.LASF57
 861 03bc 08       		.uleb128 0x8
 862 03bd 8C       		.byte	0x8c
 863 03be 08       		.byte	0x8
 864 03bf 89       		.byte	0x89
 865 03c0 C1040000 		.4byte	0x4c1
 866 03c4 06       		.uleb128 0x6
 867 03c5 69000000 		.4byte	.LASF58
 868 03c9 08       		.byte	0x8
 869 03ca 8A       		.byte	0x8a
 870 03cb A5030000 		.4byte	0x3a5
 871 03cf 00       		.byte	0
 872 03d0 06       		.uleb128 0x6
 873 03d1 D5010000 		.4byte	.LASF59
 874 03d5 08       		.byte	0x8
 875 03d6 8B       		.byte	0x8b
 876 03d7 A5030000 		.4byte	0x3a5
 877 03db 04       		.byte	0x4
 878 03dc 06       		.uleb128 0x6
 879 03dd 9F010000 		.4byte	.LASF60
 880 03e1 08       		.byte	0x8
 881 03e2 8C       		.byte	0x8c
 882 03e3 A5030000 		.4byte	0x3a5
 883 03e7 08       		.byte	0x8
 884 03e8 06       		.uleb128 0x6
 885 03e9 4C020000 		.4byte	.LASF61
 886 03ed 08       		.byte	0x8
 887 03ee 8D       		.byte	0x8d
 888 03ef A5030000 		.4byte	0x3a5
 889 03f3 0C       		.byte	0xc
 890 03f4 07       		.uleb128 0x7
 891 03f5 53435200 		.ascii	"SCR\000"
 892 03f9 08       		.byte	0x8
 893 03fa 8E       		.byte	0x8e
 894 03fb A5030000 		.4byte	0x3a5
 895 03ff 10       		.byte	0x10
 896 0400 07       		.uleb128 0x7
 897 0401 43435200 		.ascii	"CCR\000"
 898 0405 08       		.byte	0x8
 899 0406 8F       		.byte	0x8f
 900 0407 A5030000 		.4byte	0x3a5
 901 040b 14       		.byte	0x14
 902 040c 06       		.uleb128 0x6
 903 040d FF030000 		.4byte	.LASF62
 904 0411 08       		.byte	0x8
 905 0412 90       		.byte	0x90
 906 0413 D1040000 		.4byte	0x4d1
ARM GAS  /tmp/ccuSMVkc.s 			page 17


 907 0417 18       		.byte	0x18
 908 0418 06       		.uleb128 0x6
 909 0419 47030000 		.4byte	.LASF63
 910 041d 08       		.byte	0x8
 911 041e 91       		.byte	0x91
 912 041f A5030000 		.4byte	0x3a5
 913 0423 24       		.byte	0x24
 914 0424 06       		.uleb128 0x6
 915 0425 BC020000 		.4byte	.LASF64
 916 0429 08       		.byte	0x8
 917 042a 92       		.byte	0x92
 918 042b A5030000 		.4byte	0x3a5
 919 042f 28       		.byte	0x28
 920 0430 06       		.uleb128 0x6
 921 0431 5F050000 		.4byte	.LASF65
 922 0435 08       		.byte	0x8
 923 0436 93       		.byte	0x93
 924 0437 A5030000 		.4byte	0x3a5
 925 043b 2C       		.byte	0x2c
 926 043c 06       		.uleb128 0x6
 927 043d 12030000 		.4byte	.LASF66
 928 0441 08       		.byte	0x8
 929 0442 94       		.byte	0x94
 930 0443 A5030000 		.4byte	0x3a5
 931 0447 30       		.byte	0x30
 932 0448 06       		.uleb128 0x6
 933 0449 5A020000 		.4byte	.LASF67
 934 044d 08       		.byte	0x8
 935 044e 95       		.byte	0x95
 936 044f A5030000 		.4byte	0x3a5
 937 0453 34       		.byte	0x34
 938 0454 06       		.uleb128 0x6
 939 0455 FE000000 		.4byte	.LASF68
 940 0459 08       		.byte	0x8
 941 045a 96       		.byte	0x96
 942 045b A5030000 		.4byte	0x3a5
 943 045f 38       		.byte	0x38
 944 0460 06       		.uleb128 0x6
 945 0461 B8030000 		.4byte	.LASF69
 946 0465 08       		.byte	0x8
 947 0466 97       		.byte	0x97
 948 0467 A5030000 		.4byte	0x3a5
 949 046b 3C       		.byte	0x3c
 950 046c 07       		.uleb128 0x7
 951 046d 50465200 		.ascii	"PFR\000"
 952 0471 08       		.byte	0x8
 953 0472 98       		.byte	0x98
 954 0473 E6040000 		.4byte	0x4e6
 955 0477 40       		.byte	0x40
 956 0478 07       		.uleb128 0x7
 957 0479 44465200 		.ascii	"DFR\000"
 958 047d 08       		.byte	0x8
 959 047e 99       		.byte	0x99
 960 047f A5030000 		.4byte	0x3a5
 961 0483 48       		.byte	0x48
 962 0484 07       		.uleb128 0x7
 963 0485 41445200 		.ascii	"ADR\000"
ARM GAS  /tmp/ccuSMVkc.s 			page 18


 964 0489 08       		.byte	0x8
 965 048a 9A       		.byte	0x9a
 966 048b A5030000 		.4byte	0x3a5
 967 048f 4C       		.byte	0x4c
 968 0490 06       		.uleb128 0x6
 969 0491 3B040000 		.4byte	.LASF70
 970 0495 08       		.byte	0x8
 971 0496 9B       		.byte	0x9b
 972 0497 FB040000 		.4byte	0x4fb
 973 049b 50       		.byte	0x50
 974 049c 07       		.uleb128 0x7
 975 049d 53415200 		.ascii	"SAR\000"
 976 04a1 08       		.byte	0x8
 977 04a2 9C       		.byte	0x9c
 978 04a3 10050000 		.4byte	0x510
 979 04a7 60       		.byte	0x60
 980 04a8 06       		.uleb128 0x6
 981 04a9 BD030000 		.4byte	.LASF71
 982 04ad 08       		.byte	0x8
 983 04ae 9D       		.byte	0x9d
 984 04af 15050000 		.4byte	0x515
 985 04b3 74       		.byte	0x74
 986 04b4 06       		.uleb128 0x6
 987 04b5 59050000 		.4byte	.LASF72
 988 04b9 08       		.byte	0x8
 989 04ba 9E       		.byte	0x9e
 990 04bb A5030000 		.4byte	0x3a5
 991 04bf 88       		.byte	0x88
 992 04c0 00       		.byte	0
 993 04c1 0E       		.uleb128 0xe
 994 04c2 A5030000 		.4byte	0x3a5
 995 04c6 D1040000 		.4byte	0x4d1
 996 04ca 0F       		.uleb128 0xf
 997 04cb B5030000 		.4byte	0x3b5
 998 04cf 02       		.byte	0x2
 999 04d0 00       		.byte	0
 1000 04d1 0D       		.uleb128 0xd
 1001 04d2 C1040000 		.4byte	0x4c1
 1002 04d6 0E       		.uleb128 0xe
 1003 04d7 A5030000 		.4byte	0x3a5
 1004 04db E6040000 		.4byte	0x4e6
 1005 04df 0F       		.uleb128 0xf
 1006 04e0 B5030000 		.4byte	0x3b5
 1007 04e4 01       		.byte	0x1
 1008 04e5 00       		.byte	0
 1009 04e6 0D       		.uleb128 0xd
 1010 04e7 D6040000 		.4byte	0x4d6
 1011 04eb 0E       		.uleb128 0xe
 1012 04ec A5030000 		.4byte	0x3a5
 1013 04f0 FB040000 		.4byte	0x4fb
 1014 04f4 0F       		.uleb128 0xf
 1015 04f5 B5030000 		.4byte	0x3b5
 1016 04f9 03       		.byte	0x3
 1017 04fa 00       		.byte	0
 1018 04fb 0D       		.uleb128 0xd
 1019 04fc EB040000 		.4byte	0x4eb
 1020 0500 0E       		.uleb128 0xe
ARM GAS  /tmp/ccuSMVkc.s 			page 19


 1021 0501 A5030000 		.4byte	0x3a5
 1022 0505 10050000 		.4byte	0x510
 1023 0509 0F       		.uleb128 0xf
 1024 050a B5030000 		.4byte	0x3b5
 1025 050e 04       		.byte	0x4
 1026 050f 00       		.byte	0
 1027 0510 0D       		.uleb128 0xd
 1028 0511 00050000 		.4byte	0x500
 1029 0515 0D       		.uleb128 0xd
 1030 0516 00050000 		.4byte	0x500
 1031 051a 04       		.uleb128 0x4
 1032 051b 20000000 		.4byte	.LASF73
 1033 051f 08       		.byte	0x8
 1034 0520 9F       		.byte	0x9f
 1035 0521 BC030000 		.4byte	0x3bc
 1036 0525 0D       		.uleb128 0xd
 1037 0526 17010000 		.4byte	0x117
 1038 052a 08       		.uleb128 0x8
 1039 052b 1C       		.byte	0x1c
 1040 052c 09       		.byte	0x9
 1041 052d 5E       		.byte	0x5e
 1042 052e 7B050000 		.4byte	0x57b
 1043 0532 06       		.uleb128 0x6
 1044 0533 B0030000 		.4byte	.LASF74
 1045 0537 09       		.byte	0x9
 1046 0538 5F       		.byte	0x5f
 1047 0539 5D020000 		.4byte	0x25d
 1048 053d 00       		.byte	0
 1049 053e 06       		.uleb128 0x6
 1050 053f 78030000 		.4byte	.LASF75
 1051 0543 09       		.byte	0x9
 1052 0544 60       		.byte	0x60
 1053 0545 F6000000 		.4byte	0xf6
 1054 0549 08       		.byte	0x8
 1055 054a 06       		.uleb128 0x6
 1056 054b C9020000 		.4byte	.LASF76
 1057 054f 09       		.byte	0x9
 1058 0550 62       		.byte	0x62
 1059 0551 84030000 		.4byte	0x384
 1060 0555 0C       		.byte	0xc
 1061 0556 06       		.uleb128 0x6
 1062 0557 52020000 		.4byte	.LASF77
 1063 055b 09       		.byte	0x9
 1064 055c 65       		.byte	0x65
 1065 055d 57020000 		.4byte	0x257
 1066 0561 10       		.byte	0x10
 1067 0562 06       		.uleb128 0x6
 1068 0563 E6020000 		.4byte	.LASF78
 1069 0567 09       		.byte	0x9
 1070 0568 66       		.byte	0x66
 1071 0569 57020000 		.4byte	0x257
 1072 056d 14       		.byte	0x14
 1073 056e 06       		.uleb128 0x6
 1074 056f DC020000 		.4byte	.LASF79
 1075 0573 09       		.byte	0x9
 1076 0574 69       		.byte	0x69
 1077 0575 57020000 		.4byte	0x257
ARM GAS  /tmp/ccuSMVkc.s 			page 20


 1078 0579 18       		.byte	0x18
 1079 057a 00       		.byte	0
 1080 057b 04       		.uleb128 0x4
 1081 057c 31040000 		.4byte	.LASF80
 1082 0580 09       		.byte	0x9
 1083 0581 6B       		.byte	0x6b
 1084 0582 2A050000 		.4byte	0x52a
 1085 0586 05       		.uleb128 0x5
 1086 0587 93020000 		.4byte	.LASF81
 1087 058b 10       		.byte	0x10
 1088 058c 0A       		.byte	0xa
 1089 058d 2C       		.byte	0x2c
 1090 058e B7050000 		.4byte	0x5b7
 1091 0592 06       		.uleb128 0x6
 1092 0593 B2000000 		.4byte	.LASF82
 1093 0597 0A       		.byte	0xa
 1094 0598 2D       		.byte	0x2d
 1095 0599 5D020000 		.4byte	0x25d
 1096 059d 00       		.byte	0
 1097 059e 06       		.uleb128 0x6
 1098 059f 64050000 		.4byte	.LASF83
 1099 05a3 0A       		.byte	0xa
 1100 05a4 2F       		.byte	0x2f
 1101 05a5 57020000 		.4byte	0x257
 1102 05a9 08       		.byte	0x8
 1103 05aa 06       		.uleb128 0x6
 1104 05ab D2030000 		.4byte	.LASF84
 1105 05af 0A       		.byte	0xa
 1106 05b0 31       		.byte	0x31
 1107 05b1 B7050000 		.4byte	0x5b7
 1108 05b5 0C       		.byte	0xc
 1109 05b6 00       		.byte	0
 1110 05b7 09       		.uleb128 0x9
 1111 05b8 04       		.byte	0x4
 1112 05b9 86050000 		.4byte	0x586
 1113 05bd 04       		.uleb128 0x4
 1114 05be 93020000 		.4byte	.LASF81
 1115 05c2 0A       		.byte	0xa
 1116 05c3 33       		.byte	0x33
 1117 05c4 86050000 		.4byte	0x586
 1118 05c8 10       		.uleb128 0x10
 1119 05c9 04       		.byte	0x4
 1120 05ca 06       		.byte	0x6
 1121 05cb 96       		.byte	0x96
 1122 05cc FD050000 		.4byte	0x5fd
 1123 05d0 11       		.uleb128 0x11
 1124 05d1 06000000 		.4byte	.LASF85
 1125 05d5 06       		.byte	0x6
 1126 05d6 9D       		.byte	0x9d
 1127 05d7 01010000 		.4byte	0x101
 1128 05db 11       		.uleb128 0x11
 1129 05dc 60000000 		.4byte	.LASF86
 1130 05e0 06       		.byte	0x6
 1131 05e1 A4       		.byte	0xa4
 1132 05e2 01010000 		.4byte	0x101
 1133 05e6 11       		.uleb128 0x11
 1134 05e7 71040000 		.4byte	.LASF87
ARM GAS  /tmp/ccuSMVkc.s 			page 21


 1135 05eb 06       		.byte	0x6
 1136 05ec AB       		.byte	0xab
 1137 05ed 93020000 		.4byte	0x293
 1138 05f1 11       		.uleb128 0x11
 1139 05f2 7F030000 		.4byte	.LASF88
 1140 05f6 06       		.byte	0x6
 1141 05f7 B2       		.byte	0xb2
 1142 05f8 0C010000 		.4byte	0x10c
 1143 05fc 00       		.byte	0
 1144 05fd 09       		.uleb128 0x9
 1145 05fe 04       		.byte	0x4
 1146 05ff 03060000 		.4byte	0x603
 1147 0603 12       		.uleb128 0x12
 1148 0604 08060000 		.4byte	0x608
 1149 0608 03       		.uleb128 0x3
 1150 0609 01       		.byte	0x1
 1151 060a 08       		.byte	0x8
 1152 060b C5030000 		.4byte	.LASF89
 1153 060f 09       		.uleb128 0x9
 1154 0610 04       		.byte	0x4
 1155 0611 95020000 		.4byte	0x295
 1156 0615 09       		.uleb128 0x9
 1157 0616 04       		.byte	0x4
 1158 0617 BD050000 		.4byte	0x5bd
 1159 061b 13       		.uleb128 0x13
 1160 061c A4010000 		.4byte	.LASF90
 1161 0620 01       		.byte	0x1
 1162 0621 C8       		.byte	0xc8
 1163 0622 00000000 		.4byte	.LFB11
 1164 0626 0E000000 		.4byte	.LFE11-.LFB11
 1165 062a 01       		.uleb128 0x1
 1166 062b 9C       		.byte	0x9c
 1167 062c 4C060000 		.4byte	0x64c
 1168 0630 14       		.uleb128 0x14
 1169 0631 04000000 		.4byte	.LVL0
 1170 0635 42080000 		.4byte	0x842
 1171 0639 14       		.uleb128 0x14
 1172 063a 08000000 		.4byte	.LVL1
 1173 063e 49080000 		.4byte	0x849
 1174 0642 14       		.uleb128 0x14
 1175 0643 0C000000 		.4byte	.LVL2
 1176 0647 50080000 		.4byte	0x850
 1177 064b 00       		.byte	0
 1178 064c 13       		.uleb128 0x13
 1179 064d CD000000 		.4byte	.LASF91
 1180 0651 01       		.byte	0x1
 1181 0652 41       		.byte	0x41
 1182 0653 00000000 		.4byte	.LFB8
 1183 0657 12000000 		.4byte	.LFE8-.LFB8
 1184 065b 01       		.uleb128 0x1
 1185 065c 9C       		.byte	0x9c
 1186 065d 88060000 		.4byte	0x688
 1187 0661 15       		.uleb128 0x15
 1188 0662 17030000 		.4byte	.LASF92
 1189 0666 01       		.byte	0x1
 1190 0667 42       		.byte	0x42
 1191 0668 88060000 		.4byte	0x688
ARM GAS  /tmp/ccuSMVkc.s 			page 22


 1192 066c 00000000 		.4byte	.LLST0
 1193 0670 16       		.uleb128 0x16
 1194 0671 0A000000 		.4byte	.LBB2
 1195 0675 08000000 		.4byte	.LBE2-.LBB2
 1196 0679 17       		.uleb128 0x17
 1197 067a 746D7000 		.ascii	"tmp\000"
 1198 067e 01       		.byte	0x1
 1199 067f 52       		.byte	0x52
 1200 0680 AD000000 		.4byte	0xad
 1201 0684 01       		.uleb128 0x1
 1202 0685 53       		.byte	0x53
 1203 0686 00       		.byte	0
 1204 0687 00       		.byte	0
 1205 0688 09       		.uleb128 0x9
 1206 0689 04       		.byte	0x4
 1207 068a A0020000 		.4byte	0x2a0
 1208 068e 13       		.uleb128 0x13
 1209 068f 4E040000 		.4byte	.LASF93
 1210 0693 01       		.byte	0x1
 1211 0694 78       		.byte	0x78
 1212 0695 00000000 		.4byte	.LFB9
 1213 0699 30000000 		.4byte	.LFE9-.LFB9
 1214 069d 01       		.uleb128 0x1
 1215 069e 9C       		.byte	0x9c
 1216 069f EA060000 		.4byte	0x6ea
 1217 06a3 18       		.uleb128 0x18
 1218 06a4 14000000 		.4byte	.LVL6
 1219 06a8 57080000 		.4byte	0x857
 1220 06ac BB060000 		.4byte	0x6bb
 1221 06b0 19       		.uleb128 0x19
 1222 06b1 01       		.uleb128 0x1
 1223 06b2 51       		.byte	0x51
 1224 06b3 01       		.uleb128 0x1
 1225 06b4 40       		.byte	0x40
 1226 06b5 19       		.uleb128 0x19
 1227 06b6 01       		.uleb128 0x1
 1228 06b7 50       		.byte	0x50
 1229 06b8 01       		.uleb128 0x1
 1230 06b9 37       		.byte	0x37
 1231 06ba 00       		.byte	0
 1232 06bb 18       		.uleb128 0x18
 1233 06bc 1C000000 		.4byte	.LVL7
 1234 06c0 57080000 		.4byte	0x857
 1235 06c4 D4060000 		.4byte	0x6d4
 1236 06c8 19       		.uleb128 0x19
 1237 06c9 01       		.uleb128 0x1
 1238 06ca 51       		.byte	0x51
 1239 06cb 02       		.uleb128 0x2
 1240 06cc 08       		.byte	0x8
 1241 06cd 20       		.byte	0x20
 1242 06ce 19       		.uleb128 0x19
 1243 06cf 01       		.uleb128 0x1
 1244 06d0 50       		.byte	0x50
 1245 06d1 01       		.uleb128 0x1
 1246 06d2 3A       		.byte	0x3a
 1247 06d3 00       		.byte	0
 1248 06d4 1A       		.uleb128 0x1a
ARM GAS  /tmp/ccuSMVkc.s 			page 23


 1249 06d5 28000000 		.4byte	.LVL8
 1250 06d9 57080000 		.4byte	0x857
 1251 06dd 19       		.uleb128 0x19
 1252 06de 01       		.uleb128 0x1
 1253 06df 51       		.byte	0x51
 1254 06e0 02       		.uleb128 0x2
 1255 06e1 08       		.byte	0x8
 1256 06e2 80       		.byte	0x80
 1257 06e3 19       		.uleb128 0x19
 1258 06e4 01       		.uleb128 0x1
 1259 06e5 50       		.byte	0x50
 1260 06e6 01       		.uleb128 0x1
 1261 06e7 3B       		.byte	0x3b
 1262 06e8 00       		.byte	0
 1263 06e9 00       		.byte	0
 1264 06ea 13       		.uleb128 0x13
 1265 06eb 60020000 		.4byte	.LASF94
 1266 06ef 01       		.byte	0x1
 1267 06f0 96       		.byte	0x96
 1268 06f1 00000000 		.4byte	.LFB10
 1269 06f5 70000000 		.4byte	.LFE10-.LFB10
 1270 06f9 01       		.uleb128 0x1
 1271 06fa 9C       		.byte	0x9c
 1272 06fb 4B070000 		.4byte	0x74b
 1273 06ff 1B       		.uleb128 0x1b
 1274 0700 00000000 		.4byte	.LBB3
 1275 0704 06000000 		.4byte	.LBE3-.LBB3
 1276 0708 1A070000 		.4byte	0x71a
 1277 070c 17       		.uleb128 0x17
 1278 070d 746D7000 		.ascii	"tmp\000"
 1279 0711 01       		.byte	0x1
 1280 0712 98       		.byte	0x98
 1281 0713 AD000000 		.4byte	0xad
 1282 0717 01       		.uleb128 0x1
 1283 0718 53       		.byte	0x53
 1284 0719 00       		.byte	0
 1285 071a 1C       		.uleb128 0x1c
 1286 071b 00000000 		.4byte	.Ldebug_ranges0+0
 1287 071f 33070000 		.4byte	0x733
 1288 0723 15       		.uleb128 0x15
 1289 0724 17030000 		.4byte	.LASF92
 1290 0728 01       		.byte	0x1
 1291 0729 9A       		.byte	0x9a
 1292 072a 88060000 		.4byte	0x688
 1293 072e 20000000 		.4byte	.LLST1
 1294 0732 00       		.byte	0
 1295 0733 16       		.uleb128 0x16
 1296 0734 46000000 		.4byte	.LBB5
 1297 0738 06000000 		.4byte	.LBE5-.LBB5
 1298 073c 17       		.uleb128 0x17
 1299 073d 746D7000 		.ascii	"tmp\000"
 1300 0741 01       		.byte	0x1
 1301 0742 BE       		.byte	0xbe
 1302 0743 AD000000 		.4byte	0xad
 1303 0747 01       		.uleb128 0x1
 1304 0748 53       		.byte	0x53
 1305 0749 00       		.byte	0
ARM GAS  /tmp/ccuSMVkc.s 			page 24


 1306 074a 00       		.byte	0
 1307 074b 13       		.uleb128 0x13
 1308 074c 3B000000 		.4byte	.LASF95
 1309 0750 01       		.byte	0x1
 1310 0751 2F       		.byte	0x2f
 1311 0752 00000000 		.4byte	.LFB7
 1312 0756 2A000000 		.4byte	.LFE7-.LFB7
 1313 075a 01       		.uleb128 0x1
 1314 075b 9C       		.byte	0x9c
 1315 075c CD070000 		.4byte	0x7cd
 1316 0760 1B       		.uleb128 0x1b
 1317 0761 06000000 		.4byte	.LBB7
 1318 0765 06000000 		.4byte	.LBE7-.LBB7
 1319 0769 7B070000 		.4byte	0x77b
 1320 076d 17       		.uleb128 0x17
 1321 076e 746D7000 		.ascii	"tmp\000"
 1322 0772 01       		.byte	0x1
 1323 0773 33       		.byte	0x33
 1324 0774 AD000000 		.4byte	0xad
 1325 0778 01       		.uleb128 0x1
 1326 0779 53       		.byte	0x53
 1327 077a 00       		.byte	0
 1328 077b 1B       		.uleb128 0x1b
 1329 077c 18000000 		.4byte	.LBB8
 1330 0780 06000000 		.4byte	.LBE8-.LBB8
 1331 0784 96070000 		.4byte	0x796
 1332 0788 17       		.uleb128 0x17
 1333 0789 746D7000 		.ascii	"tmp\000"
 1334 078d 01       		.byte	0x1
 1335 078e 35       		.byte	0x35
 1336 078f AD000000 		.4byte	0xad
 1337 0793 01       		.uleb128 0x1
 1338 0794 53       		.byte	0x53
 1339 0795 00       		.byte	0
 1340 0796 14       		.uleb128 0x14
 1341 0797 06000000 		.4byte	.LVL14
 1342 079b 6E080000 		.4byte	0x86e
 1343 079f 14       		.uleb128 0x14
 1344 07a0 10000000 		.4byte	.LVL15
 1345 07a4 75080000 		.4byte	0x875
 1346 07a8 14       		.uleb128 0x14
 1347 07a9 14000000 		.4byte	.LVL16
 1348 07ad 7C080000 		.4byte	0x87c
 1349 07b1 14       		.uleb128 0x14
 1350 07b2 18000000 		.4byte	.LVL17
 1351 07b6 83080000 		.4byte	0x883
 1352 07ba 14       		.uleb128 0x14
 1353 07bb 22000000 		.4byte	.LVL18
 1354 07bf 8A080000 		.4byte	0x88a
 1355 07c3 1D       		.uleb128 0x1d
 1356 07c4 2A000000 		.4byte	.LVL19
 1357 07c8 EA060000 		.4byte	0x6ea
 1358 07cc 00       		.byte	0
 1359 07cd 13       		.uleb128 0x13
 1360 07ce 80010000 		.4byte	.LASF96
 1361 07d2 01       		.byte	0x1
 1362 07d3 E5       		.byte	0xe5
ARM GAS  /tmp/ccuSMVkc.s 			page 25


 1363 07d4 00000000 		.4byte	.LFB12
 1364 07d8 10000000 		.4byte	.LFE12-.LFB12
 1365 07dc 01       		.uleb128 0x1
 1366 07dd 9C       		.byte	0x9c
 1367 07de FD070000 		.4byte	0x7fd
 1368 07e2 1E       		.uleb128 0x1e
 1369 07e3 6E747000 		.ascii	"ntp\000"
 1370 07e7 01       		.byte	0x1
 1371 07e8 E5       		.byte	0xe5
 1372 07e9 57020000 		.4byte	0x257
 1373 07ed 01       		.uleb128 0x1
 1374 07ee 50       		.byte	0x50
 1375 07ef 1E       		.uleb128 0x1e
 1376 07f0 6F747000 		.ascii	"otp\000"
 1377 07f4 01       		.byte	0x1
 1378 07f5 E5       		.byte	0xe5
 1379 07f6 57020000 		.4byte	0x257
 1380 07fa 01       		.uleb128 0x1
 1381 07fb 51       		.byte	0x51
 1382 07fc 00       		.byte	0
 1383 07fd 13       		.uleb128 0x13
 1384 07fe E3000000 		.4byte	.LASF97
 1385 0802 01       		.byte	0x1
 1386 0803 FC       		.byte	0xfc
 1387 0804 00000000 		.4byte	.LFB13
 1388 0808 16000000 		.4byte	.LFE13-.LFB13
 1389 080c 01       		.uleb128 0x1
 1390 080d 9C       		.byte	0x9c
 1391 080e 37080000 		.4byte	0x837
 1392 0812 1B       		.uleb128 0x1b
 1393 0813 06000000 		.4byte	.LBB9
 1394 0817 06000000 		.4byte	.LBE9-.LBB9
 1395 081b 2D080000 		.4byte	0x82d
 1396 081f 17       		.uleb128 0x17
 1397 0820 746D7000 		.ascii	"tmp\000"
 1398 0824 01       		.byte	0x1
 1399 0825 FE       		.byte	0xfe
 1400 0826 AD000000 		.4byte	0xad
 1401 082a 01       		.uleb128 0x1
 1402 082b 53       		.byte	0x53
 1403 082c 00       		.byte	0
 1404 082d 14       		.uleb128 0x14
 1405 082e 06000000 		.4byte	.LVL21
 1406 0832 50080000 		.4byte	0x850
 1407 0836 00       		.byte	0
 1408 0837 1F       		.uleb128 0x1f
 1409 0838 40040000 		.4byte	.LASF109
 1410 083c 09       		.byte	0x9
 1411 083d 6F       		.byte	0x6f
 1412 083e 7B050000 		.4byte	0x57b
 1413 0842 20       		.uleb128 0x20
 1414 0843 AD020000 		.4byte	.LASF98
 1415 0847 0B       		.byte	0xb
 1416 0848 E7       		.byte	0xe7
 1417 0849 20       		.uleb128 0x20
 1418 084a 34010000 		.4byte	.LASF99
 1419 084e 09       		.byte	0x9
ARM GAS  /tmp/ccuSMVkc.s 			page 26


 1420 084f A8       		.byte	0xa8
 1421 0850 20       		.uleb128 0x20
 1422 0851 EE020000 		.4byte	.LASF100
 1423 0855 0B       		.byte	0xb
 1424 0856 E8       		.byte	0xe8
 1425 0857 21       		.uleb128 0x21
 1426 0858 0E010000 		.4byte	.LASF110
 1427 085c 08       		.byte	0x8
 1428 085d 2501     		.2byte	0x125
 1429 085f 6E080000 		.4byte	0x86e
 1430 0863 22       		.uleb128 0x22
 1431 0864 AD000000 		.4byte	0xad
 1432 0868 22       		.uleb128 0x22
 1433 0869 AD000000 		.4byte	0xad
 1434 086d 00       		.byte	0
 1435 086e 20       		.uleb128 0x20
 1436 086f 46010000 		.4byte	.LASF101
 1437 0873 0B       		.byte	0xb
 1438 0874 EB       		.byte	0xeb
 1439 0875 20       		.uleb128 0x20
 1440 0876 59040000 		.4byte	.LASF102
 1441 087a 0B       		.byte	0xb
 1442 087b E9       		.byte	0xe9
 1443 087c 20       		.uleb128 0x20
 1444 087d 28000000 		.4byte	.LASF103
 1445 0881 0C       		.byte	0xc
 1446 0882 F7       		.byte	0xf7
 1447 0883 20       		.uleb128 0x20
 1448 0884 90000000 		.4byte	.LASF104
 1449 0888 0B       		.byte	0xb
 1450 0889 EA       		.byte	0xea
 1451 088a 20       		.uleb128 0x20
 1452 088b 04040000 		.4byte	.LASF105
 1453 088f 0B       		.byte	0xb
 1454 0890 EC       		.byte	0xec
 1455 0891 00       		.byte	0
 1456              		.section	.debug_abbrev,"",%progbits
 1457              	.Ldebug_abbrev0:
 1458 0000 01       		.uleb128 0x1
 1459 0001 11       		.uleb128 0x11
 1460 0002 01       		.byte	0x1
 1461 0003 25       		.uleb128 0x25
 1462 0004 0E       		.uleb128 0xe
 1463 0005 13       		.uleb128 0x13
 1464 0006 0B       		.uleb128 0xb
 1465 0007 03       		.uleb128 0x3
 1466 0008 0E       		.uleb128 0xe
 1467 0009 1B       		.uleb128 0x1b
 1468 000a 0E       		.uleb128 0xe
 1469 000b 55       		.uleb128 0x55
 1470 000c 17       		.uleb128 0x17
 1471 000d 11       		.uleb128 0x11
 1472 000e 01       		.uleb128 0x1
 1473 000f 10       		.uleb128 0x10
 1474 0010 17       		.uleb128 0x17
 1475 0011 00       		.byte	0
 1476 0012 00       		.byte	0
ARM GAS  /tmp/ccuSMVkc.s 			page 27


 1477 0013 02       		.uleb128 0x2
 1478 0014 24       		.uleb128 0x24
 1479 0015 00       		.byte	0
 1480 0016 0B       		.uleb128 0xb
 1481 0017 0B       		.uleb128 0xb
 1482 0018 3E       		.uleb128 0x3e
 1483 0019 0B       		.uleb128 0xb
 1484 001a 03       		.uleb128 0x3
 1485 001b 08       		.uleb128 0x8
 1486 001c 00       		.byte	0
 1487 001d 00       		.byte	0
 1488 001e 03       		.uleb128 0x3
 1489 001f 24       		.uleb128 0x24
 1490 0020 00       		.byte	0
 1491 0021 0B       		.uleb128 0xb
 1492 0022 0B       		.uleb128 0xb
 1493 0023 3E       		.uleb128 0x3e
 1494 0024 0B       		.uleb128 0xb
 1495 0025 03       		.uleb128 0x3
 1496 0026 0E       		.uleb128 0xe
 1497 0027 00       		.byte	0
 1498 0028 00       		.byte	0
 1499 0029 04       		.uleb128 0x4
 1500 002a 16       		.uleb128 0x16
 1501 002b 00       		.byte	0
 1502 002c 03       		.uleb128 0x3
 1503 002d 0E       		.uleb128 0xe
 1504 002e 3A       		.uleb128 0x3a
 1505 002f 0B       		.uleb128 0xb
 1506 0030 3B       		.uleb128 0x3b
 1507 0031 0B       		.uleb128 0xb
 1508 0032 49       		.uleb128 0x49
 1509 0033 13       		.uleb128 0x13
 1510 0034 00       		.byte	0
 1511 0035 00       		.byte	0
 1512 0036 05       		.uleb128 0x5
 1513 0037 13       		.uleb128 0x13
 1514 0038 01       		.byte	0x1
 1515 0039 03       		.uleb128 0x3
 1516 003a 0E       		.uleb128 0xe
 1517 003b 0B       		.uleb128 0xb
 1518 003c 0B       		.uleb128 0xb
 1519 003d 3A       		.uleb128 0x3a
 1520 003e 0B       		.uleb128 0xb
 1521 003f 3B       		.uleb128 0x3b
 1522 0040 0B       		.uleb128 0xb
 1523 0041 01       		.uleb128 0x1
 1524 0042 13       		.uleb128 0x13
 1525 0043 00       		.byte	0
 1526 0044 00       		.byte	0
 1527 0045 06       		.uleb128 0x6
 1528 0046 0D       		.uleb128 0xd
 1529 0047 00       		.byte	0
 1530 0048 03       		.uleb128 0x3
 1531 0049 0E       		.uleb128 0xe
 1532 004a 3A       		.uleb128 0x3a
 1533 004b 0B       		.uleb128 0xb
ARM GAS  /tmp/ccuSMVkc.s 			page 28


 1534 004c 3B       		.uleb128 0x3b
 1535 004d 0B       		.uleb128 0xb
 1536 004e 49       		.uleb128 0x49
 1537 004f 13       		.uleb128 0x13
 1538 0050 38       		.uleb128 0x38
 1539 0051 0B       		.uleb128 0xb
 1540 0052 00       		.byte	0
 1541 0053 00       		.byte	0
 1542 0054 07       		.uleb128 0x7
 1543 0055 0D       		.uleb128 0xd
 1544 0056 00       		.byte	0
 1545 0057 03       		.uleb128 0x3
 1546 0058 08       		.uleb128 0x8
 1547 0059 3A       		.uleb128 0x3a
 1548 005a 0B       		.uleb128 0xb
 1549 005b 3B       		.uleb128 0x3b
 1550 005c 0B       		.uleb128 0xb
 1551 005d 49       		.uleb128 0x49
 1552 005e 13       		.uleb128 0x13
 1553 005f 38       		.uleb128 0x38
 1554 0060 0B       		.uleb128 0xb
 1555 0061 00       		.byte	0
 1556 0062 00       		.byte	0
 1557 0063 08       		.uleb128 0x8
 1558 0064 13       		.uleb128 0x13
 1559 0065 01       		.byte	0x1
 1560 0066 0B       		.uleb128 0xb
 1561 0067 0B       		.uleb128 0xb
 1562 0068 3A       		.uleb128 0x3a
 1563 0069 0B       		.uleb128 0xb
 1564 006a 3B       		.uleb128 0x3b
 1565 006b 0B       		.uleb128 0xb
 1566 006c 01       		.uleb128 0x1
 1567 006d 13       		.uleb128 0x13
 1568 006e 00       		.byte	0
 1569 006f 00       		.byte	0
 1570 0070 09       		.uleb128 0x9
 1571 0071 0F       		.uleb128 0xf
 1572 0072 00       		.byte	0
 1573 0073 0B       		.uleb128 0xb
 1574 0074 0B       		.uleb128 0xb
 1575 0075 49       		.uleb128 0x49
 1576 0076 13       		.uleb128 0x13
 1577 0077 00       		.byte	0
 1578 0078 00       		.byte	0
 1579 0079 0A       		.uleb128 0xa
 1580 007a 0F       		.uleb128 0xf
 1581 007b 00       		.byte	0
 1582 007c 0B       		.uleb128 0xb
 1583 007d 0B       		.uleb128 0xb
 1584 007e 00       		.byte	0
 1585 007f 00       		.byte	0
 1586 0080 0B       		.uleb128 0xb
 1587 0081 13       		.uleb128 0x13
 1588 0082 01       		.byte	0x1
 1589 0083 03       		.uleb128 0x3
 1590 0084 0E       		.uleb128 0xe
ARM GAS  /tmp/ccuSMVkc.s 			page 29


 1591 0085 0B       		.uleb128 0xb
 1592 0086 0B       		.uleb128 0xb
 1593 0087 3A       		.uleb128 0x3a
 1594 0088 0B       		.uleb128 0xb
 1595 0089 3B       		.uleb128 0x3b
 1596 008a 05       		.uleb128 0x5
 1597 008b 01       		.uleb128 0x1
 1598 008c 13       		.uleb128 0x13
 1599 008d 00       		.byte	0
 1600 008e 00       		.byte	0
 1601 008f 0C       		.uleb128 0xc
 1602 0090 0D       		.uleb128 0xd
 1603 0091 00       		.byte	0
 1604 0092 03       		.uleb128 0x3
 1605 0093 08       		.uleb128 0x8
 1606 0094 3A       		.uleb128 0x3a
 1607 0095 0B       		.uleb128 0xb
 1608 0096 3B       		.uleb128 0x3b
 1609 0097 05       		.uleb128 0x5
 1610 0098 49       		.uleb128 0x49
 1611 0099 13       		.uleb128 0x13
 1612 009a 38       		.uleb128 0x38
 1613 009b 0B       		.uleb128 0xb
 1614 009c 00       		.byte	0
 1615 009d 00       		.byte	0
 1616 009e 0D       		.uleb128 0xd
 1617 009f 35       		.uleb128 0x35
 1618 00a0 00       		.byte	0
 1619 00a1 49       		.uleb128 0x49
 1620 00a2 13       		.uleb128 0x13
 1621 00a3 00       		.byte	0
 1622 00a4 00       		.byte	0
 1623 00a5 0E       		.uleb128 0xe
 1624 00a6 01       		.uleb128 0x1
 1625 00a7 01       		.byte	0x1
 1626 00a8 49       		.uleb128 0x49
 1627 00a9 13       		.uleb128 0x13
 1628 00aa 01       		.uleb128 0x1
 1629 00ab 13       		.uleb128 0x13
 1630 00ac 00       		.byte	0
 1631 00ad 00       		.byte	0
 1632 00ae 0F       		.uleb128 0xf
 1633 00af 21       		.uleb128 0x21
 1634 00b0 00       		.byte	0
 1635 00b1 49       		.uleb128 0x49
 1636 00b2 13       		.uleb128 0x13
 1637 00b3 2F       		.uleb128 0x2f
 1638 00b4 0B       		.uleb128 0xb
 1639 00b5 00       		.byte	0
 1640 00b6 00       		.byte	0
 1641 00b7 10       		.uleb128 0x10
 1642 00b8 17       		.uleb128 0x17
 1643 00b9 01       		.byte	0x1
 1644 00ba 0B       		.uleb128 0xb
 1645 00bb 0B       		.uleb128 0xb
 1646 00bc 3A       		.uleb128 0x3a
 1647 00bd 0B       		.uleb128 0xb
ARM GAS  /tmp/ccuSMVkc.s 			page 30


 1648 00be 3B       		.uleb128 0x3b
 1649 00bf 0B       		.uleb128 0xb
 1650 00c0 01       		.uleb128 0x1
 1651 00c1 13       		.uleb128 0x13
 1652 00c2 00       		.byte	0
 1653 00c3 00       		.byte	0
 1654 00c4 11       		.uleb128 0x11
 1655 00c5 0D       		.uleb128 0xd
 1656 00c6 00       		.byte	0
 1657 00c7 03       		.uleb128 0x3
 1658 00c8 0E       		.uleb128 0xe
 1659 00c9 3A       		.uleb128 0x3a
 1660 00ca 0B       		.uleb128 0xb
 1661 00cb 3B       		.uleb128 0x3b
 1662 00cc 0B       		.uleb128 0xb
 1663 00cd 49       		.uleb128 0x49
 1664 00ce 13       		.uleb128 0x13
 1665 00cf 00       		.byte	0
 1666 00d0 00       		.byte	0
 1667 00d1 12       		.uleb128 0x12
 1668 00d2 26       		.uleb128 0x26
 1669 00d3 00       		.byte	0
 1670 00d4 49       		.uleb128 0x49
 1671 00d5 13       		.uleb128 0x13
 1672 00d6 00       		.byte	0
 1673 00d7 00       		.byte	0
 1674 00d8 13       		.uleb128 0x13
 1675 00d9 2E       		.uleb128 0x2e
 1676 00da 01       		.byte	0x1
 1677 00db 3F       		.uleb128 0x3f
 1678 00dc 19       		.uleb128 0x19
 1679 00dd 03       		.uleb128 0x3
 1680 00de 0E       		.uleb128 0xe
 1681 00df 3A       		.uleb128 0x3a
 1682 00e0 0B       		.uleb128 0xb
 1683 00e1 3B       		.uleb128 0x3b
 1684 00e2 0B       		.uleb128 0xb
 1685 00e3 27       		.uleb128 0x27
 1686 00e4 19       		.uleb128 0x19
 1687 00e5 11       		.uleb128 0x11
 1688 00e6 01       		.uleb128 0x1
 1689 00e7 12       		.uleb128 0x12
 1690 00e8 06       		.uleb128 0x6
 1691 00e9 40       		.uleb128 0x40
 1692 00ea 18       		.uleb128 0x18
 1693 00eb 9742     		.uleb128 0x2117
 1694 00ed 19       		.uleb128 0x19
 1695 00ee 01       		.uleb128 0x1
 1696 00ef 13       		.uleb128 0x13
 1697 00f0 00       		.byte	0
 1698 00f1 00       		.byte	0
 1699 00f2 14       		.uleb128 0x14
 1700 00f3 898201   		.uleb128 0x4109
 1701 00f6 00       		.byte	0
 1702 00f7 11       		.uleb128 0x11
 1703 00f8 01       		.uleb128 0x1
 1704 00f9 31       		.uleb128 0x31
ARM GAS  /tmp/ccuSMVkc.s 			page 31


 1705 00fa 13       		.uleb128 0x13
 1706 00fb 00       		.byte	0
 1707 00fc 00       		.byte	0
 1708 00fd 15       		.uleb128 0x15
 1709 00fe 34       		.uleb128 0x34
 1710 00ff 00       		.byte	0
 1711 0100 03       		.uleb128 0x3
 1712 0101 0E       		.uleb128 0xe
 1713 0102 3A       		.uleb128 0x3a
 1714 0103 0B       		.uleb128 0xb
 1715 0104 3B       		.uleb128 0x3b
 1716 0105 0B       		.uleb128 0xb
 1717 0106 49       		.uleb128 0x49
 1718 0107 13       		.uleb128 0x13
 1719 0108 02       		.uleb128 0x2
 1720 0109 17       		.uleb128 0x17
 1721 010a 00       		.byte	0
 1722 010b 00       		.byte	0
 1723 010c 16       		.uleb128 0x16
 1724 010d 0B       		.uleb128 0xb
 1725 010e 01       		.byte	0x1
 1726 010f 11       		.uleb128 0x11
 1727 0110 01       		.uleb128 0x1
 1728 0111 12       		.uleb128 0x12
 1729 0112 06       		.uleb128 0x6
 1730 0113 00       		.byte	0
 1731 0114 00       		.byte	0
 1732 0115 17       		.uleb128 0x17
 1733 0116 34       		.uleb128 0x34
 1734 0117 00       		.byte	0
 1735 0118 03       		.uleb128 0x3
 1736 0119 08       		.uleb128 0x8
 1737 011a 3A       		.uleb128 0x3a
 1738 011b 0B       		.uleb128 0xb
 1739 011c 3B       		.uleb128 0x3b
 1740 011d 0B       		.uleb128 0xb
 1741 011e 49       		.uleb128 0x49
 1742 011f 13       		.uleb128 0x13
 1743 0120 02       		.uleb128 0x2
 1744 0121 18       		.uleb128 0x18
 1745 0122 00       		.byte	0
 1746 0123 00       		.byte	0
 1747 0124 18       		.uleb128 0x18
 1748 0125 898201   		.uleb128 0x4109
 1749 0128 01       		.byte	0x1
 1750 0129 11       		.uleb128 0x11
 1751 012a 01       		.uleb128 0x1
 1752 012b 31       		.uleb128 0x31
 1753 012c 13       		.uleb128 0x13
 1754 012d 01       		.uleb128 0x1
 1755 012e 13       		.uleb128 0x13
 1756 012f 00       		.byte	0
 1757 0130 00       		.byte	0
 1758 0131 19       		.uleb128 0x19
 1759 0132 8A8201   		.uleb128 0x410a
 1760 0135 00       		.byte	0
 1761 0136 02       		.uleb128 0x2
ARM GAS  /tmp/ccuSMVkc.s 			page 32


 1762 0137 18       		.uleb128 0x18
 1763 0138 9142     		.uleb128 0x2111
 1764 013a 18       		.uleb128 0x18
 1765 013b 00       		.byte	0
 1766 013c 00       		.byte	0
 1767 013d 1A       		.uleb128 0x1a
 1768 013e 898201   		.uleb128 0x4109
 1769 0141 01       		.byte	0x1
 1770 0142 11       		.uleb128 0x11
 1771 0143 01       		.uleb128 0x1
 1772 0144 9542     		.uleb128 0x2115
 1773 0146 19       		.uleb128 0x19
 1774 0147 31       		.uleb128 0x31
 1775 0148 13       		.uleb128 0x13
 1776 0149 00       		.byte	0
 1777 014a 00       		.byte	0
 1778 014b 1B       		.uleb128 0x1b
 1779 014c 0B       		.uleb128 0xb
 1780 014d 01       		.byte	0x1
 1781 014e 11       		.uleb128 0x11
 1782 014f 01       		.uleb128 0x1
 1783 0150 12       		.uleb128 0x12
 1784 0151 06       		.uleb128 0x6
 1785 0152 01       		.uleb128 0x1
 1786 0153 13       		.uleb128 0x13
 1787 0154 00       		.byte	0
 1788 0155 00       		.byte	0
 1789 0156 1C       		.uleb128 0x1c
 1790 0157 0B       		.uleb128 0xb
 1791 0158 01       		.byte	0x1
 1792 0159 55       		.uleb128 0x55
 1793 015a 17       		.uleb128 0x17
 1794 015b 01       		.uleb128 0x1
 1795 015c 13       		.uleb128 0x13
 1796 015d 00       		.byte	0
 1797 015e 00       		.byte	0
 1798 015f 1D       		.uleb128 0x1d
 1799 0160 898201   		.uleb128 0x4109
 1800 0163 00       		.byte	0
 1801 0164 11       		.uleb128 0x11
 1802 0165 01       		.uleb128 0x1
 1803 0166 9542     		.uleb128 0x2115
 1804 0168 19       		.uleb128 0x19
 1805 0169 31       		.uleb128 0x31
 1806 016a 13       		.uleb128 0x13
 1807 016b 00       		.byte	0
 1808 016c 00       		.byte	0
 1809 016d 1E       		.uleb128 0x1e
 1810 016e 05       		.uleb128 0x5
 1811 016f 00       		.byte	0
 1812 0170 03       		.uleb128 0x3
 1813 0171 08       		.uleb128 0x8
 1814 0172 3A       		.uleb128 0x3a
 1815 0173 0B       		.uleb128 0xb
 1816 0174 3B       		.uleb128 0x3b
 1817 0175 0B       		.uleb128 0xb
 1818 0176 49       		.uleb128 0x49
ARM GAS  /tmp/ccuSMVkc.s 			page 33


 1819 0177 13       		.uleb128 0x13
 1820 0178 02       		.uleb128 0x2
 1821 0179 18       		.uleb128 0x18
 1822 017a 00       		.byte	0
 1823 017b 00       		.byte	0
 1824 017c 1F       		.uleb128 0x1f
 1825 017d 34       		.uleb128 0x34
 1826 017e 00       		.byte	0
 1827 017f 03       		.uleb128 0x3
 1828 0180 0E       		.uleb128 0xe
 1829 0181 3A       		.uleb128 0x3a
 1830 0182 0B       		.uleb128 0xb
 1831 0183 3B       		.uleb128 0x3b
 1832 0184 0B       		.uleb128 0xb
 1833 0185 49       		.uleb128 0x49
 1834 0186 13       		.uleb128 0x13
 1835 0187 3F       		.uleb128 0x3f
 1836 0188 19       		.uleb128 0x19
 1837 0189 3C       		.uleb128 0x3c
 1838 018a 19       		.uleb128 0x19
 1839 018b 00       		.byte	0
 1840 018c 00       		.byte	0
 1841 018d 20       		.uleb128 0x20
 1842 018e 2E       		.uleb128 0x2e
 1843 018f 00       		.byte	0
 1844 0190 3F       		.uleb128 0x3f
 1845 0191 19       		.uleb128 0x19
 1846 0192 03       		.uleb128 0x3
 1847 0193 0E       		.uleb128 0xe
 1848 0194 3A       		.uleb128 0x3a
 1849 0195 0B       		.uleb128 0xb
 1850 0196 3B       		.uleb128 0x3b
 1851 0197 0B       		.uleb128 0xb
 1852 0198 27       		.uleb128 0x27
 1853 0199 19       		.uleb128 0x19
 1854 019a 3C       		.uleb128 0x3c
 1855 019b 19       		.uleb128 0x19
 1856 019c 00       		.byte	0
 1857 019d 00       		.byte	0
 1858 019e 21       		.uleb128 0x21
 1859 019f 2E       		.uleb128 0x2e
 1860 01a0 01       		.byte	0x1
 1861 01a1 3F       		.uleb128 0x3f
 1862 01a2 19       		.uleb128 0x19
 1863 01a3 03       		.uleb128 0x3
 1864 01a4 0E       		.uleb128 0xe
 1865 01a5 3A       		.uleb128 0x3a
 1866 01a6 0B       		.uleb128 0xb
 1867 01a7 3B       		.uleb128 0x3b
 1868 01a8 05       		.uleb128 0x5
 1869 01a9 27       		.uleb128 0x27
 1870 01aa 19       		.uleb128 0x19
 1871 01ab 3C       		.uleb128 0x3c
 1872 01ac 19       		.uleb128 0x19
 1873 01ad 01       		.uleb128 0x1
 1874 01ae 13       		.uleb128 0x13
 1875 01af 00       		.byte	0
ARM GAS  /tmp/ccuSMVkc.s 			page 34


 1876 01b0 00       		.byte	0
 1877 01b1 22       		.uleb128 0x22
 1878 01b2 05       		.uleb128 0x5
 1879 01b3 00       		.byte	0
 1880 01b4 49       		.uleb128 0x49
 1881 01b5 13       		.uleb128 0x13
 1882 01b6 00       		.byte	0
 1883 01b7 00       		.byte	0
 1884 01b8 00       		.byte	0
 1885              		.section	.debug_loc,"",%progbits
 1886              	.Ldebug_loc0:
 1887              	.LLST0:
 1888 0000 04000000 		.4byte	.LVL3
 1889 0004 06000000 		.4byte	.LVL4
 1890 0008 0300     		.2byte	0x3
 1891 000a 73       		.byte	0x73
 1892 000b 20       		.sleb128 32
 1893 000c 9F       		.byte	0x9f
 1894 000d 06000000 		.4byte	.LVL4
 1895 0011 0C000000 		.4byte	.LVL5
 1896 0015 0100     		.2byte	0x1
 1897 0017 53       		.byte	0x53
 1898 0018 00000000 		.4byte	0
 1899 001c 00000000 		.4byte	0
 1900              	.LLST1:
 1901 0020 14000000 		.4byte	.LVL9
 1902 0024 20000000 		.4byte	.LVL10
 1903 0028 0300     		.2byte	0x3
 1904 002a 73       		.byte	0x73
 1905 002b 60       		.sleb128 -32
 1906 002c 9F       		.byte	0x9f
 1907 002d 20000000 		.4byte	.LVL10
 1908 0031 28000000 		.4byte	.LVL11
 1909 0035 0100     		.2byte	0x1
 1910 0037 52       		.byte	0x52
 1911 0038 28000000 		.4byte	.LVL11
 1912 003c 46000000 		.4byte	.LVL12
 1913 0040 0300     		.2byte	0x3
 1914 0042 73       		.byte	0x73
 1915 0043 60       		.sleb128 -32
 1916 0044 9F       		.byte	0x9f
 1917 0045 4C000000 		.4byte	.LVL13
 1918 0049 70000000 		.4byte	.LFE10
 1919 004d 0300     		.2byte	0x3
 1920 004f 73       		.byte	0x73
 1921 0050 60       		.sleb128 -32
 1922 0051 9F       		.byte	0x9f
 1923 0052 00000000 		.4byte	0
 1924 0056 00000000 		.4byte	0
 1925              		.section	.debug_aranges,"",%progbits
 1926 0000 4C000000 		.4byte	0x4c
 1927 0004 0200     		.2byte	0x2
 1928 0006 00000000 		.4byte	.Ldebug_info0
 1929 000a 04       		.byte	0x4
 1930 000b 00       		.byte	0
 1931 000c 0000     		.2byte	0
 1932 000e 0000     		.2byte	0
ARM GAS  /tmp/ccuSMVkc.s 			page 35


 1933 0010 00000000 		.4byte	.LFB11
 1934 0014 0E000000 		.4byte	.LFE11-.LFB11
 1935 0018 00000000 		.4byte	.LFB8
 1936 001c 12000000 		.4byte	.LFE8-.LFB8
 1937 0020 00000000 		.4byte	.LFB9
 1938 0024 30000000 		.4byte	.LFE9-.LFB9
 1939 0028 00000000 		.4byte	.LFB10
 1940 002c 70000000 		.4byte	.LFE10-.LFB10
 1941 0030 00000000 		.4byte	.LFB7
 1942 0034 2A000000 		.4byte	.LFE7-.LFB7
 1943 0038 00000000 		.4byte	.LFB12
 1944 003c 10000000 		.4byte	.LFE12-.LFB12
 1945 0040 00000000 		.4byte	.LFB13
 1946 0044 16000000 		.4byte	.LFE13-.LFB13
 1947 0048 00000000 		.4byte	0
 1948 004c 00000000 		.4byte	0
 1949              		.section	.debug_ranges,"",%progbits
 1950              	.Ldebug_ranges0:
 1951 0000 10000000 		.4byte	.LBB4
 1952 0004 46000000 		.4byte	.LBE4
 1953 0008 4C000000 		.4byte	.LBB6
 1954 000c 70000000 		.4byte	.LBE6
 1955 0010 00000000 		.4byte	0
 1956 0014 00000000 		.4byte	0
 1957 0018 00000000 		.4byte	.LFB11
 1958 001c 0E000000 		.4byte	.LFE11
 1959 0020 00000000 		.4byte	.LFB8
 1960 0024 12000000 		.4byte	.LFE8
 1961 0028 00000000 		.4byte	.LFB9
 1962 002c 30000000 		.4byte	.LFE9
 1963 0030 00000000 		.4byte	.LFB10
 1964 0034 70000000 		.4byte	.LFE10
 1965 0038 00000000 		.4byte	.LFB7
 1966 003c 2A000000 		.4byte	.LFE7
 1967 0040 00000000 		.4byte	.LFB12
 1968 0044 10000000 		.4byte	.LFE12
 1969 0048 00000000 		.4byte	.LFB13
 1970 004c 16000000 		.4byte	.LFE13
 1971 0050 00000000 		.4byte	0
 1972 0054 00000000 		.4byte	0
 1973              		.section	.debug_line,"",%progbits
 1974              	.Ldebug_line0:
 1975 0000 98020000 		.section	.debug_str,"MS",%progbits,1
 1975      0200E301 
 1975      00000201 
 1975      FB0E0D00 
 1975      01010101 
 1976              	.LASF42:
 1977 0000 705F6D73 		.ascii	"p_msg\000"
 1977      6700
 1978              	.LASF85:
 1979 0006 7264796D 		.ascii	"rdymsg\000"
 1979      736700
 1980              	.LASF16:
 1981 000d 75696E74 		.ascii	"uint64_t\000"
 1981      36345F74 
 1981      00
ARM GAS  /tmp/ccuSMVkc.s 			page 36


 1982              	.LASF5:
 1983 0016 5F5F7569 		.ascii	"__uint8_t\000"
 1983      6E74385F 
 1983      7400
 1984              	.LASF73:
 1985 0020 434D785F 		.ascii	"CMx_SCB\000"
 1985      53434200 
 1986              	.LASF103:
 1987 0028 63685379 		.ascii	"chSysTimerHandlerI\000"
 1987      7354696D 
 1987      65724861 
 1987      6E646C65 
 1987      724900
 1988              	.LASF95:
 1989 003b 53797354 		.ascii	"SysTickVector\000"
 1989      69636B56 
 1989      6563746F 
 1989      7200
 1990              	.LASF12:
 1991 0049 6C6F6E67 		.ascii	"long long unsigned int\000"
 1991      206C6F6E 
 1991      6720756E 
 1991      7369676E 
 1991      65642069 
 1992              	.LASF86:
 1993 0060 65786974 		.ascii	"exitcode\000"
 1993      636F6465 
 1993      00
 1994              	.LASF58:
 1995 0069 43505549 		.ascii	"CPUID\000"
 1995      4400
 1996              	.LASF29:
 1997 006f 705F7072 		.ascii	"p_prio\000"
 1997      696F00
 1998              	.LASF10:
 1999 0076 6C6F6E67 		.ascii	"long long int\000"
 1999      206C6F6E 
 1999      6720696E 
 1999      7400
 2000              	.LASF1:
 2001 0084 7369676E 		.ascii	"signed char\000"
 2001      65642063 
 2001      68617200 
 2002              	.LASF104:
 2003 0090 6462675F 		.ascii	"dbg_check_unlock_from_isr\000"
 2003      63686563 
 2003      6B5F756E 
 2003      6C6F636B 
 2003      5F66726F 
 2004              	.LASF46:
 2005 00aa 705F6D70 		.ascii	"p_mpool\000"
 2005      6F6F6C00 
 2006              	.LASF82:
 2007 00b2 6D5F7175 		.ascii	"m_queue\000"
 2007      65756500 
 2008              	.LASF21:
 2009 00ba 74736C69 		.ascii	"tslices_t\000"
ARM GAS  /tmp/ccuSMVkc.s 			page 37


 2009      6365735F 
 2009      7400
 2010              	.LASF7:
 2011 00c4 6C6F6E67 		.ascii	"long int\000"
 2011      20696E74 
 2011      00
 2012              	.LASF91:
 2013 00cd 53564361 		.ascii	"SVCallVector\000"
 2013      6C6C5665 
 2013      63746F72 
 2013      00
 2014              	.LASF19:
 2015 00da 74737461 		.ascii	"tstate_t\000"
 2015      74655F74 
 2015      00
 2016              	.LASF97:
 2017 00e3 5F706F72 		.ascii	"_port_thread_start\000"
 2017      745F7468 
 2017      72656164 
 2017      5F737461 
 2017      727400
 2018              	.LASF31:
 2019 00f6 705F6E65 		.ascii	"p_newer\000"
 2019      77657200 
 2020              	.LASF68:
 2021 00fe 42464152 		.ascii	"BFAR\000"
 2021      00
 2022              	.LASF8:
 2023 0103 5F5F7569 		.ascii	"__uint32_t\000"
 2023      6E743332 
 2023      5F7400
 2024              	.LASF110:
 2025 010e 6E766963 		.ascii	"nvicSetSystemHandlerPriority\000"
 2025      53657453 
 2025      79737465 
 2025      6D48616E 
 2025      646C6572 
 2026              	.LASF49:
 2027 012b 72656761 		.ascii	"regarm_t\000"
 2027      726D5F74 
 2027      00
 2028              	.LASF99:
 2029 0134 63685363 		.ascii	"chSchDoReschedule\000"
 2029      68446F52 
 2029      65736368 
 2029      6564756C 
 2029      6500
 2030              	.LASF101:
 2031 0146 6462675F 		.ascii	"dbg_check_enter_isr\000"
 2031      63686563 
 2031      6B5F656E 
 2031      7465725F 
 2031      69737200 
 2032              	.LASF34:
 2033 015a 705F7374 		.ascii	"p_stklimit\000"
 2033      6B6C696D 
 2033      697400
ARM GAS  /tmp/ccuSMVkc.s 			page 38


 2034              	.LASF0:
 2035 0165 756E7369 		.ascii	"unsigned int\000"
 2035      676E6564 
 2035      20696E74 
 2035      00
 2036              	.LASF52:
 2037 0172 6C725F74 		.ascii	"lr_thd\000"
 2037      686400
 2038              	.LASF51:
 2039 0179 65787463 		.ascii	"extctx\000"
 2039      747800
 2040              	.LASF96:
 2041 0180 5F706F72 		.ascii	"_port_switch\000"
 2041      745F7377 
 2041      69746368 
 2041      00
 2042              	.LASF9:
 2043 018d 6C6F6E67 		.ascii	"long unsigned int\000"
 2043      20756E73 
 2043      69676E65 
 2043      6420696E 
 2043      7400
 2044              	.LASF60:
 2045 019f 56544F52 		.ascii	"VTOR\000"
 2045      00
 2046              	.LASF90:
 2047 01a4 5F706F72 		.ascii	"_port_switch_from_isr\000"
 2047      745F7377 
 2047      69746368 
 2047      5F66726F 
 2047      6D5F6973 
 2048              	.LASF55:
 2049 01ba 636F6E74 		.ascii	"context\000"
 2049      65787400 
 2050              	.LASF4:
 2051 01c2 73686F72 		.ascii	"short unsigned int\000"
 2051      7420756E 
 2051      7369676E 
 2051      65642069 
 2051      6E7400
 2052              	.LASF59:
 2053 01d5 49435352 		.ascii	"ICSR\000"
 2053      00
 2054              	.LASF23:
 2055 01da 6D73675F 		.ascii	"msg_t\000"
 2055      7400
 2056              	.LASF107:
 2057 01e0 2E2E2F2E 		.ascii	"../../../os/ports/GCC/ARMCMx/chcore_v7m.c\000"
 2057      2E2F2E2E 
 2057      2F6F732F 
 2057      706F7274 
 2057      732F4743 
 2058              	.LASF108:
 2059 020a 2F686F6D 		.ascii	"/homes/msunkara/ASE-praticle-folder/ChibiOS/testhal"
 2059      65732F6D 
 2059      73756E6B 
 2059      6172612F 
ARM GAS  /tmp/ccuSMVkc.s 			page 39


 2059      4153452D 
 2060 023d 2F53544D 		.ascii	"/STM32F1xx/SPI\000"
 2060      33324631 
 2060      78782F53 
 2060      504900
 2061              	.LASF61:
 2062 024c 41495243 		.ascii	"AIRCR\000"
 2062      5200
 2063              	.LASF77:
 2064 0252 725F6E65 		.ascii	"r_newer\000"
 2064      77657200 
 2065              	.LASF67:
 2066 025a 4D4D4641 		.ascii	"MMFAR\000"
 2066      5200
 2067              	.LASF94:
 2068 0260 5F706F72 		.ascii	"_port_irq_epilogue\000"
 2068      745F6972 
 2068      715F6570 
 2068      696C6F67 
 2068      756500
 2069              	.LASF18:
 2070 0273 746D6F64 		.ascii	"tmode_t\000"
 2070      655F7400 
 2071              	.LASF48:
 2072 027b 54687265 		.ascii	"ThreadsList\000"
 2072      6164734C 
 2072      69737400 
 2073              	.LASF24:
 2074 0287 6576656E 		.ascii	"eventmask_t\000"
 2074      746D6173 
 2074      6B5F7400 
 2075              	.LASF81:
 2076 0293 4D757465 		.ascii	"Mutex\000"
 2076      7800
 2077              	.LASF50:
 2078 0299 73746B61 		.ascii	"stkalign_t\000"
 2078      6C69676E 
 2078      5F7400
 2079              	.LASF57:
 2080 02a4 73697A65 		.ascii	"sizetype\000"
 2080      74797065 
 2080      00
 2081              	.LASF98:
 2082 02ad 6462675F 		.ascii	"dbg_check_lock\000"
 2082      63686563 
 2082      6B5F6C6F 
 2082      636B00
 2083              	.LASF64:
 2084 02bc 43465352 		.ascii	"CFSR\000"
 2084      00
 2085              	.LASF32:
 2086 02c1 705F6F6C 		.ascii	"p_older\000"
 2086      64657200 
 2087              	.LASF76:
 2088 02c9 725F6374 		.ascii	"r_ctx\000"
 2088      7800
 2089              	.LASF47:
ARM GAS  /tmp/ccuSMVkc.s 			page 40


 2090 02cf 54687265 		.ascii	"ThreadsQueue\000"
 2090      61647351 
 2090      75657565 
 2090      00
 2091              	.LASF79:
 2092 02dc 725F6375 		.ascii	"r_current\000"
 2092      7272656E 
 2092      7400
 2093              	.LASF78:
 2094 02e6 725F6F6C 		.ascii	"r_older\000"
 2094      64657200 
 2095              	.LASF100:
 2096 02ee 6462675F 		.ascii	"dbg_check_unlock\000"
 2096      63686563 
 2096      6B5F756E 
 2096      6C6F636B 
 2096      00
 2097              	.LASF11:
 2098 02ff 5F5F7569 		.ascii	"__uint64_t\000"
 2098      6E743634 
 2098      5F7400
 2099              	.LASF20:
 2100 030a 74726566 		.ascii	"trefs_t\000"
 2100      735F7400 
 2101              	.LASF66:
 2102 0312 44465352 		.ascii	"DFSR\000"
 2102      00
 2103              	.LASF92:
 2104 0317 63747870 		.ascii	"ctxp\000"
 2104      00
 2105              	.LASF28:
 2106 031c 705F7072 		.ascii	"p_prev\000"
 2106      657600
 2107              	.LASF22:
 2108 0323 74707269 		.ascii	"tprio_t\000"
 2108      6F5F7400 
 2109              	.LASF17:
 2110 032b 5F426F6F 		.ascii	"_Bool\000"
 2110      6C00
 2111              	.LASF14:
 2112 0331 696E7433 		.ascii	"int32_t\000"
 2112      325F7400 
 2113              	.LASF2:
 2114 0339 756E7369 		.ascii	"unsigned char\000"
 2114      676E6564 
 2114      20636861 
 2114      7200
 2115              	.LASF63:
 2116 0347 53484353 		.ascii	"SHCSR\000"
 2116      5200
 2117              	.LASF44:
 2118 034d 705F6D74 		.ascii	"p_mtxlist\000"
 2118      786C6973 
 2118      7400
 2119              	.LASF3:
 2120 0357 73686F72 		.ascii	"short int\000"
 2120      7420696E 
ARM GAS  /tmp/ccuSMVkc.s 			page 41


 2120      7400
 2121              	.LASF35:
 2122 0361 705F7374 		.ascii	"p_state\000"
 2122      61746500 
 2123              	.LASF38:
 2124 0369 705F7072 		.ascii	"p_preempt\000"
 2124      65656D70 
 2124      7400
 2125              	.LASF53:
 2126 0373 78707372 		.ascii	"xpsr\000"
 2126      00
 2127              	.LASF75:
 2128 0378 725F7072 		.ascii	"r_prio\000"
 2128      696F00
 2129              	.LASF88:
 2130 037f 65776D61 		.ascii	"ewmask\000"
 2130      736B00
 2131              	.LASF27:
 2132 0386 705F6E65 		.ascii	"p_next\000"
 2132      787400
 2133              	.LASF36:
 2134 038d 705F666C 		.ascii	"p_flags\000"
 2134      61677300 
 2135              	.LASF26:
 2136 0395 54687265 		.ascii	"Thread\000"
 2136      616400
 2137              	.LASF43:
 2138 039c 705F6570 		.ascii	"p_epending\000"
 2138      656E6469 
 2138      6E6700
 2139              	.LASF15:
 2140 03a7 75696E74 		.ascii	"uint32_t\000"
 2140      33325F74 
 2140      00
 2141              	.LASF74:
 2142 03b0 725F7175 		.ascii	"r_queue\000"
 2142      65756500 
 2143              	.LASF69:
 2144 03b8 41465352 		.ascii	"AFSR\000"
 2144      00
 2145              	.LASF71:
 2146 03bd 756E7573 		.ascii	"unused1\000"
 2146      65643100 
 2147              	.LASF89:
 2148 03c5 63686172 		.ascii	"char\000"
 2148      00
 2149              	.LASF56:
 2150 03ca 494F5245 		.ascii	"IOREG32\000"
 2150      47333200 
 2151              	.LASF84:
 2152 03d2 6D5F6E65 		.ascii	"m_next\000"
 2152      787400
 2153              	.LASF25:
 2154 03d9 73797374 		.ascii	"systime_t\000"
 2154      696D655F 
 2154      7400
 2155              	.LASF45:
ARM GAS  /tmp/ccuSMVkc.s 			page 42


 2156 03e3 705F7265 		.ascii	"p_realprio\000"
 2156      616C7072 
 2156      696F00
 2157              	.LASF6:
 2158 03ee 5F5F696E 		.ascii	"__int32_t\000"
 2158      7433325F 
 2158      7400
 2159              	.LASF39:
 2160 03f8 705F7469 		.ascii	"p_time\000"
 2160      6D6500
 2161              	.LASF62:
 2162 03ff 53485052 		.ascii	"SHPR\000"
 2162      00
 2163              	.LASF105:
 2164 0404 6462675F 		.ascii	"dbg_check_leave_isr\000"
 2164      63686563 
 2164      6B5F6C65 
 2164      6176655F 
 2164      69737200 
 2165              	.LASF54:
 2166 0418 696E7463 		.ascii	"intctx\000"
 2166      747800
 2167              	.LASF41:
 2168 041f 705F6D73 		.ascii	"p_msgqueue\000"
 2168      67717565 
 2168      756500
 2169              	.LASF37:
 2170 042a 705F7265 		.ascii	"p_refs\000"
 2170      667300
 2171              	.LASF80:
 2172 0431 52656164 		.ascii	"ReadyList\000"
 2172      794C6973 
 2172      7400
 2173              	.LASF70:
 2174 043b 4D4D4652 		.ascii	"MMFR\000"
 2174      00
 2175              	.LASF109:
 2176 0440 726C6973 		.ascii	"rlist\000"
 2176      7400
 2177              	.LASF13:
 2178 0446 75696E74 		.ascii	"uint8_t\000"
 2178      385F7400 
 2179              	.LASF93:
 2180 044e 5F706F72 		.ascii	"_port_init\000"
 2180      745F696E 
 2180      697400
 2181              	.LASF102:
 2182 0459 6462675F 		.ascii	"dbg_check_lock_from_isr\000"
 2182      63686563 
 2182      6B5F6C6F 
 2182      636B5F66 
 2182      726F6D5F 
 2183              	.LASF87:
 2184 0471 77746F62 		.ascii	"wtobjp\000"
 2184      6A7000
 2185              	.LASF33:
 2186 0478 705F6E61 		.ascii	"p_name\000"
ARM GAS  /tmp/ccuSMVkc.s 			page 43


 2186      6D6500
 2187              	.LASF106:
 2188 047f 474E5520 		.ascii	"GNU C 4.8.3 20140228 (release) [ARM/embedded-4_8-br"
 2188      4320342E 
 2188      382E3320 
 2188      32303134 
 2188      30323238 
 2189 04b2 616E6368 		.ascii	"anch revision 208322] -mcpu=cortex-m3 -mno-thumb-in"
 2189      20726576 
 2189      6973696F 
 2189      6E203230 
 2189      38333232 
 2190 04e5 74657277 		.ascii	"terwork -mthumb -ggdb -O2 -fomit-frame-pointer -fal"
 2190      6F726B20 
 2190      2D6D7468 
 2190      756D6220 
 2190      2D676764 
 2191 0518 69676E2D 		.ascii	"ign-functions=16 -ffunction-sections -fdata-section"
 2191      66756E63 
 2191      74696F6E 
 2191      733D3136 
 2191      202D6666 
 2192 054b 73202D66 		.ascii	"s -fno-common\000"
 2192      6E6F2D63 
 2192      6F6D6D6F 
 2192      6E00
 2193              	.LASF72:
 2194 0559 43504143 		.ascii	"CPACR\000"
 2194      5200
 2195              	.LASF65:
 2196 055f 48465352 		.ascii	"HFSR\000"
 2196      00
 2197              	.LASF83:
 2198 0564 6D5F6F77 		.ascii	"m_owner\000"
 2198      6E657200 
 2199              	.LASF30:
 2200 056c 705F6374 		.ascii	"p_ctx\000"
 2200      7800
 2201              	.LASF40:
 2202 0572 705F7761 		.ascii	"p_waiting\000"
 2202      6974696E 
 2202      6700
 2203              		.ident	"GCC: (GNU Tools for ARM Embedded Processors) 4.8.3 20140228 (release) [ARM/embedded-4_8-br
ARM GAS  /tmp/ccuSMVkc.s 			page 44


DEFINED SYMBOLS
                            *ABS*:00000000 chcore_v7m.c
     /tmp/ccuSMVkc.s:19     .text._port_switch_from_isr:00000000 $t
     /tmp/ccuSMVkc.s:25     .text._port_switch_from_isr:00000000 _port_switch_from_isr
     /tmp/ccuSMVkc.s:44     .text._port_switch_from_isr:0000000c _port_exit_from_isr
     /tmp/ccuSMVkc.s:56     .text.SVCallVector:00000000 $t
     /tmp/ccuSMVkc.s:62     .text.SVCallVector:00000000 SVCallVector
     /tmp/ccuSMVkc.s:97     .text._port_init:00000000 $t
     /tmp/ccuSMVkc.s:103    .text._port_init:00000000 _port_init
     /tmp/ccuSMVkc.s:142    .text._port_init:00000028 $d
     /tmp/ccuSMVkc.s:148    .text._port_irq_epilogue:00000000 $t
     /tmp/ccuSMVkc.s:154    .text._port_irq_epilogue:00000000 _port_irq_epilogue
     /tmp/ccuSMVkc.s:241    .text._port_irq_epilogue:00000060 $d
     /tmp/ccuSMVkc.s:250    .text.SysTickVector:00000000 $t
     /tmp/ccuSMVkc.s:256    .text.SysTickVector:00000000 SysTickVector
     /tmp/ccuSMVkc.s:304    .text._port_switch:00000000 $t
     /tmp/ccuSMVkc.s:310    .text._port_switch:00000000 _port_switch
     /tmp/ccuSMVkc.s:337    .text._port_thread_start:00000000 $t
     /tmp/ccuSMVkc.s:343    .text._port_thread_start:00000000 _port_thread_start
                     .debug_frame:00000010 $d

UNDEFINED SYMBOLS
dbg_check_lock
chSchDoReschedule
dbg_check_unlock
nvicSetSystemHandlerPriority
rlist
dbg_check_enter_isr
dbg_check_lock_from_isr
chSysTimerHandlerI
dbg_check_unlock_from_isr
dbg_check_leave_isr
chThdExit
