ARM GAS  /tmp/cchp2dIa.s 			page 1


   1              		.syntax unified
   2              		.cpu cortex-m3
   3              		.fpu softvfp
   4              		.eabi_attribute 20, 1
   5              		.eabi_attribute 21, 1
   6              		.eabi_attribute 23, 3
   7              		.eabi_attribute 24, 1
   8              		.eabi_attribute 25, 1
   9              		.eabi_attribute 26, 1
  10              		.eabi_attribute 30, 2
  11              		.eabi_attribute 34, 1
  12              		.eabi_attribute 18, 4
  13              		.thumb
  14              		.file	"chmsg.c"
  15              		.text
  16              	.Ltext0:
  17              		.cfi_sections	.debug_frame
  18              		.section	.text.chMsgSend,"ax",%progbits
  19              		.align	2
  20              		.p2align 4,,15
  21              		.global	chMsgSend
  22              		.thumb
  23              		.thumb_func
  24              		.type	chMsgSend, %function
  25              	chMsgSend:
  26              	.LFB7:
  27              		.file 1 "../../../os/kernel/src/chmsg.c"
  28              		.loc 1 75 0
  29              		.cfi_startproc
  30              		@ args = 0, pretend = 0, frame = 0
  31              		@ frame_needed = 0, uses_anonymous_args = 0
  32              	.LVL0:
  33              		.loc 1 76 0
  34 0000 154B     		ldr	r3, .L7
  35              		.loc 1 75 0
  36 0002 70B5     		push	{r4, r5, r6, lr}
  37              		.cfi_def_cfa_offset 16
  38              		.cfi_offset 4, -16
  39              		.cfi_offset 5, -12
  40              		.cfi_offset 6, -8
  41              		.cfi_offset 14, -4
  42              		.loc 1 78 0
  43 0004 0546     		mov	r5, r0
  44              		.loc 1 75 0
  45 0006 0E46     		mov	r6, r1
  46              		.loc 1 76 0
  47 0008 9C69     		ldr	r4, [r3, #24]
  48              	.LVL1:
  49              		.loc 1 78 0
  50 000a 00B3     		cbz	r0, .L5
  51              	.LVL2:
  52              	.L2:
  53              	.LBB10:
  54              		.loc 1 80 0
  55 000c 2023     		movs	r3, #32
  56              	@ 80 "../../../os/kernel/src/chmsg.c" 1
  57 000e 83F31188 		msr     BASEPRI, r3
ARM GAS  /tmp/cchp2dIa.s 			page 2


  58              	@ 0 "" 2
  59              		.thumb
  60              	.LBE10:
  61 0012 FFF7FEFF 		bl	dbg_check_lock
  62              	.LVL3:
  63              		.loc 1 82 0
  64 0016 05F13002 		add	r2, r5, #48
  65              		.loc 1 84 0
  66 001a 95F82010 		ldrb	r1, [r5, #32]	@ zero_extendqisi2
  67              		.loc 1 82 0
  68 001e A262     		str	r2, [r4, #40]
  69              	.LVL4:
  70              	.LBB11:
  71              	.LBB12:
  72              		.file 2 "../../../os/kernel/include/chinline.h"
  73              		.loc 2 55 0
  74 0020 6B6B     		ldr	r3, [r5, #52]
  75              	.LBE12:
  76              	.LBE11:
  77              		.loc 1 84 0
  78 0022 0C29     		cmp	r1, #12
  79              		.loc 1 81 0
  80 0024 A663     		str	r6, [r4, #56]
  81              	.LBB14:
  82              	.LBB13:
  83              		.loc 2 55 0
  84 0026 84E80C00 		stmia	r4, {r2, r3}
  85              		.loc 2 56 0
  86 002a 6C63     		str	r4, [r5, #52]
  87 002c 1C60     		str	r4, [r3]
  88              	.LBE13:
  89              	.LBE14:
  90              		.loc 1 84 0
  91 002e 0AD0     		beq	.L6
  92              	.LVL5:
  93              	.L3:
  94              		.loc 1 86 0
  95 0030 0A20     		movs	r0, #10
  96 0032 FFF7FEFF 		bl	chSchGoSleepS
  97              	.LVL6:
  98              		.loc 1 87 0
  99 0036 A46A     		ldr	r4, [r4, #40]
 100              	.LVL7:
 101              		.loc 1 88 0
 102 0038 FFF7FEFF 		bl	dbg_check_unlock
 103              	.LVL8:
 104              	.LBB15:
 105 003c 0023     		movs	r3, #0
 106              	@ 88 "../../../os/kernel/src/chmsg.c" 1
 107 003e 83F31188 		msr     BASEPRI, r3
 108              	@ 0 "" 2
 109              		.thumb
 110              	.LBE15:
 111              		.loc 1 90 0
 112 0042 2046     		mov	r0, r4
 113 0044 70BD     		pop	{r4, r5, r6, pc}
 114              	.LVL9:
ARM GAS  /tmp/cchp2dIa.s 			page 3


 115              	.L6:
 116              		.loc 1 85 0
 117 0046 2846     		mov	r0, r5
 118 0048 FFF7FEFF 		bl	chSchReadyI
 119              	.LVL10:
 120 004c F0E7     		b	.L3
 121              	.LVL11:
 122              	.L5:
 123              		.loc 1 78 0 discriminator 1
 124 004e 0348     		ldr	r0, .L7+4
 125              	.LVL12:
 126 0050 FFF7FEFF 		bl	chDbgPanic
 127              	.LVL13:
 128 0054 DAE7     		b	.L2
 129              	.L8:
 130 0056 00BF     		.align	2
 131              	.L7:
 132 0058 00000000 		.word	rlist
 133 005c 00000000 		.word	.LC0
 134              		.cfi_endproc
 135              	.LFE7:
 136              		.size	chMsgSend, .-chMsgSend
 137              		.section	.text.chMsgWait,"ax",%progbits
 138              		.align	2
 139              		.p2align 4,,15
 140              		.global	chMsgWait
 141              		.thumb
 142              		.thumb_func
 143              		.type	chMsgWait, %function
 144              	chMsgWait:
 145              	.LFB8:
 146              		.loc 1 106 0
 147              		.cfi_startproc
 148              		@ args = 0, pretend = 0, frame = 0
 149              		@ frame_needed = 0, uses_anonymous_args = 0
 150 0000 38B5     		push	{r3, r4, r5, lr}
 151              		.cfi_def_cfa_offset 16
 152              		.cfi_offset 3, -16
 153              		.cfi_offset 4, -12
 154              		.cfi_offset 5, -8
 155              		.cfi_offset 14, -4
 156              	.LBB16:
 157              		.loc 1 109 0
 158 0002 2023     		movs	r3, #32
 159              	@ 109 "../../../os/kernel/src/chmsg.c" 1
 160 0004 83F31188 		msr     BASEPRI, r3
 161              	@ 0 "" 2
 162              		.thumb
 163              	.LBE16:
 164              		.loc 1 110 0
 165 0008 0E4D     		ldr	r5, .L12
 166              		.loc 1 109 0
 167 000a FFF7FEFF 		bl	dbg_check_lock
 168              	.LVL14:
 169              		.loc 1 110 0
 170 000e AA69     		ldr	r2, [r5, #24]
 171 0010 1346     		mov	r3, r2
ARM GAS  /tmp/cchp2dIa.s 			page 4


 172 0012 53F8304F 		ldr	r4, [r3, #48]!
 173 0016 9C42     		cmp	r4, r3
 174 0018 0CD0     		beq	.L11
 175              	.L10:
 176              	.LVL15:
 177              	.LBB17:
 178              	.LBB18:
 179              		.loc 2 62 0
 180 001a 2168     		ldr	r1, [r4]
 181              	.LBE18:
 182              	.LBE17:
 183              		.loc 1 113 0
 184 001c 0B20     		movs	r0, #11
 185              	.LBB20:
 186              	.LBB19:
 187              		.loc 2 62 0
 188 001e 1163     		str	r1, [r2, #48]
 189 0020 4B60     		str	r3, [r1, #4]
 190              	.LBE19:
 191              	.LBE20:
 192              		.loc 1 113 0
 193 0022 84F82000 		strb	r0, [r4, #32]
 194              		.loc 1 114 0
 195 0026 FFF7FEFF 		bl	dbg_check_unlock
 196              	.LVL16:
 197              	.LBB21:
 198 002a 0023     		movs	r3, #0
 199              	@ 114 "../../../os/kernel/src/chmsg.c" 1
 200 002c 83F31188 		msr     BASEPRI, r3
 201              	@ 0 "" 2
 202              		.thumb
 203              	.LBE21:
 204              		.loc 1 116 0
 205 0030 2046     		mov	r0, r4
 206 0032 38BD     		pop	{r3, r4, r5, pc}
 207              	.LVL17:
 208              	.L11:
 209              		.loc 1 111 0
 210 0034 0C20     		movs	r0, #12
 211 0036 FFF7FEFF 		bl	chSchGoSleepS
 212              	.LVL18:
 213 003a AA69     		ldr	r2, [r5, #24]
 214 003c 146B     		ldr	r4, [r2, #48]
 215 003e 02F13003 		add	r3, r2, #48
 216 0042 EAE7     		b	.L10
 217              	.L13:
 218              		.align	2
 219              	.L12:
 220 0044 00000000 		.word	rlist
 221              		.cfi_endproc
 222              	.LFE8:
 223              		.size	chMsgWait, .-chMsgWait
 224 0048 AFF30080 		.section	.text.chMsgRelease,"ax",%progbits
 224      AFF30080 
 225              		.align	2
 226              		.p2align 4,,15
 227              		.global	chMsgRelease
ARM GAS  /tmp/cchp2dIa.s 			page 5


 228              		.thumb
 229              		.thumb_func
 230              		.type	chMsgRelease, %function
 231              	chMsgRelease:
 232              	.LFB9:
 233              		.loc 1 128 0
 234              		.cfi_startproc
 235              		@ args = 0, pretend = 0, frame = 0
 236              		@ frame_needed = 0, uses_anonymous_args = 0
 237              	.LVL19:
 238 0000 38B5     		push	{r3, r4, r5, lr}
 239              		.cfi_def_cfa_offset 16
 240              		.cfi_offset 3, -16
 241              		.cfi_offset 4, -12
 242              		.cfi_offset 5, -8
 243              		.cfi_offset 14, -4
 244              		.loc 1 128 0
 245 0002 0446     		mov	r4, r0
 246 0004 0D46     		mov	r5, r1
 247              	.LBB22:
 248              		.loc 1 130 0
 249 0006 2023     		movs	r3, #32
 250              	@ 130 "../../../os/kernel/src/chmsg.c" 1
 251 0008 83F31188 		msr     BASEPRI, r3
 252              	@ 0 "" 2
 253              		.thumb
 254              	.LBE22:
 255 000c FFF7FEFF 		bl	dbg_check_lock
 256              	.LVL20:
 257              		.loc 1 131 0
 258 0010 94F82030 		ldrb	r3, [r4, #32]	@ zero_extendqisi2
 259 0014 0B2B     		cmp	r3, #11
 260 0016 02D0     		beq	.L15
 261              		.loc 1 131 0 is_stmt 0 discriminator 1
 262 0018 0648     		ldr	r0, .L19
 263 001a FFF7FEFF 		bl	chDbgPanic
 264              	.LVL21:
 265              	.L15:
 266              		.loc 1 133 0 is_stmt 1
 267 001e 2046     		mov	r0, r4
 268 0020 2946     		mov	r1, r5
 269 0022 FFF7FEFF 		bl	chSchWakeupS
 270              	.LVL22:
 271              		.loc 1 134 0
 272 0026 FFF7FEFF 		bl	dbg_check_unlock
 273              	.LVL23:
 274              	.LBB23:
 275 002a 0023     		movs	r3, #0
 276              	@ 134 "../../../os/kernel/src/chmsg.c" 1
 277 002c 83F31188 		msr     BASEPRI, r3
 278              	@ 0 "" 2
 279              		.thumb
 280 0030 38BD     		pop	{r3, r4, r5, pc}
 281              	.LVL24:
 282              	.L20:
 283 0032 00BF     		.align	2
 284              	.L19:
ARM GAS  /tmp/cchp2dIa.s 			page 6


 285 0034 10000000 		.word	.LC1
 286              	.LBE23:
 287              		.cfi_endproc
 288              	.LFE9:
 289              		.size	chMsgRelease, .-chMsgRelease
 290 0038 AFF30080 		.section	.rodata.str1.4,"aMS",%progbits,1
 290      AFF30080 
 291              		.align	2
 292              	.LC0:
 293 0000 2263684D 		.ascii	"\"chMsgSend\"()\000"
 293      73675365 
 293      6E642228 
 293      2900
 294 000e 0000     		.space	2
 295              	.LC1:
 296 0010 63684D73 		.ascii	"chMsgRelease(), #1\000"
 296      6752656C 
 296      65617365 
 296      28292C20 
 296      233100
 297 0023 00       		.text
 298              	.Letext0:
 299              		.file 3 "/homes/msunkara/ASE-praticle-folder/gcc-arm-embedded/gcc-arm-none-eabi-4_8-2014q/arm-none
 300              		.file 4 "/homes/msunkara/ASE-praticle-folder/gcc-arm-embedded/gcc-arm-none-eabi-4_8-2014q/arm-none
 301              		.file 5 "../../../os/ports/GCC/ARMCMx/chtypes.h"
 302              		.file 6 "../../../os/kernel/include/chlists.h"
 303              		.file 7 "../../../os/kernel/include/chthreads.h"
 304              		.file 8 "../../../os/ports/GCC/ARMCMx/chcore_v7m.h"
 305              		.file 9 "../../../os/kernel/include/chschd.h"
 306              		.file 10 "../../../os/kernel/include/chmtx.h"
 307              		.file 11 "../../../os/kernel/include/chdebug.h"
 308              		.section	.debug_info,"",%progbits
 309              	.Ldebug_info0:
 310 0000 28070000 		.4byte	0x728
 311 0004 0400     		.2byte	0x4
 312 0006 00000000 		.4byte	.Ldebug_abbrev0
 313 000a 04       		.byte	0x4
 314 000b 01       		.uleb128 0x1
 315 000c 65030000 		.4byte	.LASF76
 316 0010 01       		.byte	0x1
 317 0011 9C000000 		.4byte	.LASF77
 318 0015 35010000 		.4byte	.LASF78
 319 0019 30000000 		.4byte	.Ldebug_ranges0+0x30
 320 001d 00000000 		.4byte	0
 321 0021 00000000 		.4byte	.Ldebug_line0
 322 0025 02       		.uleb128 0x2
 323 0026 04       		.byte	0x4
 324 0027 05       		.byte	0x5
 325 0028 696E7400 		.ascii	"int\000"
 326 002c 03       		.uleb128 0x3
 327 002d 04       		.byte	0x4
 328 002e 07       		.byte	0x7
 329 002f F5000000 		.4byte	.LASF0
 330 0033 03       		.uleb128 0x3
 331 0034 01       		.byte	0x1
 332 0035 06       		.byte	0x6
 333 0036 6D000000 		.4byte	.LASF1
ARM GAS  /tmp/cchp2dIa.s 			page 7


 334 003a 04       		.uleb128 0x4
 335 003b 2E000000 		.4byte	.LASF5
 336 003f 03       		.byte	0x3
 337 0040 1C       		.byte	0x1c
 338 0041 45000000 		.4byte	0x45
 339 0045 03       		.uleb128 0x3
 340 0046 01       		.byte	0x1
 341 0047 08       		.byte	0x8
 342 0048 36020000 		.4byte	.LASF2
 343 004c 03       		.uleb128 0x3
 344 004d 02       		.byte	0x2
 345 004e 05       		.byte	0x5
 346 004f 4E020000 		.4byte	.LASF3
 347 0053 03       		.uleb128 0x3
 348 0054 02       		.byte	0x2
 349 0055 07       		.byte	0x7
 350 0056 1C010000 		.4byte	.LASF4
 351 005a 04       		.uleb128 0x4
 352 005b FE020000 		.4byte	.LASF6
 353 005f 03       		.byte	0x3
 354 0060 37       		.byte	0x37
 355 0061 65000000 		.4byte	0x65
 356 0065 03       		.uleb128 0x3
 357 0066 04       		.byte	0x4
 358 0067 05       		.byte	0x5
 359 0068 93000000 		.4byte	.LASF7
 360 006c 04       		.uleb128 0x4
 361 006d D6000000 		.4byte	.LASF8
 362 0071 03       		.byte	0x3
 363 0072 38       		.byte	0x38
 364 0073 77000000 		.4byte	0x77
 365 0077 03       		.uleb128 0x3
 366 0078 04       		.byte	0x4
 367 0079 07       		.byte	0x7
 368 007a 02010000 		.4byte	.LASF9
 369 007e 03       		.uleb128 0x3
 370 007f 08       		.byte	0x8
 371 0080 05       		.byte	0x5
 372 0081 5F000000 		.4byte	.LASF10
 373 0085 04       		.uleb128 0x4
 374 0086 06020000 		.4byte	.LASF11
 375 008a 03       		.byte	0x3
 376 008b 4E       		.byte	0x4e
 377 008c 90000000 		.4byte	0x90
 378 0090 03       		.uleb128 0x3
 379 0091 08       		.byte	0x8
 380 0092 07       		.byte	0x7
 381 0093 38000000 		.4byte	.LASF12
 382 0097 04       		.uleb128 0x4
 383 0098 4F030000 		.4byte	.LASF13
 384 009c 04       		.byte	0x4
 385 009d 2A       		.byte	0x2a
 386 009e 3A000000 		.4byte	0x3a
 387 00a2 04       		.uleb128 0x4
 388 00a3 2E020000 		.4byte	.LASF14
 389 00a7 04       		.byte	0x4
 390 00a8 41       		.byte	0x41
ARM GAS  /tmp/cchp2dIa.s 			page 8


 391 00a9 5A000000 		.4byte	0x5a
 392 00ad 04       		.uleb128 0x4
 393 00ae B4020000 		.4byte	.LASF15
 394 00b2 04       		.byte	0x4
 395 00b3 42       		.byte	0x42
 396 00b4 6C000000 		.4byte	0x6c
 397 00b8 04       		.uleb128 0x4
 398 00b9 25000000 		.4byte	.LASF16
 399 00bd 04       		.byte	0x4
 400 00be 4E       		.byte	0x4e
 401 00bf 85000000 		.4byte	0x85
 402 00c3 03       		.uleb128 0x3
 403 00c4 01       		.byte	0x1
 404 00c5 02       		.byte	0x2
 405 00c6 28020000 		.4byte	.LASF17
 406 00ca 04       		.uleb128 0x4
 407 00cb 7F010000 		.4byte	.LASF18
 408 00cf 05       		.byte	0x5
 409 00d0 2C       		.byte	0x2c
 410 00d1 97000000 		.4byte	0x97
 411 00d5 04       		.uleb128 0x4
 412 00d6 C5000000 		.4byte	.LASF19
 413 00da 05       		.byte	0x5
 414 00db 2D       		.byte	0x2d
 415 00dc 97000000 		.4byte	0x97
 416 00e0 04       		.uleb128 0x4
 417 00e1 11020000 		.4byte	.LASF20
 418 00e5 05       		.byte	0x5
 419 00e6 2E       		.byte	0x2e
 420 00e7 97000000 		.4byte	0x97
 421 00eb 04       		.uleb128 0x4
 422 00ec 89000000 		.4byte	.LASF21
 423 00f0 05       		.byte	0x5
 424 00f1 2F       		.byte	0x2f
 425 00f2 97000000 		.4byte	0x97
 426 00f6 04       		.uleb128 0x4
 427 00f7 20020000 		.4byte	.LASF22
 428 00fb 05       		.byte	0x5
 429 00fc 30       		.byte	0x30
 430 00fd AD000000 		.4byte	0xad
 431 0101 04       		.uleb128 0x4
 432 0102 2F010000 		.4byte	.LASF23
 433 0106 05       		.byte	0x5
 434 0107 31       		.byte	0x31
 435 0108 A2000000 		.4byte	0xa2
 436 010c 04       		.uleb128 0x4
 437 010d 93010000 		.4byte	.LASF24
 438 0111 05       		.byte	0x5
 439 0112 33       		.byte	0x33
 440 0113 AD000000 		.4byte	0xad
 441 0117 04       		.uleb128 0x4
 442 0118 E9020000 		.4byte	.LASF25
 443 011c 05       		.byte	0x5
 444 011d 35       		.byte	0x35
 445 011e AD000000 		.4byte	0xad
 446 0122 04       		.uleb128 0x4
 447 0123 87020000 		.4byte	.LASF26
ARM GAS  /tmp/cchp2dIa.s 			page 9


 448 0127 06       		.byte	0x6
 449 0128 2A       		.byte	0x2a
 450 0129 2D010000 		.4byte	0x12d
 451 012d 05       		.uleb128 0x5
 452 012e 87020000 		.4byte	.LASF26
 453 0132 4C       		.byte	0x4c
 454 0133 07       		.byte	0x7
 455 0134 5E       		.byte	0x5e
 456 0135 36020000 		.4byte	0x236
 457 0139 06       		.uleb128 0x6
 458 013a 78020000 		.4byte	.LASF27
 459 013e 07       		.byte	0x7
 460 013f 5F       		.byte	0x5f
 461 0140 57020000 		.4byte	0x257
 462 0144 00       		.byte	0
 463 0145 06       		.uleb128 0x6
 464 0146 19020000 		.4byte	.LASF28
 465 014a 07       		.byte	0x7
 466 014b 61       		.byte	0x61
 467 014c 57020000 		.4byte	0x257
 468 0150 04       		.byte	0x4
 469 0151 06       		.uleb128 0x6
 470 0152 58000000 		.4byte	.LASF29
 471 0156 07       		.byte	0x7
 472 0157 63       		.byte	0x63
 473 0158 F6000000 		.4byte	0xf6
 474 015c 08       		.byte	0x8
 475 015d 06       		.uleb128 0x6
 476 015e 47040000 		.4byte	.LASF30
 477 0162 07       		.byte	0x7
 478 0163 64       		.byte	0x64
 479 0164 1C030000 		.4byte	0x31c
 480 0168 0C       		.byte	0xc
 481 0169 06       		.uleb128 0x6
 482 016a CE000000 		.4byte	.LASF31
 483 016e 07       		.byte	0x7
 484 016f 66       		.byte	0x66
 485 0170 57020000 		.4byte	0x257
 486 0174 10       		.byte	0x10
 487 0175 06       		.uleb128 0x6
 488 0176 C8010000 		.4byte	.LASF32
 489 017a 07       		.byte	0x7
 490 017b 67       		.byte	0x67
 491 017c 57020000 		.4byte	0x257
 492 0180 14       		.byte	0x14
 493 0181 06       		.uleb128 0x6
 494 0182 5E030000 		.4byte	.LASF33
 495 0186 07       		.byte	0x7
 496 0187 6E       		.byte	0x6e
 497 0188 1C040000 		.4byte	0x41c
 498 018c 18       		.byte	0x18
 499 018d 06       		.uleb128 0x6
 500 018e EA000000 		.4byte	.LASF34
 501 0192 07       		.byte	0x7
 502 0193 74       		.byte	0x74
 503 0194 2E040000 		.4byte	0x42e
 504 0198 1C       		.byte	0x1c
ARM GAS  /tmp/cchp2dIa.s 			page 10


 505 0199 06       		.uleb128 0x6
 506 019a 58020000 		.4byte	.LASF35
 507 019e 07       		.byte	0x7
 508 019f 79       		.byte	0x79
 509 01a0 D5000000 		.4byte	0xd5
 510 01a4 20       		.byte	0x20
 511 01a5 06       		.uleb128 0x6
 512 01a6 7F020000 		.4byte	.LASF36
 513 01aa 07       		.byte	0x7
 514 01ab 7D       		.byte	0x7d
 515 01ac CA000000 		.4byte	0xca
 516 01b0 21       		.byte	0x21
 517 01b1 06       		.uleb128 0x6
 518 01b2 38030000 		.4byte	.LASF37
 519 01b6 07       		.byte	0x7
 520 01b7 82       		.byte	0x82
 521 01b8 E0000000 		.4byte	0xe0
 522 01bc 22       		.byte	0x22
 523 01bd 06       		.uleb128 0x6
 524 01be 60020000 		.4byte	.LASF38
 525 01c2 07       		.byte	0x7
 526 01c3 88       		.byte	0x88
 527 01c4 EB000000 		.4byte	0xeb
 528 01c8 23       		.byte	0x23
 529 01c9 06       		.uleb128 0x6
 530 01ca 08030000 		.4byte	.LASF39
 531 01ce 07       		.byte	0x7
 532 01cf 8F       		.byte	0x8f
 533 01d0 44030000 		.4byte	0x344
 534 01d4 24       		.byte	0x24
 535 01d5 07       		.uleb128 0x7
 536 01d6 705F7500 		.ascii	"p_u\000"
 537 01da 07       		.byte	0x7
 538 01db B4       		.byte	0xb4
 539 01dc E7030000 		.4byte	0x3e7
 540 01e0 28       		.byte	0x28
 541 01e1 06       		.uleb128 0x6
 542 01e2 4D040000 		.4byte	.LASF40
 543 01e6 07       		.byte	0x7
 544 01e7 B9       		.byte	0xb9
 545 01e8 7D020000 		.4byte	0x27d
 546 01ec 2C       		.byte	0x2c
 547 01ed 06       		.uleb128 0x6
 548 01ee 16030000 		.4byte	.LASF41
 549 01f2 07       		.byte	0x7
 550 01f3 BF       		.byte	0xbf
 551 01f4 5D020000 		.4byte	0x25d
 552 01f8 30       		.byte	0x30
 553 01f9 06       		.uleb128 0x6
 554 01fa 00000000 		.4byte	.LASF42
 555 01fe 07       		.byte	0x7
 556 01ff C3       		.byte	0xc3
 557 0200 01010000 		.4byte	0x101
 558 0204 38       		.byte	0x38
 559 0205 06       		.uleb128 0x6
 560 0206 A9020000 		.4byte	.LASF43
 561 020a 07       		.byte	0x7
ARM GAS  /tmp/cchp2dIa.s 			page 11


 562 020b C9       		.byte	0xc9
 563 020c 0C010000 		.4byte	0x10c
 564 0210 3C       		.byte	0x3c
 565 0211 06       		.uleb128 0x6
 566 0212 44020000 		.4byte	.LASF44
 567 0216 07       		.byte	0x7
 568 0217 D0       		.byte	0xd0
 569 0218 34040000 		.4byte	0x434
 570 021c 40       		.byte	0x40
 571 021d 06       		.uleb128 0x6
 572 021e F3020000 		.4byte	.LASF45
 573 0222 07       		.byte	0x7
 574 0223 D4       		.byte	0xd4
 575 0224 F6000000 		.4byte	0xf6
 576 0228 44       		.byte	0x44
 577 0229 06       		.uleb128 0x6
 578 022a 79000000 		.4byte	.LASF46
 579 022e 07       		.byte	0x7
 580 022f DA       		.byte	0xda
 581 0230 93020000 		.4byte	0x293
 582 0234 48       		.byte	0x48
 583 0235 00       		.byte	0
 584 0236 08       		.uleb128 0x8
 585 0237 08       		.byte	0x8
 586 0238 06       		.byte	0x6
 587 0239 61       		.byte	0x61
 588 023a 57020000 		.4byte	0x257
 589 023e 06       		.uleb128 0x6
 590 023f 78020000 		.4byte	.LASF27
 591 0243 06       		.byte	0x6
 592 0244 62       		.byte	0x62
 593 0245 57020000 		.4byte	0x257
 594 0249 00       		.byte	0
 595 024a 06       		.uleb128 0x6
 596 024b 19020000 		.4byte	.LASF28
 597 024f 06       		.byte	0x6
 598 0250 64       		.byte	0x64
 599 0251 57020000 		.4byte	0x257
 600 0255 04       		.byte	0x4
 601 0256 00       		.byte	0
 602 0257 09       		.uleb128 0x9
 603 0258 04       		.byte	0x4
 604 0259 22010000 		.4byte	0x122
 605 025d 04       		.uleb128 0x4
 606 025e D6010000 		.4byte	.LASF47
 607 0262 06       		.byte	0x6
 608 0263 66       		.byte	0x66
 609 0264 36020000 		.4byte	0x236
 610 0268 08       		.uleb128 0x8
 611 0269 04       		.byte	0x4
 612 026a 06       		.byte	0x6
 613 026b 6B       		.byte	0x6b
 614 026c 7D020000 		.4byte	0x27d
 615 0270 06       		.uleb128 0x6
 616 0271 78020000 		.4byte	.LASF27
 617 0275 06       		.byte	0x6
 618 0276 6D       		.byte	0x6d
ARM GAS  /tmp/cchp2dIa.s 			page 12


 619 0277 57020000 		.4byte	0x257
 620 027b 00       		.byte	0
 621 027c 00       		.byte	0
 622 027d 04       		.uleb128 0x4
 623 027e 87010000 		.4byte	.LASF48
 624 0282 06       		.byte	0x6
 625 0283 70       		.byte	0x70
 626 0284 68020000 		.4byte	0x268
 627 0288 04       		.uleb128 0x4
 628 0289 E1000000 		.4byte	.LASF49
 629 028d 08       		.byte	0x8
 630 028e E5       		.byte	0xe5
 631 028f 93020000 		.4byte	0x293
 632 0293 0A       		.uleb128 0xa
 633 0294 04       		.byte	0x4
 634 0295 04       		.uleb128 0x4
 635 0296 A5010000 		.4byte	.LASF50
 636 029a 08       		.byte	0x8
 637 029b EB       		.byte	0xeb
 638 029c B8000000 		.4byte	0xb8
 639 02a0 0B       		.uleb128 0xb
 640 02a1 0F030000 		.4byte	.LASF51
 641 02a5 24       		.byte	0x24
 642 02a6 08       		.byte	0x8
 643 02a7 0C01     		.2byte	0x10c
 644 02a9 1C030000 		.4byte	0x31c
 645 02ad 0C       		.uleb128 0xc
 646 02ae 723400   		.ascii	"r4\000"
 647 02b1 08       		.byte	0x8
 648 02b2 1F01     		.2byte	0x11f
 649 02b4 88020000 		.4byte	0x288
 650 02b8 00       		.byte	0
 651 02b9 0C       		.uleb128 0xc
 652 02ba 723500   		.ascii	"r5\000"
 653 02bd 08       		.byte	0x8
 654 02be 2001     		.2byte	0x120
 655 02c0 88020000 		.4byte	0x288
 656 02c4 04       		.byte	0x4
 657 02c5 0C       		.uleb128 0xc
 658 02c6 723600   		.ascii	"r6\000"
 659 02c9 08       		.byte	0x8
 660 02ca 2101     		.2byte	0x121
 661 02cc 88020000 		.4byte	0x288
 662 02d0 08       		.byte	0x8
 663 02d1 0C       		.uleb128 0xc
 664 02d2 723700   		.ascii	"r7\000"
 665 02d5 08       		.byte	0x8
 666 02d6 2201     		.2byte	0x122
 667 02d8 88020000 		.4byte	0x288
 668 02dc 0C       		.byte	0xc
 669 02dd 0C       		.uleb128 0xc
 670 02de 723800   		.ascii	"r8\000"
 671 02e1 08       		.byte	0x8
 672 02e2 2301     		.2byte	0x123
 673 02e4 88020000 		.4byte	0x288
 674 02e8 10       		.byte	0x10
 675 02e9 0C       		.uleb128 0xc
ARM GAS  /tmp/cchp2dIa.s 			page 13


 676 02ea 723900   		.ascii	"r9\000"
 677 02ed 08       		.byte	0x8
 678 02ee 2401     		.2byte	0x124
 679 02f0 88020000 		.4byte	0x288
 680 02f4 14       		.byte	0x14
 681 02f5 0C       		.uleb128 0xc
 682 02f6 72313000 		.ascii	"r10\000"
 683 02fa 08       		.byte	0x8
 684 02fb 2501     		.2byte	0x125
 685 02fd 88020000 		.4byte	0x288
 686 0301 18       		.byte	0x18
 687 0302 0C       		.uleb128 0xc
 688 0303 72313100 		.ascii	"r11\000"
 689 0307 08       		.byte	0x8
 690 0308 2601     		.2byte	0x126
 691 030a 88020000 		.4byte	0x288
 692 030e 1C       		.byte	0x1c
 693 030f 0C       		.uleb128 0xc
 694 0310 6C7200   		.ascii	"lr\000"
 695 0313 08       		.byte	0x8
 696 0314 2701     		.2byte	0x127
 697 0316 88020000 		.4byte	0x288
 698 031a 20       		.byte	0x20
 699 031b 00       		.byte	0
 700 031c 0B       		.uleb128 0xb
 701 031d 14010000 		.4byte	.LASF52
 702 0321 04       		.byte	0x4
 703 0322 08       		.byte	0x8
 704 0323 3101     		.2byte	0x131
 705 0325 37030000 		.4byte	0x337
 706 0329 0C       		.uleb128 0xc
 707 032a 72313300 		.ascii	"r13\000"
 708 032e 08       		.byte	0x8
 709 032f 3201     		.2byte	0x132
 710 0331 37030000 		.4byte	0x337
 711 0335 00       		.byte	0
 712 0336 00       		.byte	0
 713 0337 09       		.uleb128 0x9
 714 0338 04       		.byte	0x4
 715 0339 A0020000 		.4byte	0x2a0
 716 033d 03       		.uleb128 0x3
 717 033e 04       		.byte	0x4
 718 033f 07       		.byte	0x7
 719 0340 B0010000 		.4byte	.LASF53
 720 0344 0D       		.uleb128 0xd
 721 0345 17010000 		.4byte	0x117
 722 0349 08       		.uleb128 0x8
 723 034a 1C       		.byte	0x1c
 724 034b 09       		.byte	0x9
 725 034c 5E       		.byte	0x5e
 726 034d 9A030000 		.4byte	0x39a
 727 0351 06       		.uleb128 0x6
 728 0352 BD020000 		.4byte	.LASF54
 729 0356 09       		.byte	0x9
 730 0357 5F       		.byte	0x5f
 731 0358 5D020000 		.4byte	0x25d
 732 035c 00       		.byte	0
ARM GAS  /tmp/cchp2dIa.s 			page 14


 733 035d 06       		.uleb128 0x6
 734 035e 6A020000 		.4byte	.LASF55
 735 0362 09       		.byte	0x9
 736 0363 60       		.byte	0x60
 737 0364 F6000000 		.4byte	0xf6
 738 0368 08       		.byte	0x8
 739 0369 06       		.uleb128 0x6
 740 036a D0010000 		.4byte	.LASF56
 741 036e 09       		.byte	0x9
 742 036f 62       		.byte	0x62
 743 0370 1C030000 		.4byte	0x31c
 744 0374 0C       		.byte	0xc
 745 0375 06       		.uleb128 0x6
 746 0376 77010000 		.4byte	.LASF57
 747 037a 09       		.byte	0x9
 748 037b 65       		.byte	0x65
 749 037c 57020000 		.4byte	0x257
 750 0380 10       		.byte	0x10
 751 0381 06       		.uleb128 0x6
 752 0382 ED010000 		.4byte	.LASF58
 753 0386 09       		.byte	0x9
 754 0387 66       		.byte	0x66
 755 0388 57020000 		.4byte	0x257
 756 038c 14       		.byte	0x14
 757 038d 06       		.uleb128 0x6
 758 038e E3010000 		.4byte	.LASF59
 759 0392 09       		.byte	0x9
 760 0393 69       		.byte	0x69
 761 0394 57020000 		.4byte	0x257
 762 0398 18       		.byte	0x18
 763 0399 00       		.byte	0
 764 039a 04       		.uleb128 0x4
 765 039b 3F030000 		.4byte	.LASF60
 766 039f 09       		.byte	0x9
 767 03a0 6B       		.byte	0x6b
 768 03a1 49030000 		.4byte	0x349
 769 03a5 05       		.uleb128 0x5
 770 03a6 9F010000 		.4byte	.LASF61
 771 03aa 10       		.byte	0x10
 772 03ab 0A       		.byte	0xa
 773 03ac 2C       		.byte	0x2c
 774 03ad D6030000 		.4byte	0x3d6
 775 03b1 06       		.uleb128 0x6
 776 03b2 81000000 		.4byte	.LASF62
 777 03b6 0A       		.byte	0xa
 778 03b7 2D       		.byte	0x2d
 779 03b8 5D020000 		.4byte	0x25d
 780 03bc 00       		.byte	0
 781 03bd 06       		.uleb128 0x6
 782 03be 3F040000 		.4byte	.LASF63
 783 03c2 0A       		.byte	0xa
 784 03c3 2F       		.byte	0x2f
 785 03c4 57020000 		.4byte	0x257
 786 03c8 08       		.byte	0x8
 787 03c9 06       		.uleb128 0x6
 788 03ca E2020000 		.4byte	.LASF64
 789 03ce 0A       		.byte	0xa
ARM GAS  /tmp/cchp2dIa.s 			page 15


 790 03cf 31       		.byte	0x31
 791 03d0 D6030000 		.4byte	0x3d6
 792 03d4 0C       		.byte	0xc
 793 03d5 00       		.byte	0
 794 03d6 09       		.uleb128 0x9
 795 03d7 04       		.byte	0x4
 796 03d8 A5030000 		.4byte	0x3a5
 797 03dc 04       		.uleb128 0x4
 798 03dd 9F010000 		.4byte	.LASF61
 799 03e1 0A       		.byte	0xa
 800 03e2 33       		.byte	0x33
 801 03e3 A5030000 		.4byte	0x3a5
 802 03e7 0E       		.uleb128 0xe
 803 03e8 04       		.byte	0x4
 804 03e9 07       		.byte	0x7
 805 03ea 96       		.byte	0x96
 806 03eb 1C040000 		.4byte	0x41c
 807 03ef 0F       		.uleb128 0xf
 808 03f0 1E000000 		.4byte	.LASF65
 809 03f4 07       		.byte	0x7
 810 03f5 9D       		.byte	0x9d
 811 03f6 01010000 		.4byte	0x101
 812 03fa 0F       		.uleb128 0xf
 813 03fb 4F000000 		.4byte	.LASF66
 814 03ff 07       		.byte	0x7
 815 0400 A4       		.byte	0xa4
 816 0401 01010000 		.4byte	0x101
 817 0405 0F       		.uleb128 0xf
 818 0406 57030000 		.4byte	.LASF67
 819 040a 07       		.byte	0x7
 820 040b AB       		.byte	0xab
 821 040c 93020000 		.4byte	0x293
 822 0410 0F       		.uleb128 0xf
 823 0411 71020000 		.4byte	.LASF68
 824 0415 07       		.byte	0x7
 825 0416 B2       		.byte	0xb2
 826 0417 0C010000 		.4byte	0x10c
 827 041b 00       		.byte	0
 828 041c 09       		.uleb128 0x9
 829 041d 04       		.byte	0x4
 830 041e 22040000 		.4byte	0x422
 831 0422 10       		.uleb128 0x10
 832 0423 27040000 		.4byte	0x427
 833 0427 03       		.uleb128 0x3
 834 0428 01       		.byte	0x1
 835 0429 08       		.byte	0x8
 836 042a D1020000 		.4byte	.LASF69
 837 042e 09       		.uleb128 0x9
 838 042f 04       		.byte	0x4
 839 0430 95020000 		.4byte	0x295
 840 0434 09       		.uleb128 0x9
 841 0435 04       		.byte	0x4
 842 0436 DC030000 		.4byte	0x3dc
 843 043a 11       		.uleb128 0x11
 844 043b 06000000 		.4byte	.LASF79
 845 043f 02       		.byte	0x2
 846 0440 34       		.byte	0x34
ARM GAS  /tmp/cchp2dIa.s 			page 16


 847 0441 03       		.byte	0x3
 848 0442 5C040000 		.4byte	0x45c
 849 0446 12       		.uleb128 0x12
 850 0447 747000   		.ascii	"tp\000"
 851 044a 02       		.byte	0x2
 852 044b 34       		.byte	0x34
 853 044c 57020000 		.4byte	0x257
 854 0450 12       		.uleb128 0x12
 855 0451 74717000 		.ascii	"tqp\000"
 856 0455 02       		.byte	0x2
 857 0456 34       		.byte	0x34
 858 0457 5C040000 		.4byte	0x45c
 859 045b 00       		.byte	0
 860 045c 09       		.uleb128 0x9
 861 045d 04       		.byte	0x4
 862 045e 5D020000 		.4byte	0x25d
 863 0462 13       		.uleb128 0x13
 864 0463 D6020000 		.4byte	.LASF80
 865 0467 02       		.byte	0x2
 866 0468 3B       		.byte	0x3b
 867 0469 57020000 		.4byte	0x257
 868 046d 03       		.byte	0x3
 869 046e 88040000 		.4byte	0x488
 870 0472 12       		.uleb128 0x12
 871 0473 74717000 		.ascii	"tqp\000"
 872 0477 02       		.byte	0x2
 873 0478 3B       		.byte	0x3b
 874 0479 5C040000 		.4byte	0x45c
 875 047d 14       		.uleb128 0x14
 876 047e 747000   		.ascii	"tp\000"
 877 0481 02       		.byte	0x2
 878 0482 3C       		.byte	0x3c
 879 0483 57020000 		.4byte	0x257
 880 0487 00       		.byte	0
 881 0488 15       		.uleb128 0x15
 882 0489 BB000000 		.4byte	.LASF70
 883 048d 01       		.byte	0x1
 884 048e 4B       		.byte	0x4b
 885 048f 01010000 		.4byte	0x101
 886 0493 00000000 		.4byte	.LFB7
 887 0497 60000000 		.4byte	.LFE7-.LFB7
 888 049b 01       		.uleb128 0x1
 889 049c 9C       		.byte	0x9c
 890 049d 76050000 		.4byte	0x576
 891 04a1 16       		.uleb128 0x16
 892 04a2 747000   		.ascii	"tp\000"
 893 04a5 01       		.byte	0x1
 894 04a6 4B       		.byte	0x4b
 895 04a7 57020000 		.4byte	0x257
 896 04ab 00000000 		.4byte	.LLST0
 897 04af 16       		.uleb128 0x16
 898 04b0 6D736700 		.ascii	"msg\000"
 899 04b4 01       		.byte	0x1
 900 04b5 4B       		.byte	0x4b
 901 04b6 01010000 		.4byte	0x101
 902 04ba 34000000 		.4byte	.LLST1
 903 04be 17       		.uleb128 0x17
ARM GAS  /tmp/cchp2dIa.s 			page 17


 904 04bf 63747000 		.ascii	"ctp\000"
 905 04c3 01       		.byte	0x1
 906 04c4 4C       		.byte	0x4c
 907 04c5 57020000 		.4byte	0x257
 908 04c9 7E000000 		.4byte	.LLST2
 909 04cd 18       		.uleb128 0x18
 910 04ce 0C000000 		.4byte	.LBB10
 911 04d2 06000000 		.4byte	.LBE10-.LBB10
 912 04d6 E8040000 		.4byte	0x4e8
 913 04da 19       		.uleb128 0x19
 914 04db 746D7000 		.ascii	"tmp\000"
 915 04df 01       		.byte	0x1
 916 04e0 50       		.byte	0x50
 917 04e1 AD000000 		.4byte	0xad
 918 04e5 01       		.uleb128 0x1
 919 04e6 53       		.byte	0x53
 920 04e7 00       		.byte	0
 921 04e8 1A       		.uleb128 0x1a
 922 04e9 3A040000 		.4byte	0x43a
 923 04ed 20000000 		.4byte	.LBB11
 924 04f1 00000000 		.4byte	.Ldebug_ranges0+0
 925 04f5 01       		.byte	0x1
 926 04f6 53       		.byte	0x53
 927 04f7 0E050000 		.4byte	0x50e
 928 04fb 1B       		.uleb128 0x1b
 929 04fc 50040000 		.4byte	0x450
 930 0500 9C000000 		.4byte	.LLST3
 931 0504 1B       		.uleb128 0x1b
 932 0505 46040000 		.4byte	0x446
 933 0509 D4000000 		.4byte	.LLST4
 934 050d 00       		.byte	0
 935 050e 18       		.uleb128 0x18
 936 050f 3C000000 		.4byte	.LBB15
 937 0513 06000000 		.4byte	.LBE15-.LBB15
 938 0517 29050000 		.4byte	0x529
 939 051b 19       		.uleb128 0x19
 940 051c 746D7000 		.ascii	"tmp\000"
 941 0520 01       		.byte	0x1
 942 0521 58       		.byte	0x58
 943 0522 AD000000 		.4byte	0xad
 944 0526 01       		.uleb128 0x1
 945 0527 53       		.byte	0x53
 946 0528 00       		.byte	0
 947 0529 1C       		.uleb128 0x1c
 948 052a 16000000 		.4byte	.LVL3
 949 052e D4060000 		.4byte	0x6d4
 950 0532 1D       		.uleb128 0x1d
 951 0533 36000000 		.4byte	.LVL6
 952 0537 DB060000 		.4byte	0x6db
 953 053b 45050000 		.4byte	0x545
 954 053f 1E       		.uleb128 0x1e
 955 0540 01       		.uleb128 0x1
 956 0541 50       		.byte	0x50
 957 0542 01       		.uleb128 0x1
 958 0543 3A       		.byte	0x3a
 959 0544 00       		.byte	0
 960 0545 1C       		.uleb128 0x1c
ARM GAS  /tmp/cchp2dIa.s 			page 18


 961 0546 3C000000 		.4byte	.LVL8
 962 054a EC060000 		.4byte	0x6ec
 963 054e 1D       		.uleb128 0x1d
 964 054f 4C000000 		.4byte	.LVL10
 965 0553 F3060000 		.4byte	0x6f3
 966 0557 62050000 		.4byte	0x562
 967 055b 1E       		.uleb128 0x1e
 968 055c 01       		.uleb128 0x1
 969 055d 50       		.byte	0x50
 970 055e 02       		.uleb128 0x2
 971 055f 75       		.byte	0x75
 972 0560 00       		.sleb128 0
 973 0561 00       		.byte	0
 974 0562 1F       		.uleb128 0x1f
 975 0563 54000000 		.4byte	.LVL13
 976 0567 08070000 		.4byte	0x708
 977 056b 1E       		.uleb128 0x1e
 978 056c 01       		.uleb128 0x1
 979 056d 50       		.byte	0x50
 980 056e 05       		.uleb128 0x5
 981 056f 03       		.byte	0x3
 982 0570 00000000 		.4byte	.LC0
 983 0574 00       		.byte	0
 984 0575 00       		.byte	0
 985 0576 15       		.uleb128 0x15
 986 0577 2E030000 		.4byte	.LASF71
 987 057b 01       		.byte	0x1
 988 057c 6A       		.byte	0x6a
 989 057d 57020000 		.4byte	0x257
 990 0581 00000000 		.4byte	.LFB8
 991 0585 48000000 		.4byte	.LFE8-.LFB8
 992 0589 01       		.uleb128 0x1
 993 058a 9C       		.byte	0x9c
 994 058b 1D060000 		.4byte	0x61d
 995 058f 14       		.uleb128 0x14
 996 0590 747000   		.ascii	"tp\000"
 997 0593 01       		.byte	0x1
 998 0594 6B       		.byte	0x6b
 999 0595 57020000 		.4byte	0x257
 1000 0599 18       		.uleb128 0x18
 1001 059a 02000000 		.4byte	.LBB16
 1002 059e 06000000 		.4byte	.LBE16-.LBB16
 1003 05a2 B4050000 		.4byte	0x5b4
 1004 05a6 19       		.uleb128 0x19
 1005 05a7 746D7000 		.ascii	"tmp\000"
 1006 05ab 01       		.byte	0x1
 1007 05ac 6D       		.byte	0x6d
 1008 05ad AD000000 		.4byte	0xad
 1009 05b1 01       		.uleb128 0x1
 1010 05b2 53       		.byte	0x53
 1011 05b3 00       		.byte	0
 1012 05b4 1A       		.uleb128 0x1a
 1013 05b5 62040000 		.4byte	0x462
 1014 05b9 1A000000 		.4byte	.LBB17
 1015 05bd 18000000 		.4byte	.Ldebug_ranges0+0x18
 1016 05c1 01       		.byte	0x1
 1017 05c2 70       		.byte	0x70
ARM GAS  /tmp/cchp2dIa.s 			page 19


 1018 05c3 E0050000 		.4byte	0x5e0
 1019 05c7 1B       		.uleb128 0x1b
 1020 05c8 72040000 		.4byte	0x472
 1021 05cc F2000000 		.4byte	.LLST5
 1022 05d0 20       		.uleb128 0x20
 1023 05d1 18000000 		.4byte	.Ldebug_ranges0+0x18
 1024 05d5 21       		.uleb128 0x21
 1025 05d6 7D040000 		.4byte	0x47d
 1026 05da 05010000 		.4byte	.LLST6
 1027 05de 00       		.byte	0
 1028 05df 00       		.byte	0
 1029 05e0 18       		.uleb128 0x18
 1030 05e1 2A000000 		.4byte	.LBB21
 1031 05e5 06000000 		.4byte	.LBE21-.LBB21
 1032 05e9 FB050000 		.4byte	0x5fb
 1033 05ed 19       		.uleb128 0x19
 1034 05ee 746D7000 		.ascii	"tmp\000"
 1035 05f2 01       		.byte	0x1
 1036 05f3 72       		.byte	0x72
 1037 05f4 AD000000 		.4byte	0xad
 1038 05f8 01       		.uleb128 0x1
 1039 05f9 53       		.byte	0x53
 1040 05fa 00       		.byte	0
 1041 05fb 1C       		.uleb128 0x1c
 1042 05fc 0E000000 		.4byte	.LVL14
 1043 0600 D4060000 		.4byte	0x6d4
 1044 0604 1C       		.uleb128 0x1c
 1045 0605 2A000000 		.4byte	.LVL16
 1046 0609 EC060000 		.4byte	0x6ec
 1047 060d 1F       		.uleb128 0x1f
 1048 060e 3A000000 		.4byte	.LVL18
 1049 0612 DB060000 		.4byte	0x6db
 1050 0616 1E       		.uleb128 0x1e
 1051 0617 01       		.uleb128 0x1
 1052 0618 50       		.byte	0x50
 1053 0619 01       		.uleb128 0x1
 1054 061a 3C       		.byte	0x3c
 1055 061b 00       		.byte	0
 1056 061c 00       		.byte	0
 1057 061d 22       		.uleb128 0x22
 1058 061e 8E020000 		.4byte	.LASF81
 1059 0622 01       		.byte	0x1
 1060 0623 80       		.byte	0x80
 1061 0624 00000000 		.4byte	.LFB9
 1062 0628 38000000 		.4byte	.LFE9-.LFB9
 1063 062c 01       		.uleb128 0x1
 1064 062d 9C       		.byte	0x9c
 1065 062e C9060000 		.4byte	0x6c9
 1066 0632 16       		.uleb128 0x16
 1067 0633 747000   		.ascii	"tp\000"
 1068 0636 01       		.byte	0x1
 1069 0637 80       		.byte	0x80
 1070 0638 57020000 		.4byte	0x257
 1071 063c 18010000 		.4byte	.LLST7
 1072 0640 16       		.uleb128 0x16
 1073 0641 6D736700 		.ascii	"msg\000"
 1074 0645 01       		.byte	0x1
ARM GAS  /tmp/cchp2dIa.s 			page 20


 1075 0646 80       		.byte	0x80
 1076 0647 01010000 		.4byte	0x101
 1077 064b 44010000 		.4byte	.LLST8
 1078 064f 18       		.uleb128 0x18
 1079 0650 06000000 		.4byte	.LBB22
 1080 0654 06000000 		.4byte	.LBE22-.LBB22
 1081 0658 6A060000 		.4byte	0x66a
 1082 065c 19       		.uleb128 0x19
 1083 065d 746D7000 		.ascii	"tmp\000"
 1084 0661 01       		.byte	0x1
 1085 0662 82       		.byte	0x82
 1086 0663 AD000000 		.4byte	0xad
 1087 0667 01       		.uleb128 0x1
 1088 0668 53       		.byte	0x53
 1089 0669 00       		.byte	0
 1090 066a 18       		.uleb128 0x18
 1091 066b 2A000000 		.4byte	.LBB23
 1092 066f 0E000000 		.4byte	.LBE23-.LBB23
 1093 0673 85060000 		.4byte	0x685
 1094 0677 19       		.uleb128 0x19
 1095 0678 746D7000 		.ascii	"tmp\000"
 1096 067c 01       		.byte	0x1
 1097 067d 86       		.byte	0x86
 1098 067e AD000000 		.4byte	0xad
 1099 0682 01       		.uleb128 0x1
 1100 0683 53       		.byte	0x53
 1101 0684 00       		.byte	0
 1102 0685 1C       		.uleb128 0x1c
 1103 0686 10000000 		.4byte	.LVL20
 1104 068a D4060000 		.4byte	0x6d4
 1105 068e 1D       		.uleb128 0x1d
 1106 068f 1E000000 		.4byte	.LVL21
 1107 0693 08070000 		.4byte	0x708
 1108 0697 A5060000 		.4byte	0x6a5
 1109 069b 1E       		.uleb128 0x1e
 1110 069c 01       		.uleb128 0x1
 1111 069d 50       		.byte	0x50
 1112 069e 05       		.uleb128 0x5
 1113 069f 03       		.byte	0x3
 1114 06a0 10000000 		.4byte	.LC1
 1115 06a4 00       		.byte	0
 1116 06a5 1D       		.uleb128 0x1d
 1117 06a6 26000000 		.4byte	.LVL22
 1118 06aa 19070000 		.4byte	0x719
 1119 06ae BF060000 		.4byte	0x6bf
 1120 06b2 1E       		.uleb128 0x1e
 1121 06b3 01       		.uleb128 0x1
 1122 06b4 51       		.byte	0x51
 1123 06b5 02       		.uleb128 0x2
 1124 06b6 75       		.byte	0x75
 1125 06b7 00       		.sleb128 0
 1126 06b8 1E       		.uleb128 0x1e
 1127 06b9 01       		.uleb128 0x1
 1128 06ba 50       		.byte	0x50
 1129 06bb 02       		.uleb128 0x2
 1130 06bc 74       		.byte	0x74
 1131 06bd 00       		.sleb128 0
ARM GAS  /tmp/cchp2dIa.s 			page 21


 1132 06be 00       		.byte	0
 1133 06bf 1C       		.uleb128 0x1c
 1134 06c0 2A000000 		.4byte	.LVL23
 1135 06c4 EC060000 		.4byte	0x6ec
 1136 06c8 00       		.byte	0
 1137 06c9 23       		.uleb128 0x23
 1138 06ca 49030000 		.4byte	.LASF82
 1139 06ce 09       		.byte	0x9
 1140 06cf 6F       		.byte	0x6f
 1141 06d0 9A030000 		.4byte	0x39a
 1142 06d4 24       		.uleb128 0x24
 1143 06d5 B9010000 		.4byte	.LASF72
 1144 06d9 0B       		.byte	0xb
 1145 06da E7       		.byte	0xe7
 1146 06db 25       		.uleb128 0x25
 1147 06dc 9B020000 		.4byte	.LASF74
 1148 06e0 09       		.byte	0x9
 1149 06e1 93       		.byte	0x93
 1150 06e2 EC060000 		.4byte	0x6ec
 1151 06e6 26       		.uleb128 0x26
 1152 06e7 D5000000 		.4byte	0xd5
 1153 06eb 00       		.byte	0
 1154 06ec 24       		.uleb128 0x24
 1155 06ed F5010000 		.4byte	.LASF73
 1156 06f1 0B       		.byte	0xb
 1157 06f2 E8       		.byte	0xe8
 1158 06f3 27       		.uleb128 0x27
 1159 06f4 C5020000 		.4byte	.LASF83
 1160 06f8 09       		.byte	0x9
 1161 06f9 90       		.byte	0x90
 1162 06fa 57020000 		.4byte	0x257
 1163 06fe 08070000 		.4byte	0x708
 1164 0702 26       		.uleb128 0x26
 1165 0703 57020000 		.4byte	0x257
 1166 0707 00       		.byte	0
 1167 0708 25       		.uleb128 0x25
 1168 0709 13000000 		.4byte	.LASF75
 1169 070d 0B       		.byte	0xb
 1170 070e F6       		.byte	0xf6
 1171 070f 19070000 		.4byte	0x719
 1172 0713 26       		.uleb128 0x26
 1173 0714 1C040000 		.4byte	0x41c
 1174 0718 00       		.byte	0
 1175 0719 28       		.uleb128 0x28
 1176 071a 21030000 		.4byte	.LASF84
 1177 071e 09       		.byte	0x9
 1178 071f 99       		.byte	0x99
 1179 0720 26       		.uleb128 0x26
 1180 0721 57020000 		.4byte	0x257
 1181 0725 26       		.uleb128 0x26
 1182 0726 01010000 		.4byte	0x101
 1183 072a 00       		.byte	0
 1184 072b 00       		.byte	0
 1185              		.section	.debug_abbrev,"",%progbits
 1186              	.Ldebug_abbrev0:
 1187 0000 01       		.uleb128 0x1
 1188 0001 11       		.uleb128 0x11
ARM GAS  /tmp/cchp2dIa.s 			page 22


 1189 0002 01       		.byte	0x1
 1190 0003 25       		.uleb128 0x25
 1191 0004 0E       		.uleb128 0xe
 1192 0005 13       		.uleb128 0x13
 1193 0006 0B       		.uleb128 0xb
 1194 0007 03       		.uleb128 0x3
 1195 0008 0E       		.uleb128 0xe
 1196 0009 1B       		.uleb128 0x1b
 1197 000a 0E       		.uleb128 0xe
 1198 000b 55       		.uleb128 0x55
 1199 000c 17       		.uleb128 0x17
 1200 000d 11       		.uleb128 0x11
 1201 000e 01       		.uleb128 0x1
 1202 000f 10       		.uleb128 0x10
 1203 0010 17       		.uleb128 0x17
 1204 0011 00       		.byte	0
 1205 0012 00       		.byte	0
 1206 0013 02       		.uleb128 0x2
 1207 0014 24       		.uleb128 0x24
 1208 0015 00       		.byte	0
 1209 0016 0B       		.uleb128 0xb
 1210 0017 0B       		.uleb128 0xb
 1211 0018 3E       		.uleb128 0x3e
 1212 0019 0B       		.uleb128 0xb
 1213 001a 03       		.uleb128 0x3
 1214 001b 08       		.uleb128 0x8
 1215 001c 00       		.byte	0
 1216 001d 00       		.byte	0
 1217 001e 03       		.uleb128 0x3
 1218 001f 24       		.uleb128 0x24
 1219 0020 00       		.byte	0
 1220 0021 0B       		.uleb128 0xb
 1221 0022 0B       		.uleb128 0xb
 1222 0023 3E       		.uleb128 0x3e
 1223 0024 0B       		.uleb128 0xb
 1224 0025 03       		.uleb128 0x3
 1225 0026 0E       		.uleb128 0xe
 1226 0027 00       		.byte	0
 1227 0028 00       		.byte	0
 1228 0029 04       		.uleb128 0x4
 1229 002a 16       		.uleb128 0x16
 1230 002b 00       		.byte	0
 1231 002c 03       		.uleb128 0x3
 1232 002d 0E       		.uleb128 0xe
 1233 002e 3A       		.uleb128 0x3a
 1234 002f 0B       		.uleb128 0xb
 1235 0030 3B       		.uleb128 0x3b
 1236 0031 0B       		.uleb128 0xb
 1237 0032 49       		.uleb128 0x49
 1238 0033 13       		.uleb128 0x13
 1239 0034 00       		.byte	0
 1240 0035 00       		.byte	0
 1241 0036 05       		.uleb128 0x5
 1242 0037 13       		.uleb128 0x13
 1243 0038 01       		.byte	0x1
 1244 0039 03       		.uleb128 0x3
 1245 003a 0E       		.uleb128 0xe
ARM GAS  /tmp/cchp2dIa.s 			page 23


 1246 003b 0B       		.uleb128 0xb
 1247 003c 0B       		.uleb128 0xb
 1248 003d 3A       		.uleb128 0x3a
 1249 003e 0B       		.uleb128 0xb
 1250 003f 3B       		.uleb128 0x3b
 1251 0040 0B       		.uleb128 0xb
 1252 0041 01       		.uleb128 0x1
 1253 0042 13       		.uleb128 0x13
 1254 0043 00       		.byte	0
 1255 0044 00       		.byte	0
 1256 0045 06       		.uleb128 0x6
 1257 0046 0D       		.uleb128 0xd
 1258 0047 00       		.byte	0
 1259 0048 03       		.uleb128 0x3
 1260 0049 0E       		.uleb128 0xe
 1261 004a 3A       		.uleb128 0x3a
 1262 004b 0B       		.uleb128 0xb
 1263 004c 3B       		.uleb128 0x3b
 1264 004d 0B       		.uleb128 0xb
 1265 004e 49       		.uleb128 0x49
 1266 004f 13       		.uleb128 0x13
 1267 0050 38       		.uleb128 0x38
 1268 0051 0B       		.uleb128 0xb
 1269 0052 00       		.byte	0
 1270 0053 00       		.byte	0
 1271 0054 07       		.uleb128 0x7
 1272 0055 0D       		.uleb128 0xd
 1273 0056 00       		.byte	0
 1274 0057 03       		.uleb128 0x3
 1275 0058 08       		.uleb128 0x8
 1276 0059 3A       		.uleb128 0x3a
 1277 005a 0B       		.uleb128 0xb
 1278 005b 3B       		.uleb128 0x3b
 1279 005c 0B       		.uleb128 0xb
 1280 005d 49       		.uleb128 0x49
 1281 005e 13       		.uleb128 0x13
 1282 005f 38       		.uleb128 0x38
 1283 0060 0B       		.uleb128 0xb
 1284 0061 00       		.byte	0
 1285 0062 00       		.byte	0
 1286 0063 08       		.uleb128 0x8
 1287 0064 13       		.uleb128 0x13
 1288 0065 01       		.byte	0x1
 1289 0066 0B       		.uleb128 0xb
 1290 0067 0B       		.uleb128 0xb
 1291 0068 3A       		.uleb128 0x3a
 1292 0069 0B       		.uleb128 0xb
 1293 006a 3B       		.uleb128 0x3b
 1294 006b 0B       		.uleb128 0xb
 1295 006c 01       		.uleb128 0x1
 1296 006d 13       		.uleb128 0x13
 1297 006e 00       		.byte	0
 1298 006f 00       		.byte	0
 1299 0070 09       		.uleb128 0x9
 1300 0071 0F       		.uleb128 0xf
 1301 0072 00       		.byte	0
 1302 0073 0B       		.uleb128 0xb
ARM GAS  /tmp/cchp2dIa.s 			page 24


 1303 0074 0B       		.uleb128 0xb
 1304 0075 49       		.uleb128 0x49
 1305 0076 13       		.uleb128 0x13
 1306 0077 00       		.byte	0
 1307 0078 00       		.byte	0
 1308 0079 0A       		.uleb128 0xa
 1309 007a 0F       		.uleb128 0xf
 1310 007b 00       		.byte	0
 1311 007c 0B       		.uleb128 0xb
 1312 007d 0B       		.uleb128 0xb
 1313 007e 00       		.byte	0
 1314 007f 00       		.byte	0
 1315 0080 0B       		.uleb128 0xb
 1316 0081 13       		.uleb128 0x13
 1317 0082 01       		.byte	0x1
 1318 0083 03       		.uleb128 0x3
 1319 0084 0E       		.uleb128 0xe
 1320 0085 0B       		.uleb128 0xb
 1321 0086 0B       		.uleb128 0xb
 1322 0087 3A       		.uleb128 0x3a
 1323 0088 0B       		.uleb128 0xb
 1324 0089 3B       		.uleb128 0x3b
 1325 008a 05       		.uleb128 0x5
 1326 008b 01       		.uleb128 0x1
 1327 008c 13       		.uleb128 0x13
 1328 008d 00       		.byte	0
 1329 008e 00       		.byte	0
 1330 008f 0C       		.uleb128 0xc
 1331 0090 0D       		.uleb128 0xd
 1332 0091 00       		.byte	0
 1333 0092 03       		.uleb128 0x3
 1334 0093 08       		.uleb128 0x8
 1335 0094 3A       		.uleb128 0x3a
 1336 0095 0B       		.uleb128 0xb
 1337 0096 3B       		.uleb128 0x3b
 1338 0097 05       		.uleb128 0x5
 1339 0098 49       		.uleb128 0x49
 1340 0099 13       		.uleb128 0x13
 1341 009a 38       		.uleb128 0x38
 1342 009b 0B       		.uleb128 0xb
 1343 009c 00       		.byte	0
 1344 009d 00       		.byte	0
 1345 009e 0D       		.uleb128 0xd
 1346 009f 35       		.uleb128 0x35
 1347 00a0 00       		.byte	0
 1348 00a1 49       		.uleb128 0x49
 1349 00a2 13       		.uleb128 0x13
 1350 00a3 00       		.byte	0
 1351 00a4 00       		.byte	0
 1352 00a5 0E       		.uleb128 0xe
 1353 00a6 17       		.uleb128 0x17
 1354 00a7 01       		.byte	0x1
 1355 00a8 0B       		.uleb128 0xb
 1356 00a9 0B       		.uleb128 0xb
 1357 00aa 3A       		.uleb128 0x3a
 1358 00ab 0B       		.uleb128 0xb
 1359 00ac 3B       		.uleb128 0x3b
ARM GAS  /tmp/cchp2dIa.s 			page 25


 1360 00ad 0B       		.uleb128 0xb
 1361 00ae 01       		.uleb128 0x1
 1362 00af 13       		.uleb128 0x13
 1363 00b0 00       		.byte	0
 1364 00b1 00       		.byte	0
 1365 00b2 0F       		.uleb128 0xf
 1366 00b3 0D       		.uleb128 0xd
 1367 00b4 00       		.byte	0
 1368 00b5 03       		.uleb128 0x3
 1369 00b6 0E       		.uleb128 0xe
 1370 00b7 3A       		.uleb128 0x3a
 1371 00b8 0B       		.uleb128 0xb
 1372 00b9 3B       		.uleb128 0x3b
 1373 00ba 0B       		.uleb128 0xb
 1374 00bb 49       		.uleb128 0x49
 1375 00bc 13       		.uleb128 0x13
 1376 00bd 00       		.byte	0
 1377 00be 00       		.byte	0
 1378 00bf 10       		.uleb128 0x10
 1379 00c0 26       		.uleb128 0x26
 1380 00c1 00       		.byte	0
 1381 00c2 49       		.uleb128 0x49
 1382 00c3 13       		.uleb128 0x13
 1383 00c4 00       		.byte	0
 1384 00c5 00       		.byte	0
 1385 00c6 11       		.uleb128 0x11
 1386 00c7 2E       		.uleb128 0x2e
 1387 00c8 01       		.byte	0x1
 1388 00c9 03       		.uleb128 0x3
 1389 00ca 0E       		.uleb128 0xe
 1390 00cb 3A       		.uleb128 0x3a
 1391 00cc 0B       		.uleb128 0xb
 1392 00cd 3B       		.uleb128 0x3b
 1393 00ce 0B       		.uleb128 0xb
 1394 00cf 27       		.uleb128 0x27
 1395 00d0 19       		.uleb128 0x19
 1396 00d1 20       		.uleb128 0x20
 1397 00d2 0B       		.uleb128 0xb
 1398 00d3 01       		.uleb128 0x1
 1399 00d4 13       		.uleb128 0x13
 1400 00d5 00       		.byte	0
 1401 00d6 00       		.byte	0
 1402 00d7 12       		.uleb128 0x12
 1403 00d8 05       		.uleb128 0x5
 1404 00d9 00       		.byte	0
 1405 00da 03       		.uleb128 0x3
 1406 00db 08       		.uleb128 0x8
 1407 00dc 3A       		.uleb128 0x3a
 1408 00dd 0B       		.uleb128 0xb
 1409 00de 3B       		.uleb128 0x3b
 1410 00df 0B       		.uleb128 0xb
 1411 00e0 49       		.uleb128 0x49
 1412 00e1 13       		.uleb128 0x13
 1413 00e2 00       		.byte	0
 1414 00e3 00       		.byte	0
 1415 00e4 13       		.uleb128 0x13
 1416 00e5 2E       		.uleb128 0x2e
ARM GAS  /tmp/cchp2dIa.s 			page 26


 1417 00e6 01       		.byte	0x1
 1418 00e7 03       		.uleb128 0x3
 1419 00e8 0E       		.uleb128 0xe
 1420 00e9 3A       		.uleb128 0x3a
 1421 00ea 0B       		.uleb128 0xb
 1422 00eb 3B       		.uleb128 0x3b
 1423 00ec 0B       		.uleb128 0xb
 1424 00ed 27       		.uleb128 0x27
 1425 00ee 19       		.uleb128 0x19
 1426 00ef 49       		.uleb128 0x49
 1427 00f0 13       		.uleb128 0x13
 1428 00f1 20       		.uleb128 0x20
 1429 00f2 0B       		.uleb128 0xb
 1430 00f3 01       		.uleb128 0x1
 1431 00f4 13       		.uleb128 0x13
 1432 00f5 00       		.byte	0
 1433 00f6 00       		.byte	0
 1434 00f7 14       		.uleb128 0x14
 1435 00f8 34       		.uleb128 0x34
 1436 00f9 00       		.byte	0
 1437 00fa 03       		.uleb128 0x3
 1438 00fb 08       		.uleb128 0x8
 1439 00fc 3A       		.uleb128 0x3a
 1440 00fd 0B       		.uleb128 0xb
 1441 00fe 3B       		.uleb128 0x3b
 1442 00ff 0B       		.uleb128 0xb
 1443 0100 49       		.uleb128 0x49
 1444 0101 13       		.uleb128 0x13
 1445 0102 00       		.byte	0
 1446 0103 00       		.byte	0
 1447 0104 15       		.uleb128 0x15
 1448 0105 2E       		.uleb128 0x2e
 1449 0106 01       		.byte	0x1
 1450 0107 3F       		.uleb128 0x3f
 1451 0108 19       		.uleb128 0x19
 1452 0109 03       		.uleb128 0x3
 1453 010a 0E       		.uleb128 0xe
 1454 010b 3A       		.uleb128 0x3a
 1455 010c 0B       		.uleb128 0xb
 1456 010d 3B       		.uleb128 0x3b
 1457 010e 0B       		.uleb128 0xb
 1458 010f 27       		.uleb128 0x27
 1459 0110 19       		.uleb128 0x19
 1460 0111 49       		.uleb128 0x49
 1461 0112 13       		.uleb128 0x13
 1462 0113 11       		.uleb128 0x11
 1463 0114 01       		.uleb128 0x1
 1464 0115 12       		.uleb128 0x12
 1465 0116 06       		.uleb128 0x6
 1466 0117 40       		.uleb128 0x40
 1467 0118 18       		.uleb128 0x18
 1468 0119 9742     		.uleb128 0x2117
 1469 011b 19       		.uleb128 0x19
 1470 011c 01       		.uleb128 0x1
 1471 011d 13       		.uleb128 0x13
 1472 011e 00       		.byte	0
 1473 011f 00       		.byte	0
ARM GAS  /tmp/cchp2dIa.s 			page 27


 1474 0120 16       		.uleb128 0x16
 1475 0121 05       		.uleb128 0x5
 1476 0122 00       		.byte	0
 1477 0123 03       		.uleb128 0x3
 1478 0124 08       		.uleb128 0x8
 1479 0125 3A       		.uleb128 0x3a
 1480 0126 0B       		.uleb128 0xb
 1481 0127 3B       		.uleb128 0x3b
 1482 0128 0B       		.uleb128 0xb
 1483 0129 49       		.uleb128 0x49
 1484 012a 13       		.uleb128 0x13
 1485 012b 02       		.uleb128 0x2
 1486 012c 17       		.uleb128 0x17
 1487 012d 00       		.byte	0
 1488 012e 00       		.byte	0
 1489 012f 17       		.uleb128 0x17
 1490 0130 34       		.uleb128 0x34
 1491 0131 00       		.byte	0
 1492 0132 03       		.uleb128 0x3
 1493 0133 08       		.uleb128 0x8
 1494 0134 3A       		.uleb128 0x3a
 1495 0135 0B       		.uleb128 0xb
 1496 0136 3B       		.uleb128 0x3b
 1497 0137 0B       		.uleb128 0xb
 1498 0138 49       		.uleb128 0x49
 1499 0139 13       		.uleb128 0x13
 1500 013a 02       		.uleb128 0x2
 1501 013b 17       		.uleb128 0x17
 1502 013c 00       		.byte	0
 1503 013d 00       		.byte	0
 1504 013e 18       		.uleb128 0x18
 1505 013f 0B       		.uleb128 0xb
 1506 0140 01       		.byte	0x1
 1507 0141 11       		.uleb128 0x11
 1508 0142 01       		.uleb128 0x1
 1509 0143 12       		.uleb128 0x12
 1510 0144 06       		.uleb128 0x6
 1511 0145 01       		.uleb128 0x1
 1512 0146 13       		.uleb128 0x13
 1513 0147 00       		.byte	0
 1514 0148 00       		.byte	0
 1515 0149 19       		.uleb128 0x19
 1516 014a 34       		.uleb128 0x34
 1517 014b 00       		.byte	0
 1518 014c 03       		.uleb128 0x3
 1519 014d 08       		.uleb128 0x8
 1520 014e 3A       		.uleb128 0x3a
 1521 014f 0B       		.uleb128 0xb
 1522 0150 3B       		.uleb128 0x3b
 1523 0151 0B       		.uleb128 0xb
 1524 0152 49       		.uleb128 0x49
 1525 0153 13       		.uleb128 0x13
 1526 0154 02       		.uleb128 0x2
 1527 0155 18       		.uleb128 0x18
 1528 0156 00       		.byte	0
 1529 0157 00       		.byte	0
 1530 0158 1A       		.uleb128 0x1a
ARM GAS  /tmp/cchp2dIa.s 			page 28


 1531 0159 1D       		.uleb128 0x1d
 1532 015a 01       		.byte	0x1
 1533 015b 31       		.uleb128 0x31
 1534 015c 13       		.uleb128 0x13
 1535 015d 52       		.uleb128 0x52
 1536 015e 01       		.uleb128 0x1
 1537 015f 55       		.uleb128 0x55
 1538 0160 17       		.uleb128 0x17
 1539 0161 58       		.uleb128 0x58
 1540 0162 0B       		.uleb128 0xb
 1541 0163 59       		.uleb128 0x59
 1542 0164 0B       		.uleb128 0xb
 1543 0165 01       		.uleb128 0x1
 1544 0166 13       		.uleb128 0x13
 1545 0167 00       		.byte	0
 1546 0168 00       		.byte	0
 1547 0169 1B       		.uleb128 0x1b
 1548 016a 05       		.uleb128 0x5
 1549 016b 00       		.byte	0
 1550 016c 31       		.uleb128 0x31
 1551 016d 13       		.uleb128 0x13
 1552 016e 02       		.uleb128 0x2
 1553 016f 17       		.uleb128 0x17
 1554 0170 00       		.byte	0
 1555 0171 00       		.byte	0
 1556 0172 1C       		.uleb128 0x1c
 1557 0173 898201   		.uleb128 0x4109
 1558 0176 00       		.byte	0
 1559 0177 11       		.uleb128 0x11
 1560 0178 01       		.uleb128 0x1
 1561 0179 31       		.uleb128 0x31
 1562 017a 13       		.uleb128 0x13
 1563 017b 00       		.byte	0
 1564 017c 00       		.byte	0
 1565 017d 1D       		.uleb128 0x1d
 1566 017e 898201   		.uleb128 0x4109
 1567 0181 01       		.byte	0x1
 1568 0182 11       		.uleb128 0x11
 1569 0183 01       		.uleb128 0x1
 1570 0184 31       		.uleb128 0x31
 1571 0185 13       		.uleb128 0x13
 1572 0186 01       		.uleb128 0x1
 1573 0187 13       		.uleb128 0x13
 1574 0188 00       		.byte	0
 1575 0189 00       		.byte	0
 1576 018a 1E       		.uleb128 0x1e
 1577 018b 8A8201   		.uleb128 0x410a
 1578 018e 00       		.byte	0
 1579 018f 02       		.uleb128 0x2
 1580 0190 18       		.uleb128 0x18
 1581 0191 9142     		.uleb128 0x2111
 1582 0193 18       		.uleb128 0x18
 1583 0194 00       		.byte	0
 1584 0195 00       		.byte	0
 1585 0196 1F       		.uleb128 0x1f
 1586 0197 898201   		.uleb128 0x4109
 1587 019a 01       		.byte	0x1
ARM GAS  /tmp/cchp2dIa.s 			page 29


 1588 019b 11       		.uleb128 0x11
 1589 019c 01       		.uleb128 0x1
 1590 019d 31       		.uleb128 0x31
 1591 019e 13       		.uleb128 0x13
 1592 019f 00       		.byte	0
 1593 01a0 00       		.byte	0
 1594 01a1 20       		.uleb128 0x20
 1595 01a2 0B       		.uleb128 0xb
 1596 01a3 01       		.byte	0x1
 1597 01a4 55       		.uleb128 0x55
 1598 01a5 17       		.uleb128 0x17
 1599 01a6 00       		.byte	0
 1600 01a7 00       		.byte	0
 1601 01a8 21       		.uleb128 0x21
 1602 01a9 34       		.uleb128 0x34
 1603 01aa 00       		.byte	0
 1604 01ab 31       		.uleb128 0x31
 1605 01ac 13       		.uleb128 0x13
 1606 01ad 02       		.uleb128 0x2
 1607 01ae 17       		.uleb128 0x17
 1608 01af 00       		.byte	0
 1609 01b0 00       		.byte	0
 1610 01b1 22       		.uleb128 0x22
 1611 01b2 2E       		.uleb128 0x2e
 1612 01b3 01       		.byte	0x1
 1613 01b4 3F       		.uleb128 0x3f
 1614 01b5 19       		.uleb128 0x19
 1615 01b6 03       		.uleb128 0x3
 1616 01b7 0E       		.uleb128 0xe
 1617 01b8 3A       		.uleb128 0x3a
 1618 01b9 0B       		.uleb128 0xb
 1619 01ba 3B       		.uleb128 0x3b
 1620 01bb 0B       		.uleb128 0xb
 1621 01bc 27       		.uleb128 0x27
 1622 01bd 19       		.uleb128 0x19
 1623 01be 11       		.uleb128 0x11
 1624 01bf 01       		.uleb128 0x1
 1625 01c0 12       		.uleb128 0x12
 1626 01c1 06       		.uleb128 0x6
 1627 01c2 40       		.uleb128 0x40
 1628 01c3 18       		.uleb128 0x18
 1629 01c4 9742     		.uleb128 0x2117
 1630 01c6 19       		.uleb128 0x19
 1631 01c7 01       		.uleb128 0x1
 1632 01c8 13       		.uleb128 0x13
 1633 01c9 00       		.byte	0
 1634 01ca 00       		.byte	0
 1635 01cb 23       		.uleb128 0x23
 1636 01cc 34       		.uleb128 0x34
 1637 01cd 00       		.byte	0
 1638 01ce 03       		.uleb128 0x3
 1639 01cf 0E       		.uleb128 0xe
 1640 01d0 3A       		.uleb128 0x3a
 1641 01d1 0B       		.uleb128 0xb
 1642 01d2 3B       		.uleb128 0x3b
 1643 01d3 0B       		.uleb128 0xb
 1644 01d4 49       		.uleb128 0x49
ARM GAS  /tmp/cchp2dIa.s 			page 30


 1645 01d5 13       		.uleb128 0x13
 1646 01d6 3F       		.uleb128 0x3f
 1647 01d7 19       		.uleb128 0x19
 1648 01d8 3C       		.uleb128 0x3c
 1649 01d9 19       		.uleb128 0x19
 1650 01da 00       		.byte	0
 1651 01db 00       		.byte	0
 1652 01dc 24       		.uleb128 0x24
 1653 01dd 2E       		.uleb128 0x2e
 1654 01de 00       		.byte	0
 1655 01df 3F       		.uleb128 0x3f
 1656 01e0 19       		.uleb128 0x19
 1657 01e1 03       		.uleb128 0x3
 1658 01e2 0E       		.uleb128 0xe
 1659 01e3 3A       		.uleb128 0x3a
 1660 01e4 0B       		.uleb128 0xb
 1661 01e5 3B       		.uleb128 0x3b
 1662 01e6 0B       		.uleb128 0xb
 1663 01e7 27       		.uleb128 0x27
 1664 01e8 19       		.uleb128 0x19
 1665 01e9 3C       		.uleb128 0x3c
 1666 01ea 19       		.uleb128 0x19
 1667 01eb 00       		.byte	0
 1668 01ec 00       		.byte	0
 1669 01ed 25       		.uleb128 0x25
 1670 01ee 2E       		.uleb128 0x2e
 1671 01ef 01       		.byte	0x1
 1672 01f0 3F       		.uleb128 0x3f
 1673 01f1 19       		.uleb128 0x19
 1674 01f2 03       		.uleb128 0x3
 1675 01f3 0E       		.uleb128 0xe
 1676 01f4 3A       		.uleb128 0x3a
 1677 01f5 0B       		.uleb128 0xb
 1678 01f6 3B       		.uleb128 0x3b
 1679 01f7 0B       		.uleb128 0xb
 1680 01f8 27       		.uleb128 0x27
 1681 01f9 19       		.uleb128 0x19
 1682 01fa 3C       		.uleb128 0x3c
 1683 01fb 19       		.uleb128 0x19
 1684 01fc 01       		.uleb128 0x1
 1685 01fd 13       		.uleb128 0x13
 1686 01fe 00       		.byte	0
 1687 01ff 00       		.byte	0
 1688 0200 26       		.uleb128 0x26
 1689 0201 05       		.uleb128 0x5
 1690 0202 00       		.byte	0
 1691 0203 49       		.uleb128 0x49
 1692 0204 13       		.uleb128 0x13
 1693 0205 00       		.byte	0
 1694 0206 00       		.byte	0
 1695 0207 27       		.uleb128 0x27
 1696 0208 2E       		.uleb128 0x2e
 1697 0209 01       		.byte	0x1
 1698 020a 3F       		.uleb128 0x3f
 1699 020b 19       		.uleb128 0x19
 1700 020c 03       		.uleb128 0x3
 1701 020d 0E       		.uleb128 0xe
ARM GAS  /tmp/cchp2dIa.s 			page 31


 1702 020e 3A       		.uleb128 0x3a
 1703 020f 0B       		.uleb128 0xb
 1704 0210 3B       		.uleb128 0x3b
 1705 0211 0B       		.uleb128 0xb
 1706 0212 27       		.uleb128 0x27
 1707 0213 19       		.uleb128 0x19
 1708 0214 49       		.uleb128 0x49
 1709 0215 13       		.uleb128 0x13
 1710 0216 3C       		.uleb128 0x3c
 1711 0217 19       		.uleb128 0x19
 1712 0218 01       		.uleb128 0x1
 1713 0219 13       		.uleb128 0x13
 1714 021a 00       		.byte	0
 1715 021b 00       		.byte	0
 1716 021c 28       		.uleb128 0x28
 1717 021d 2E       		.uleb128 0x2e
 1718 021e 01       		.byte	0x1
 1719 021f 3F       		.uleb128 0x3f
 1720 0220 19       		.uleb128 0x19
 1721 0221 03       		.uleb128 0x3
 1722 0222 0E       		.uleb128 0xe
 1723 0223 3A       		.uleb128 0x3a
 1724 0224 0B       		.uleb128 0xb
 1725 0225 3B       		.uleb128 0x3b
 1726 0226 0B       		.uleb128 0xb
 1727 0227 27       		.uleb128 0x27
 1728 0228 19       		.uleb128 0x19
 1729 0229 3C       		.uleb128 0x3c
 1730 022a 19       		.uleb128 0x19
 1731 022b 00       		.byte	0
 1732 022c 00       		.byte	0
 1733 022d 00       		.byte	0
 1734              		.section	.debug_loc,"",%progbits
 1735              	.Ldebug_loc0:
 1736              	.LLST0:
 1737 0000 00000000 		.4byte	.LVL0
 1738 0004 0C000000 		.4byte	.LVL2
 1739 0008 0100     		.2byte	0x1
 1740 000a 50       		.byte	0x50
 1741 000b 0C000000 		.4byte	.LVL2
 1742 000f 4E000000 		.4byte	.LVL11
 1743 0013 0100     		.2byte	0x1
 1744 0015 55       		.byte	0x55
 1745 0016 4E000000 		.4byte	.LVL11
 1746 001a 50000000 		.4byte	.LVL12
 1747 001e 0100     		.2byte	0x1
 1748 0020 50       		.byte	0x50
 1749 0021 50000000 		.4byte	.LVL12
 1750 0025 60000000 		.4byte	.LFE7
 1751 0029 0100     		.2byte	0x1
 1752 002b 55       		.byte	0x55
 1753 002c 00000000 		.4byte	0
 1754 0030 00000000 		.4byte	0
 1755              	.LLST1:
 1756 0034 00000000 		.4byte	.LVL0
 1757 0038 0C000000 		.4byte	.LVL2
 1758 003c 0100     		.2byte	0x1
ARM GAS  /tmp/cchp2dIa.s 			page 32


 1759 003e 51       		.byte	0x51
 1760 003f 0C000000 		.4byte	.LVL2
 1761 0043 38000000 		.4byte	.LVL7
 1762 0047 0100     		.2byte	0x1
 1763 0049 56       		.byte	0x56
 1764 004a 38000000 		.4byte	.LVL7
 1765 004e 46000000 		.4byte	.LVL9
 1766 0052 0100     		.2byte	0x1
 1767 0054 54       		.byte	0x54
 1768 0055 46000000 		.4byte	.LVL9
 1769 0059 4E000000 		.4byte	.LVL11
 1770 005d 0100     		.2byte	0x1
 1771 005f 56       		.byte	0x56
 1772 0060 4E000000 		.4byte	.LVL11
 1773 0064 53000000 		.4byte	.LVL13-1
 1774 0068 0100     		.2byte	0x1
 1775 006a 51       		.byte	0x51
 1776 006b 53000000 		.4byte	.LVL13-1
 1777 006f 60000000 		.4byte	.LFE7
 1778 0073 0100     		.2byte	0x1
 1779 0075 56       		.byte	0x56
 1780 0076 00000000 		.4byte	0
 1781 007a 00000000 		.4byte	0
 1782              	.LLST2:
 1783 007e 0A000000 		.4byte	.LVL1
 1784 0082 38000000 		.4byte	.LVL7
 1785 0086 0100     		.2byte	0x1
 1786 0088 54       		.byte	0x54
 1787 0089 46000000 		.4byte	.LVL9
 1788 008d 60000000 		.4byte	.LFE7
 1789 0091 0100     		.2byte	0x1
 1790 0093 54       		.byte	0x54
 1791 0094 00000000 		.4byte	0
 1792 0098 00000000 		.4byte	0
 1793              	.LLST3:
 1794 009c 20000000 		.4byte	.LVL4
 1795 00a0 30000000 		.4byte	.LVL5
 1796 00a4 0100     		.2byte	0x1
 1797 00a6 52       		.byte	0x52
 1798 00a7 30000000 		.4byte	.LVL5
 1799 00ab 46000000 		.4byte	.LVL9
 1800 00af 0300     		.2byte	0x3
 1801 00b1 75       		.byte	0x75
 1802 00b2 30       		.sleb128 48
 1803 00b3 9F       		.byte	0x9f
 1804 00b4 46000000 		.4byte	.LVL9
 1805 00b8 4B000000 		.4byte	.LVL10-1
 1806 00bc 0100     		.2byte	0x1
 1807 00be 52       		.byte	0x52
 1808 00bf 4B000000 		.4byte	.LVL10-1
 1809 00c3 4E000000 		.4byte	.LVL11
 1810 00c7 0300     		.2byte	0x3
 1811 00c9 75       		.byte	0x75
 1812 00ca 30       		.sleb128 48
 1813 00cb 9F       		.byte	0x9f
 1814 00cc 00000000 		.4byte	0
 1815 00d0 00000000 		.4byte	0
ARM GAS  /tmp/cchp2dIa.s 			page 33


 1816              	.LLST4:
 1817 00d4 20000000 		.4byte	.LVL4
 1818 00d8 38000000 		.4byte	.LVL7
 1819 00dc 0100     		.2byte	0x1
 1820 00de 54       		.byte	0x54
 1821 00df 46000000 		.4byte	.LVL9
 1822 00e3 4E000000 		.4byte	.LVL11
 1823 00e7 0100     		.2byte	0x1
 1824 00e9 54       		.byte	0x54
 1825 00ea 00000000 		.4byte	0
 1826 00ee 00000000 		.4byte	0
 1827              	.LLST5:
 1828 00f2 1A000000 		.4byte	.LVL15
 1829 00f6 29000000 		.4byte	.LVL16-1
 1830 00fa 0100     		.2byte	0x1
 1831 00fc 53       		.byte	0x53
 1832 00fd 00000000 		.4byte	0
 1833 0101 00000000 		.4byte	0
 1834              	.LLST6:
 1835 0105 1A000000 		.4byte	.LVL15
 1836 0109 34000000 		.4byte	.LVL17
 1837 010d 0100     		.2byte	0x1
 1838 010f 54       		.byte	0x54
 1839 0110 00000000 		.4byte	0
 1840 0114 00000000 		.4byte	0
 1841              	.LLST7:
 1842 0118 00000000 		.4byte	.LVL19
 1843 011c 0F000000 		.4byte	.LVL20-1
 1844 0120 0100     		.2byte	0x1
 1845 0122 50       		.byte	0x50
 1846 0123 0F000000 		.4byte	.LVL20-1
 1847 0127 32000000 		.4byte	.LVL24
 1848 012b 0100     		.2byte	0x1
 1849 012d 54       		.byte	0x54
 1850 012e 32000000 		.4byte	.LVL24
 1851 0132 38000000 		.4byte	.LFE9
 1852 0136 0400     		.2byte	0x4
 1853 0138 F3       		.byte	0xf3
 1854 0139 01       		.uleb128 0x1
 1855 013a 50       		.byte	0x50
 1856 013b 9F       		.byte	0x9f
 1857 013c 00000000 		.4byte	0
 1858 0140 00000000 		.4byte	0
 1859              	.LLST8:
 1860 0144 00000000 		.4byte	.LVL19
 1861 0148 0F000000 		.4byte	.LVL20-1
 1862 014c 0100     		.2byte	0x1
 1863 014e 51       		.byte	0x51
 1864 014f 0F000000 		.4byte	.LVL20-1
 1865 0153 32000000 		.4byte	.LVL24
 1866 0157 0100     		.2byte	0x1
 1867 0159 55       		.byte	0x55
 1868 015a 32000000 		.4byte	.LVL24
 1869 015e 38000000 		.4byte	.LFE9
 1870 0162 0400     		.2byte	0x4
 1871 0164 F3       		.byte	0xf3
 1872 0165 01       		.uleb128 0x1
ARM GAS  /tmp/cchp2dIa.s 			page 34


 1873 0166 51       		.byte	0x51
 1874 0167 9F       		.byte	0x9f
 1875 0168 00000000 		.4byte	0
 1876 016c 00000000 		.4byte	0
 1877              		.section	.debug_aranges,"",%progbits
 1878 0000 2C000000 		.4byte	0x2c
 1879 0004 0200     		.2byte	0x2
 1880 0006 00000000 		.4byte	.Ldebug_info0
 1881 000a 04       		.byte	0x4
 1882 000b 00       		.byte	0
 1883 000c 0000     		.2byte	0
 1884 000e 0000     		.2byte	0
 1885 0010 00000000 		.4byte	.LFB7
 1886 0014 60000000 		.4byte	.LFE7-.LFB7
 1887 0018 00000000 		.4byte	.LFB8
 1888 001c 48000000 		.4byte	.LFE8-.LFB8
 1889 0020 00000000 		.4byte	.LFB9
 1890 0024 38000000 		.4byte	.LFE9-.LFB9
 1891 0028 00000000 		.4byte	0
 1892 002c 00000000 		.4byte	0
 1893              		.section	.debug_ranges,"",%progbits
 1894              	.Ldebug_ranges0:
 1895 0000 20000000 		.4byte	.LBB11
 1896 0004 22000000 		.4byte	.LBE11
 1897 0008 26000000 		.4byte	.LBB14
 1898 000c 2E000000 		.4byte	.LBE14
 1899 0010 00000000 		.4byte	0
 1900 0014 00000000 		.4byte	0
 1901 0018 1A000000 		.4byte	.LBB17
 1902 001c 1C000000 		.4byte	.LBE17
 1903 0020 1E000000 		.4byte	.LBB20
 1904 0024 22000000 		.4byte	.LBE20
 1905 0028 00000000 		.4byte	0
 1906 002c 00000000 		.4byte	0
 1907 0030 00000000 		.4byte	.LFB7
 1908 0034 60000000 		.4byte	.LFE7
 1909 0038 00000000 		.4byte	.LFB8
 1910 003c 48000000 		.4byte	.LFE8
 1911 0040 00000000 		.4byte	.LFB9
 1912 0044 38000000 		.4byte	.LFE9
 1913 0048 00000000 		.4byte	0
 1914 004c 00000000 		.4byte	0
 1915              		.section	.debug_line,"",%progbits
 1916              	.Ldebug_line0:
 1917 0000 57020000 		.section	.debug_str,"MS",%progbits,1
 1917      0200CE01 
 1917      00000201 
 1917      FB0E0D00 
 1917      01010101 
 1918              	.LASF42:
 1919 0000 705F6D73 		.ascii	"p_msg\000"
 1919      6700
 1920              	.LASF79:
 1921 0006 71756575 		.ascii	"queue_insert\000"
 1921      655F696E 
 1921      73657274 
 1921      00
ARM GAS  /tmp/cchp2dIa.s 			page 35


 1922              	.LASF75:
 1923 0013 63684462 		.ascii	"chDbgPanic\000"
 1923      6750616E 
 1923      696300
 1924              	.LASF65:
 1925 001e 7264796D 		.ascii	"rdymsg\000"
 1925      736700
 1926              	.LASF16:
 1927 0025 75696E74 		.ascii	"uint64_t\000"
 1927      36345F74 
 1927      00
 1928              	.LASF5:
 1929 002e 5F5F7569 		.ascii	"__uint8_t\000"
 1929      6E74385F 
 1929      7400
 1930              	.LASF12:
 1931 0038 6C6F6E67 		.ascii	"long long unsigned int\000"
 1931      206C6F6E 
 1931      6720756E 
 1931      7369676E 
 1931      65642069 
 1932              	.LASF66:
 1933 004f 65786974 		.ascii	"exitcode\000"
 1933      636F6465 
 1933      00
 1934              	.LASF29:
 1935 0058 705F7072 		.ascii	"p_prio\000"
 1935      696F00
 1936              	.LASF10:
 1937 005f 6C6F6E67 		.ascii	"long long int\000"
 1937      206C6F6E 
 1937      6720696E 
 1937      7400
 1938              	.LASF1:
 1939 006d 7369676E 		.ascii	"signed char\000"
 1939      65642063 
 1939      68617200 
 1940              	.LASF46:
 1941 0079 705F6D70 		.ascii	"p_mpool\000"
 1941      6F6F6C00 
 1942              	.LASF62:
 1943 0081 6D5F7175 		.ascii	"m_queue\000"
 1943      65756500 
 1944              	.LASF21:
 1945 0089 74736C69 		.ascii	"tslices_t\000"
 1945      6365735F 
 1945      7400
 1946              	.LASF7:
 1947 0093 6C6F6E67 		.ascii	"long int\000"
 1947      20696E74 
 1947      00
 1948              	.LASF77:
 1949 009c 2E2E2F2E 		.ascii	"../../../os/kernel/src/chmsg.c\000"
 1949      2E2F2E2E 
 1949      2F6F732F 
 1949      6B65726E 
 1949      656C2F73 
ARM GAS  /tmp/cchp2dIa.s 			page 36


 1950              	.LASF70:
 1951 00bb 63684D73 		.ascii	"chMsgSend\000"
 1951      6753656E 
 1951      6400
 1952              	.LASF19:
 1953 00c5 74737461 		.ascii	"tstate_t\000"
 1953      74655F74 
 1953      00
 1954              	.LASF31:
 1955 00ce 705F6E65 		.ascii	"p_newer\000"
 1955      77657200 
 1956              	.LASF8:
 1957 00d6 5F5F7569 		.ascii	"__uint32_t\000"
 1957      6E743332 
 1957      5F7400
 1958              	.LASF49:
 1959 00e1 72656761 		.ascii	"regarm_t\000"
 1959      726D5F74 
 1959      00
 1960              	.LASF34:
 1961 00ea 705F7374 		.ascii	"p_stklimit\000"
 1961      6B6C696D 
 1961      697400
 1962              	.LASF0:
 1963 00f5 756E7369 		.ascii	"unsigned int\000"
 1963      676E6564 
 1963      20696E74 
 1963      00
 1964              	.LASF9:
 1965 0102 6C6F6E67 		.ascii	"long unsigned int\000"
 1965      20756E73 
 1965      69676E65 
 1965      6420696E 
 1965      7400
 1966              	.LASF52:
 1967 0114 636F6E74 		.ascii	"context\000"
 1967      65787400 
 1968              	.LASF4:
 1969 011c 73686F72 		.ascii	"short unsigned int\000"
 1969      7420756E 
 1969      7369676E 
 1969      65642069 
 1969      6E7400
 1970              	.LASF23:
 1971 012f 6D73675F 		.ascii	"msg_t\000"
 1971      7400
 1972              	.LASF78:
 1973 0135 2F686F6D 		.ascii	"/homes/msunkara/ASE-praticle-folder/ChibiOS/testhal"
 1973      65732F6D 
 1973      73756E6B 
 1973      6172612F 
 1973      4153452D 
 1974 0168 2F53544D 		.ascii	"/STM32F1xx/SPI\000"
 1974      33324631 
 1974      78782F53 
 1974      504900
 1975              	.LASF57:
ARM GAS  /tmp/cchp2dIa.s 			page 37


 1976 0177 725F6E65 		.ascii	"r_newer\000"
 1976      77657200 
 1977              	.LASF18:
 1978 017f 746D6F64 		.ascii	"tmode_t\000"
 1978      655F7400 
 1979              	.LASF48:
 1980 0187 54687265 		.ascii	"ThreadsList\000"
 1980      6164734C 
 1980      69737400 
 1981              	.LASF24:
 1982 0193 6576656E 		.ascii	"eventmask_t\000"
 1982      746D6173 
 1982      6B5F7400 
 1983              	.LASF61:
 1984 019f 4D757465 		.ascii	"Mutex\000"
 1984      7800
 1985              	.LASF50:
 1986 01a5 73746B61 		.ascii	"stkalign_t\000"
 1986      6C69676E 
 1986      5F7400
 1987              	.LASF53:
 1988 01b0 73697A65 		.ascii	"sizetype\000"
 1988      74797065 
 1988      00
 1989              	.LASF72:
 1990 01b9 6462675F 		.ascii	"dbg_check_lock\000"
 1990      63686563 
 1990      6B5F6C6F 
 1990      636B00
 1991              	.LASF32:
 1992 01c8 705F6F6C 		.ascii	"p_older\000"
 1992      64657200 
 1993              	.LASF56:
 1994 01d0 725F6374 		.ascii	"r_ctx\000"
 1994      7800
 1995              	.LASF47:
 1996 01d6 54687265 		.ascii	"ThreadsQueue\000"
 1996      61647351 
 1996      75657565 
 1996      00
 1997              	.LASF59:
 1998 01e3 725F6375 		.ascii	"r_current\000"
 1998      7272656E 
 1998      7400
 1999              	.LASF58:
 2000 01ed 725F6F6C 		.ascii	"r_older\000"
 2000      64657200 
 2001              	.LASF73:
 2002 01f5 6462675F 		.ascii	"dbg_check_unlock\000"
 2002      63686563 
 2002      6B5F756E 
 2002      6C6F636B 
 2002      00
 2003              	.LASF11:
 2004 0206 5F5F7569 		.ascii	"__uint64_t\000"
 2004      6E743634 
 2004      5F7400
ARM GAS  /tmp/cchp2dIa.s 			page 38


 2005              	.LASF20:
 2006 0211 74726566 		.ascii	"trefs_t\000"
 2006      735F7400 
 2007              	.LASF28:
 2008 0219 705F7072 		.ascii	"p_prev\000"
 2008      657600
 2009              	.LASF22:
 2010 0220 74707269 		.ascii	"tprio_t\000"
 2010      6F5F7400 
 2011              	.LASF17:
 2012 0228 5F426F6F 		.ascii	"_Bool\000"
 2012      6C00
 2013              	.LASF14:
 2014 022e 696E7433 		.ascii	"int32_t\000"
 2014      325F7400 
 2015              	.LASF2:
 2016 0236 756E7369 		.ascii	"unsigned char\000"
 2016      676E6564 
 2016      20636861 
 2016      7200
 2017              	.LASF44:
 2018 0244 705F6D74 		.ascii	"p_mtxlist\000"
 2018      786C6973 
 2018      7400
 2019              	.LASF3:
 2020 024e 73686F72 		.ascii	"short int\000"
 2020      7420696E 
 2020      7400
 2021              	.LASF35:
 2022 0258 705F7374 		.ascii	"p_state\000"
 2022      61746500 
 2023              	.LASF38:
 2024 0260 705F7072 		.ascii	"p_preempt\000"
 2024      65656D70 
 2024      7400
 2025              	.LASF55:
 2026 026a 725F7072 		.ascii	"r_prio\000"
 2026      696F00
 2027              	.LASF68:
 2028 0271 65776D61 		.ascii	"ewmask\000"
 2028      736B00
 2029              	.LASF27:
 2030 0278 705F6E65 		.ascii	"p_next\000"
 2030      787400
 2031              	.LASF36:
 2032 027f 705F666C 		.ascii	"p_flags\000"
 2032      61677300 
 2033              	.LASF26:
 2034 0287 54687265 		.ascii	"Thread\000"
 2034      616400
 2035              	.LASF81:
 2036 028e 63684D73 		.ascii	"chMsgRelease\000"
 2036      6752656C 
 2036      65617365 
 2036      00
 2037              	.LASF74:
 2038 029b 63685363 		.ascii	"chSchGoSleepS\000"
ARM GAS  /tmp/cchp2dIa.s 			page 39


 2038      68476F53 
 2038      6C656570 
 2038      5300
 2039              	.LASF43:
 2040 02a9 705F6570 		.ascii	"p_epending\000"
 2040      656E6469 
 2040      6E6700
 2041              	.LASF15:
 2042 02b4 75696E74 		.ascii	"uint32_t\000"
 2042      33325F74 
 2042      00
 2043              	.LASF54:
 2044 02bd 725F7175 		.ascii	"r_queue\000"
 2044      65756500 
 2045              	.LASF83:
 2046 02c5 63685363 		.ascii	"chSchReadyI\000"
 2046      68526561 
 2046      64794900 
 2047              	.LASF69:
 2048 02d1 63686172 		.ascii	"char\000"
 2048      00
 2049              	.LASF80:
 2050 02d6 6669666F 		.ascii	"fifo_remove\000"
 2050      5F72656D 
 2050      6F766500 
 2051              	.LASF64:
 2052 02e2 6D5F6E65 		.ascii	"m_next\000"
 2052      787400
 2053              	.LASF25:
 2054 02e9 73797374 		.ascii	"systime_t\000"
 2054      696D655F 
 2054      7400
 2055              	.LASF45:
 2056 02f3 705F7265 		.ascii	"p_realprio\000"
 2056      616C7072 
 2056      696F00
 2057              	.LASF6:
 2058 02fe 5F5F696E 		.ascii	"__int32_t\000"
 2058      7433325F 
 2058      7400
 2059              	.LASF39:
 2060 0308 705F7469 		.ascii	"p_time\000"
 2060      6D6500
 2061              	.LASF51:
 2062 030f 696E7463 		.ascii	"intctx\000"
 2062      747800
 2063              	.LASF41:
 2064 0316 705F6D73 		.ascii	"p_msgqueue\000"
 2064      67717565 
 2064      756500
 2065              	.LASF84:
 2066 0321 63685363 		.ascii	"chSchWakeupS\000"
 2066      6857616B 
 2066      65757053 
 2066      00
 2067              	.LASF71:
 2068 032e 63684D73 		.ascii	"chMsgWait\000"
ARM GAS  /tmp/cchp2dIa.s 			page 40


 2068      67576169 
 2068      7400
 2069              	.LASF37:
 2070 0338 705F7265 		.ascii	"p_refs\000"
 2070      667300
 2071              	.LASF60:
 2072 033f 52656164 		.ascii	"ReadyList\000"
 2072      794C6973 
 2072      7400
 2073              	.LASF82:
 2074 0349 726C6973 		.ascii	"rlist\000"
 2074      7400
 2075              	.LASF13:
 2076 034f 75696E74 		.ascii	"uint8_t\000"
 2076      385F7400 
 2077              	.LASF67:
 2078 0357 77746F62 		.ascii	"wtobjp\000"
 2078      6A7000
 2079              	.LASF33:
 2080 035e 705F6E61 		.ascii	"p_name\000"
 2080      6D6500
 2081              	.LASF76:
 2082 0365 474E5520 		.ascii	"GNU C 4.8.3 20140228 (release) [ARM/embedded-4_8-br"
 2082      4320342E 
 2082      382E3320 
 2082      32303134 
 2082      30323238 
 2083 0398 616E6368 		.ascii	"anch revision 208322] -mcpu=cortex-m3 -mno-thumb-in"
 2083      20726576 
 2083      6973696F 
 2083      6E203230 
 2083      38333232 
 2084 03cb 74657277 		.ascii	"terwork -mthumb -ggdb -O2 -fomit-frame-pointer -fal"
 2084      6F726B20 
 2084      2D6D7468 
 2084      756D6220 
 2084      2D676764 
 2085 03fe 69676E2D 		.ascii	"ign-functions=16 -ffunction-sections -fdata-section"
 2085      66756E63 
 2085      74696F6E 
 2085      733D3136 
 2085      202D6666 
 2086 0431 73202D66 		.ascii	"s -fno-common\000"
 2086      6E6F2D63 
 2086      6F6D6D6F 
 2086      6E00
 2087              	.LASF63:
 2088 043f 6D5F6F77 		.ascii	"m_owner\000"
 2088      6E657200 
 2089              	.LASF30:
 2090 0447 705F6374 		.ascii	"p_ctx\000"
 2090      7800
 2091              	.LASF40:
 2092 044d 705F7761 		.ascii	"p_waiting\000"
 2092      6974696E 
 2092      6700
 2093              		.ident	"GCC: (GNU Tools for ARM Embedded Processors) 4.8.3 20140228 (release) [ARM/embedded-4_8-br
ARM GAS  /tmp/cchp2dIa.s 			page 41


ARM GAS  /tmp/cchp2dIa.s 			page 42


DEFINED SYMBOLS
                            *ABS*:00000000 chmsg.c
     /tmp/cchp2dIa.s:19     .text.chMsgSend:00000000 $t
     /tmp/cchp2dIa.s:25     .text.chMsgSend:00000000 chMsgSend
     /tmp/cchp2dIa.s:132    .text.chMsgSend:00000058 $d
     /tmp/cchp2dIa.s:138    .text.chMsgWait:00000000 $t
     /tmp/cchp2dIa.s:144    .text.chMsgWait:00000000 chMsgWait
     /tmp/cchp2dIa.s:220    .text.chMsgWait:00000044 $d
     /tmp/cchp2dIa.s:225    .text.chMsgRelease:00000000 $t
     /tmp/cchp2dIa.s:231    .text.chMsgRelease:00000000 chMsgRelease
     /tmp/cchp2dIa.s:285    .text.chMsgRelease:00000034 $d
     /tmp/cchp2dIa.s:291    .rodata.str1.4:00000000 $d
                     .debug_frame:00000010 $d
     /tmp/cchp2dIa.s:224    .text.chMsgWait:00000048 $t
     /tmp/cchp2dIa.s:290    .text.chMsgRelease:00000038 $t

UNDEFINED SYMBOLS
dbg_check_lock
chSchGoSleepS
dbg_check_unlock
chSchReadyI
chDbgPanic
rlist
chSchWakeupS
